4087.953539855,4150.243133842,4268.855773253,4382.039950804
4035.022386598,4060.648121861,4107.574286051,4156.668677112
4219.867458321,4293.605339440,4325.014735447,4292.373718217
4487.802786037,4656.149975164,4748.508305593,4688.654185732
