-8.358351783-0.714345904i,4.438680464-10.893294425i,18.427188801-11.487106646i,11.683957682-11.425340355i,18.077246357+26.325307250i,-23.234209796+2.154668470i,-10.976513846-29.853891480i,17.309481383-17.612452993i
18.285022091+29.730707907i,-7.874701749-12.264957348i,-1.140530745-13.557245801i,-13.912714054+2.092191930i,8.732159526-6.212485758i,30.469185593+8.662119852i,-65.775391918+17.684473569i,51.350306987-80.581637483i
-27.218766235+19.627290464i,-1.944596629-28.630430849i,10.652865351+32.785446222i,-39.298441112+16.582000296i,-14.799783620-22.839859258i,-4.202708510-18.145270885i,27.085152391+53.734645832i,-66.026304925+30.438291140i
-18.460918522+5.948209031i,-17.434221573-15.851603890i,4.611090586-22.396633177i,-8.668438943+27.420950958i,-18.627402962-43.033333613i,39.791975399+5.446631179i,13.097504022+8.882506493i,15.941488523+60.523837234i
-8.690703439+1.374352862i,-30.288100196+10.938779903i,-28.918594910-28.505884500i,-14.361136093-57.321169020i,35.984768476-29.220852364i,-9.879569340+14.442641201i,-13.682690380-5.236331517i,40.342286940+27.730468995i
-34.870982705+29.362127789i,-21.031161193+17.156501711i,-26.623172684-19.188514081i,-22.390197838+44.111112060i,-59.645815248-33.709885975i,18.359864873-2.213050288i,9.792261915-10.766382822i,30.808653160+16.953423467i
-0.142306095+78.182826047i,-16.640212413+17.821213305i,20.083870992+22.379436028i,19.341726406+16.384802325i,14.230502418+77.147408588i,-51.416928736+14.753498483i,5.198030993-10.423075847i,24.848657668+38.949046996i
8.727342863+27.710865470i,-9.880970870+11.635398938i,13.438009180+11.368712094i,-27.719477580+12.072198864i,37.687180725+0.280063980i,-28.300656300+41.203064120i,28.118021817-20.992507083i,5.564292100-0.104857079i
