60.719482608+5.925627671i,42.078825574+38.692275843i,95.049176640-52.351198388i,45.309343914-91.128141532i,39.473889946-65.536941500i,90.438674992-53.526471508i,11.922726891-24.257279885i,18.506749393+23.039543560i,53.428708387+51.394953808i,78.669170139-31.571665756i,72.917243003-93.470661208i,28.108832291-173.126469795i,37.545220590-135.959875897i,-61.427142493-120.779403325i,-91.047224403-36.377067092i,-56.286441981-65.230301015i
-27.796042112-23.755068452i,-64.106975187-1.332663450i,-68.508501044+40.519014630i,-62.984319909+73.902472105i,-6.199977020+112.933373977i,26.593310170+130.441103762i,78.551971247+85.428744661i,104.887087527+84.539532296i,131.936637101+47.197626008i,103.015082645+27.578866162i,122.703795181+14.738538686i,63.136781121-46.281776564i,22.358183331+62.646097815i,58.547375912-27.560385169i,-119.898417806-45.299153922i,-26.034417165+1.934587609i
-5.831076728+1.549947434i,-11.796383071-13.625317787i,-2.107720885-8.733508157i,12.177910388-27.770546768i,1.253361490-3.713807857i,-2.766885143-70.150231859i,-25.330685302-29.278481344i,7.393435151-40.561117604i,-44.541571191-20.236282771i,-97.465503179-91.908406228i,-159.519072684-29.454932638i,-154.705502383-8.589297115i,-164.060518077-5.865534051i,-145.599981282+83.276176080i,8.777433469+38.776912382i,-57.820718541+49.281754712i
54.112793740+1.325378169i,92.772558396-30.024981346i,80.534164123-44.299899080i,123.911309494-43.323878177i,12.753875001-140.774801446i,-54.543007775-56.812988161i,-20.000895715-41.276383586i,-27.859184667-29.726876093i,-43.688800669-42.324500255i,-14.570505032-83.164599678i,-63.114584558-93.212185611i,-78.947085001-70.878580264i,-96.765643488-22.418383719i,-74.086335767+2.811676024i,-54.189550244-15.860180673i,-69.995159148+79.096120945i
55.601777669-100.679083654i,46.047145923-59.749806305i,35.826876590-136.249101747i,-79.448260630-78.412734346i,-44.924426469-78.670029710i,-133.321481421-67.438854660i,-115.379785657+58.472251985i,-58.280420257+35.510027748i,1.600604855+56.986665180i,1.103585053+36.514689157i,-12.012850741+62.611392790i,8.684314051+67.873074412i,14.924163372+24.238836711i,44.221782234+21.700030787i,66.878570620+39.523373233i,23.553210106-6.287622574i
42.875371358-118.058875698i,-32.469199475-106.487014503i,0.471258040-58.550264792i,-26.585720792-97.994407687i,-69.962891282+6.308899491i,11.927439346+30.176356407i,-8.483661409-25.760948185i,45.735491936+14.233169706i,66.758277778-6.347487426i,79.952519115-9.764658367i,28.491308483-37.021403595i,-37.469269551-29.657455220i,9.918412924-6.849848130i,56.597213662-81.431261693i,-60.518821229-112.209621130i,5.013349843-28.696712804i
-36.880934298-78.736660148i,-26.547051655+17.531205237i,-29.337733510+4.707780778i,-16.223039226+67.158954531i,14.780527570+75.254747524i,57.168393925+81.338759152i,109.716544274-2.539488389i,45.755561896-28.826035312i,102.283115911-20.817932913i,27.708683493-43.394095202i,101.592363845+5.054432584i,65.028891506-121.484925734i,-16.537125001-94.392819074i,-32.641289194-107.591388857i,-68.636733998-78.031574244i,-61.981097716-59.449486386i
-22.875929526+17.192968038i,-75.284018910+48.057995885i,38.896897805+67.715435195i,13.277397744-42.313931147i,-31.533053444-3.424737064i,-16.795828393-31.871322206i,-38.615887792+15.862844096i,-20.921627442-34.507881239i,-67.824808073+3.960266985i,-38.081398402-13.568996735i,-101.511939223+74.651740068i,-11.182700455+70.698153227i,25.538511745+18.684953413i,21.506112212-15.642889743i,-14.448180408-32.315876390i,-29.336911190-3.352526384i
35.560900731+104.811279516i,58.876801899-34.289765124i,13.191120116+8.744879144i,61.173501182-27.511565230i,-7.948849005-33.393707110i,41.209442241-13.448677743i,13.522776242-66.191652142i,31.698615728-56.931228014i,-31.219041703-93.123866805i,10.884168021-2.247215705i,-59.748138025-94.020721820i,-43.080817171+26.547083997i,-0.726497915-8.560269764i,-2.368534056+7.136162634i,44.322268441-27.191677047i,-9.005493705-43.475367927i
-48.518388573+82.198564414i,52.774964398+35.146954506i,46.461573893+36.887492592i,66.710443384+22.096012678i,68.297303441-54.444740281i,-2.376712628-41.688430597i,27.770582227+1.702314931i,10.557094181-5.551189702i,60.577398242-28.150710400i,-4.430583135-21.843880526i,62.103938153-35.658196308i,-31.315041526-39.115839832i,32.144831588-6.649747888i,14.899036243-49.133031529i,-36.206244618+19.224713453i,13.693747309+33.144613938i
9.222271520-21.462112821i,-26.689302519+22.246486893i,-39.828233347+65.647874965i,7.024159738+18.861792100i,-59.901673422+2.257268623i,37.993844476+29.316842336i,-8.704082557-81.164843518i,12.688904884-35.483951195i,-54.581067586+55.550436670i,-4.693661768+107.507907906i,47.610227712+137.833695956i,92.547903609+52.281091733i,30.155648805+79.533379840i,60.508894241+96.597436741i,83.274440289+31.179784374i,-3.970061981+86.517290538i
82.407005662-106.913736273i,-3.125706298-116.406059683i,-45.185957304-62.545117625i,4.351679572-74.593398196i,-67.666565484-115.471648532i,-72.542264349-8.196246010i,-16.840800950-36.650826026i,-30.045255340-22.367822088i,-101.065108246-40.900181874i,-108.138890650+57.044327603i,-43.924163926+104.287989077i,40.702763157+130.475648731i,31.860452798+101.250482219i,-31.561559165+151.305083022i,22.047079602+152.892527827i,22.580072921+120.666224994i
-37.771840793+80.298608400i,-29.841305093+75.749634352i,-5.526342752+70.181902216i,42.601044744+105.379459907i,83.853548034+77.700103084i,80.860231526+52.450483137i,88.643311571-14.987250723i,75.642896040-2.962322878i,82.484704926-84.674345540i,-104.083157290-60.327083615i,-140.427851150+80.344085923i,-41.454500055+158.240236682i,91.984694041+102.221455059i,33.437818947+69.219573210i,108.541168132+55.577857671i,53.251724471+25.756997171i
-101.731204573+35.363324575i,-47.633215149+66.428320870i,9.209001524+78.126094736i,26.617533698+92.876707037i,70.084973411+63.014830741i,81.595359470-22.338552006i,117.834386135-2.899563220i,105.626513973-44.013523682i,70.591313150-100.938472815i,-56.844341082-105.535760304i,-81.516265347-17.167513015i,-144.631862555+77.282191566i,-57.335234431+176.629868764i,-23.946834816+148.520969160i,11.959028331+152.219536321i,130.808077802+43.567142968i
-23.918079847-17.188206338i,-1.845078328+29.503873707i,37.697416296+34.973018559i,18.739434884-20.145768069i,13.180328382-6.326817370i,32.644798180+4.799145194i,22.381398365+6.471152514i,28.501784458-66.474019057i,-43.734283465-64.508560313i,-112.746416468-36.564520104i,-136.937600713+70.186414419i,-20.253876934+35.021215232i,-22.645967531+25.569977832i,-17.828444097+3.658960379i,18.263722682+35.764508881i,29.626014946+61.654854935i
44.985087517-71.242814307i,-19.593786176-123.091949537i,-30.452547631-75.756629892i,0.880447939-80.771018357i,-10.493510331-26.561573475i,-16.873922278-11.593191960i,-1.964508703+18.406975749i,43.789509978+8.446053758i,6.509366919+15.573598364i,36.571892559-56.313022235i,-53.175829761-123.246010824i,-65.974708473-51.966733741i,-93.342714740-16.774147827i,-42.727460190-28.913563699i,-87.600996346+38.271902742i,13.510300454+57.235951993i
