[tanrek: 2011-03-16 15:25:04] INFO: Experiment Associated with Project "Debug".
[tanrek: 2011-03-16 15:25:04] INFO: Creating new Experiment ("DERTEST10"), Project-PK ("1") in Database!
[tanrek: 2011-03-16 15:25:05] INFO: Extracting Features using 7 Threads!
[tanrek: 2011-03-16 15:25:05] INFO: Feature Extraction Parameters: 
[tanrek: 2011-03-16 15:25:05] INFO: Feature Extraction Method: LBP
[tanrek: 2011-03-16 15:25:05] INFO: Uniform-Patterns: true
[tanrek: 2011-03-16 15:25:05] INFO: Color: true
[tanrek: 2011-03-16 15:25:05] INFO: Neighbors: 8
[tanrek: 2011-03-16 15:25:05] INFO: Minimum Scale: 1
[tanrek: 2011-03-16 15:25:05] INFO: Maximum Scale: 3
[tanrek: 2011-03-16 15:25:28] INFO: Feature Extraction Finished Successfully.
[tanrek: 2011-03-16 15:25:28] INFO: Features Extracted from 67 (Training), 0 (Test) Images and 2 Classes!
[tanrek: 2011-03-16 15:25:28] INFO: Features Extracted in 23,385147 Seconds.
[tanrek: 2011-03-16 15:25:28] INFO: Starting Feature Subset Optimization.
[tanrek: 2011-03-16 15:25:32] INFO: Feature Subset Optimization Finished in 3,312648 Seconds.
[tanrek: 2011-03-16 15:25:32] INFO: Best Feature Subset: {1, 5}
[tanrek: 2011-03-16 15:25:32] INFO: LOPO Patient Information:
[tanrek: 2011-03-16 15:25:32] INFO: Patient (1): ElkazMedina 
[tanrek: 2011-03-16 15:25:32] INFO: 		-> Elkaz_Medina_OEGD_20070417_2401-0.png
[tanrek: 2011-03-16 15:25:32] INFO: Patient (2): DemirDoenenur 
[tanrek: 2011-03-16 15:25:32] INFO: 		-> Demir_Doenenur_OEGD_20081216_8189-0.png
[tanrek: 2011-03-16 15:25:32] INFO: 		-> Demir_Doenenur_OEGD_20081216_8191-0.png
[tanrek: 2011-03-16 15:25:32] INFO: 		-> Demir_Doenenur_OEGD_20081216_8192-0.png
[tanrek: 2011-03-16 15:25:32] INFO: Patient (3): KornbergerDenise 
[tanrek: 2011-03-16 15:25:32] INFO: 		-> Kornberger_Denise_ÖGD_20090310_9068-Q165-0.PNG
[tanrek: 2011-03-16 15:25:32] INFO: 		-> Kornberger_Denise_ÖGD_20090310_9065-Q165-1.PNG
[tanrek: 2011-03-16 15:25:32] INFO: 		-> Kornberger_Denise_ÖGD_20090310_9067-Q165-2.PNG
[tanrek: 2011-03-16 15:25:32] INFO: 		-> Kornberger_Denise_ÖGD_20090310_9065-Q165-2.PNG
[tanrek: 2011-03-16 15:25:32] INFO: 		-> Kornberger_Denise_ÖGD_20090310_9070-Q165-3.PNG
[tanrek: 2011-03-16 15:25:32] INFO: 		-> Kornberger_Denise_ÖGD_20090310_9066-Q165-0.PNG
[tanrek: 2011-03-16 15:25:32] INFO: Patient (4): AbotalbRana 
[tanrek: 2011-03-16 15:25:32] INFO: 		-> Abotalb_Rana_OEGD_20071106_4248-0.png
[tanrek: 2011-03-16 15:25:32] INFO: 		-> Abotalb_Rana_OEGD_20071106_4248-1.png
[tanrek: 2011-03-16 15:25:32] INFO: Patient (5): WeberElena 
[tanrek: 2011-03-16 15:25:32] INFO: 		-> Weber_Elena_OEGD_20090127_8493-0.png
[tanrek: 2011-03-16 15:25:32] INFO: 		-> Weber_Elena_OEGD_20090127_8505-0.png
[tanrek: 2011-03-16 15:25:32] INFO: Patient (6): AltuntasMuhamed 
[tanrek: 2011-03-16 15:25:32] INFO: 		-> Altuntas_Muhamed_OEGD_20071002_3856-0.png
[tanrek: 2011-03-16 15:25:32] INFO: 		-> Altuntas_Muhamed_OEGD_20071002_3856-1.png
[tanrek: 2011-03-16 15:25:32] INFO: Patient (7): BendekovicNicol 
[tanrek: 2011-03-16 15:25:32] INFO: 		-> Bendekovic_Nicol_OEGD_20080904_7098-0.png
[tanrek: 2011-03-16 15:25:32] INFO: Patient (8): BayglayanDeniz 
[tanrek: 2011-03-16 15:25:32] INFO: 		-> Bayglayan_Deniz_OEGD_20071120_4389-0.png
[tanrek: 2011-03-16 15:25:32] INFO: Patient (9): AshrafCaynat 
[tanrek: 2011-03-16 15:25:32] INFO: 		-> Ashraf_Caynat_OEGD_20080205_5153-0.png
[tanrek: 2011-03-16 15:25:32] INFO: 		-> Ashraf_Caynat_OEGD_20080205_5153-1.png
[tanrek: 2011-03-16 15:25:32] INFO: Patient (10): BastanKadir 
[tanrek: 2011-03-16 15:25:32] INFO: 		-> Bastan_Kadir_ÖGD_20091020_11285-Q165-0.PNG
[tanrek: 2011-03-16 15:25:32] INFO: Patient (11): HasguelFeyzulah 
[tanrek: 2011-03-16 15:25:32] INFO: 		-> Hasguel_Feyzulah_OEGD_20070723_3300-0.png
[tanrek: 2011-03-16 15:25:32] INFO: 		-> Hasguel_Feyzulah_OEGD_20070723_3311-0.png
[tanrek: 2011-03-16 15:25:32] INFO: 		-> Hasguel_Feyzulah_OEGD_20070723_3302-0.png
[tanrek: 2011-03-16 15:25:32] INFO: Patient (12): GabrielGabriela 
[tanrek: 2011-03-16 15:25:32] INFO: 		-> Gabriel_Gabriela_ÖGD_20090630_9984-Q165-0.PNG
[tanrek: 2011-03-16 15:25:32] INFO: 		-> Gabriel_Gabriela_ÖGD_20090630_9985-Q165-1.PNG
[tanrek: 2011-03-16 15:25:32] INFO: 		-> Gabriel_Gabriela_ÖGD_20090630_9985-Q165-0.PNG
[tanrek: 2011-03-16 15:25:32] INFO: Patient (13): KarglLisa 
[tanrek: 2011-03-16 15:25:32] INFO: 		-> Kargl_Lisa_OEGD_20080429_5966-1.png
[tanrek: 2011-03-16 15:25:32] INFO: 		-> Kargl_Lisa_OEGD_20080429_5965-1.png
[tanrek: 2011-03-16 15:25:32] INFO: 		-> Kargl_Lisa_OEGD_20080429_5966-0.png
[tanrek: 2011-03-16 15:25:32] INFO: Patient (14): DadajevaIman 
[tanrek: 2011-03-16 15:25:32] INFO: 		-> Dadajeva_Iman_OEGD_20070626_2987-0.png
[tanrek: 2011-03-16 15:25:32] INFO: 		-> Dadajeva_Iman_OEGD_20070626_2987-1.png
[tanrek: 2011-03-16 15:25:32] INFO: Patient (15): GüclüMuhammed 
[tanrek: 2011-03-16 15:25:32] INFO: 		-> Güclü_Muhammed_ÖGD_20090317_9117-Q165-0.PNG
[tanrek: 2011-03-16 15:25:32] INFO: Patient (16): AnticDenis 
[tanrek: 2011-03-16 15:25:32] INFO: 		-> Antic_Denis_OEGD_20090127_8532-0.png
[tanrek: 2011-03-16 15:25:32] INFO: Patient (17): BirsanBeniamin 
[tanrek: 2011-03-16 15:25:32] INFO: 		-> Birsan_Beniamin_OEGD_20080122_5050-1.png
[tanrek: 2011-03-16 15:25:32] INFO: 		-> Birsan_Beniamin_OEGD_20080122_5051-0.png
[tanrek: 2011-03-16 15:25:32] INFO: 		-> Birsan_Beniamin_OEGD_20080122_5061-0.png
[tanrek: 2011-03-16 15:25:32] INFO: 		-> Birsan_Beniamin_OEGD_20080122_5061-1.png
[tanrek: 2011-03-16 15:25:32] INFO: Patient (18): AhmetovicMajda 
[tanrek: 2011-03-16 15:25:32] INFO: 		-> Ahmetovic_Majda_OEGD_20060808_1067-0.png
[tanrek: 2011-03-16 15:25:32] INFO: Patient (19): BuzanichVictoria 
[tanrek: 2011-03-16 15:25:32] INFO: 		-> Buzanich_Victoria_ÖGD_20091006_11046-Q165-0.PNG
[tanrek: 2011-03-16 15:25:32] INFO: 		-> Buzanich_Victoria_ÖGD_20091006_11047-Q165-0.PNG
[tanrek: 2011-03-16 15:25:32] INFO: 		-> Buzanich_Victoria_ÖGD_20091006_11048-Q165-0.PNG
[tanrek: 2011-03-16 15:25:32] INFO: Patient (20): ZakyAbraham 
[tanrek: 2011-03-16 15:25:32] INFO: 		-> Zaky_Abraham_OEGD_20081028_7494-0.png
[tanrek: 2011-03-16 15:25:32] INFO: 		-> Zaky_Abraham_OEGD_20081028_7498-0.png
[tanrek: 2011-03-16 15:25:32] INFO: Patient (21): AkkusAdem 
[tanrek: 2011-03-16 15:25:32] INFO: 		-> Akkus_Adem_OEGD_20070828_3600-0.png
[tanrek: 2011-03-16 15:25:32] INFO: Patient (22): HebergerLukas 
[tanrek: 2011-03-16 15:25:32] INFO: 		-> Heberger_Lukas_OEGD_20081121_7784-0.png
[tanrek: 2011-03-16 15:25:32] INFO: 		-> Heberger_Lukas_OEGD_20081121_7784-1.png
[tanrek: 2011-03-16 15:25:32] INFO: 		-> Heberger_Lukas_OEGD_20081121_7791-1.png
[tanrek: 2011-03-16 15:25:32] INFO: Patient (23): HossainTaneen 
[tanrek: 2011-03-16 15:25:32] INFO: 		-> Hossain_Taneen_OEGD_20070529_2600-1.png
[tanrek: 2011-03-16 15:25:32] INFO: 		-> Hossain_Taneen_OEGD_20070529_2598-0.png
[tanrek: 2011-03-16 15:25:32] INFO: 		-> Hossain_Taneen_OEGD_20070529_2599-0.png
[tanrek: 2011-03-16 15:25:32] INFO: Patient (24): BektasSena 
[tanrek: 2011-03-16 15:25:32] INFO: 		-> Bektas_Sena_OEGD_20070619_2943-1.png
[tanrek: 2011-03-16 15:25:32] INFO: Patient (25): WagnerSelina 
[tanrek: 2011-03-16 15:25:32] INFO: 		-> Wagner_Selina_OEGD_20060725_884-0.png
[tanrek: 2011-03-16 15:25:32] INFO: 		-> Wagner_Selina_OEGD_20060725_884-1.png
[tanrek: 2011-03-16 15:25:32] INFO: Patient (26): HeubergerKatharina 
[tanrek: 2011-03-16 15:25:32] INFO: 		-> Heuberger_Katharina_OEGD_20080701_6572-0.png
[tanrek: 2011-03-16 15:25:32] INFO: Patient (27): AthwalSukhbir 
[tanrek: 2011-03-16 15:25:32] INFO: 		-> Athwal_Sukhbir_OEGD_20070403_2314-1.png
[tanrek: 2011-03-16 15:25:32] INFO: 		-> Athwal_Sukhbir_OEGD_20070403_2315-0.png
[tanrek: 2011-03-16 15:25:32] INFO: 		-> Athwal_Sukhbir_OEGD_20070403_2310-0.png
[tanrek: 2011-03-16 15:25:32] INFO: 		-> Athwal_Sukhbir_OEGD_20070403_2314-0.png
[tanrek: 2011-03-16 15:25:32] INFO: 		-> Athwal_Sukhbir_OEGD_20070403_2311-0.png
[tanrek: 2011-03-16 15:25:32] INFO: Patient (28): CampmanClara 
[tanrek: 2011-03-16 15:25:32] INFO: 		-> Campman_Clara_ÖGD_20091215_11765-Q165-0.PNG
[tanrek: 2011-03-16 15:25:32] INFO: 		-> Campman_Clara_ÖGD_20091215_11757-Q165-0.PNG
[tanrek: 2011-03-16 15:25:32] INFO: 		-> Campman_Clara_ÖGD_20091215_11755-Q165-0.PNG
[tanrek: 2011-03-16 15:25:32] INFO: Patient (29): DanzingerMaximilian 
[tanrek: 2011-03-16 15:25:32] INFO: 		-> Danzinger_Maximilian_OEGD_20081223_8235-0.png
[tanrek: 2011-03-16 15:25:32] INFO: 		-> Danzinger_Maximilian_OEGD_20081223_8232-0.png
[tanrek: 2011-03-16 15:25:32] INFO: Patient (30): BraunAndre 
[tanrek: 2011-03-16 15:25:32] INFO: 		-> Braun_Andre_OEGD_20080527_6201-1.png
[tanrek: 2011-03-16 15:25:32] INFO: 		-> Braun_Andre_OEGD_20080527_6200-0.png
[tanrek: 2011-03-16 15:25:32] INFO: Class Marsh3A-3C, Patient Count: 8
[tanrek: 2011-03-16 15:25:32] INFO: Class Marsh0, Patient Count: 22
[tanrek: 2011-03-16 15:25:32] INFO: LOPO-Cross Validation performed!
[tanrek: 2011-03-16 15:25:32] RESULT: Classification Performance:
[tanrek: 2011-03-16 15:25:32] RESULT: Class-0 (Marsh3A-3C): 88,46
[tanrek: 2011-03-16 15:25:32] RESULT: Class-1 (Marsh0): 87,80
[tanrek: 2011-03-16 15:25:32] RESULT: Overall Classification Rate: 88,06
[tanrek: 2011-03-16 15:25:32] RESULT: Number of Tied Outcomes: 0
[tanrek: 2011-03-16 15:25:32] INFO: Classification Method: SVM
