-7.08519639305319693364699609936e-21,-7.08519639305319693364699609936e-21,-7.08519639305319693364699609936e-21,-7.08519639305319693364699609936e-21,-7.08519639305319693364699609936e-21,-7.08519639305319693364699609936e-21,-7.08519639305319693364699609936e-21,-7.08519639305319693364699609936e-21,-7.08519639305319693364699609936e-21,-7.08519639305319693364699609936e-21,-7.08519639305319693364699609936e-21,-7.08519639305319693364699609936e-21,-7.08519639305319693364699609936e-21,-7.08519639305319693364699609936e-21,-7.08519639305319693364699609936e-21,-7.08519639305319693364699609936e-21,-7.08519639305319693364699609936e-21,-7.08519639305319693364699609936e-21,-7.08519639305319693364699609936e-21,-7.08519639305319693364699609936e-21,-7.08519639305319693364699609936e-21,-7.08519639305319693364699609936e-21,-7.08519639305319693364699609936e-21,-7.08519639305319693364699609936e-21,-7.08519639305319693364699609936e-21,-7.08519639305319693364699609936e-21,-7.08519639305316533635884599627e-21,-7.08519639301150807351485770578e-21,-7.08519636748813954111624319349e-21,-7.08518926459517916163930337668e-21,-7.08429484829402688381036578688e-21,-7.03366159242041796710378946984e-21,-5.76057625085585882776305304576e-21,8.10091822888098794297175231741e-21,6.95099678570599070958930954178e-20,1.58469255739712781028695310675e-19,1.37163414467455866969466137484e-19,3.39023212694094318314114288315e-20,-9.0299075201859740070796315418e-21,-9.09871576032272445231087853475e-21,-7.31062336635592276923551584065e-21,-7.09426800686520782672640286973e-21,-7.08534713892983766537387331611e-21,-7.08519747688144954977249458467e-21,-7.08519639649794382020061814417e-21,-7.08519639305809451331026207803e-21,-7.08519639305319994291253420442e-21,-7.08519639305319693364699609936e-21,-7.08519639305319693364699609936e-21
-7.08519639305319693364699609936e-21,-7.08519639305319693364699609936e-21,-7.08519639305319693364699609936e-21,-7.08519639305319693364699609936e-21,-7.08519639305319693364699609936e-21,-7.08519639305319693364699609936e-21,-7.08519639305319693364699609936e-21,-7.08519639305319693364699609936e-21,-7.08519639305319693364699609936e-21,-7.08519639305319693364699609936e-21,-7.08519639305319693364699609936e-21,-7.08519639305319693364699609936e-21,-7.08519639305319693364699609936e-21,-7.08519639305319693364699609936e-21,-7.08519639305319693364699609936e-21,-7.08519639305319693364699609936e-21,-7.08519639305319693364699609936e-21,-7.08519639305319693364699609936e-21,-7.08519639305319693364699609936e-21,-7.08519639305319693364699609936e-21,-7.08519639305319693364699609936e-21,-7.08519639305319693364699609936e-21,-7.08519639305319693364699609936e-21,-7.08519639305319693364699609936e-21,-7.08519639305319693364699609936e-21,-7.08519639305318038268653652155e-21,-7.08519639301877093589107425849e-21,-7.08519636166399347697279629886e-21,-7.08518336842554772681320572636e-21,-7.08274229332221305667300730512e-21,-6.87585663475365713131169791201e-21,9.63984503762489979579102903476e-22,1.31497713992790864321581938018e-19,1.04976360760398195615408394407e-18,3.49349966566146435430602978433e-18,4.82449361608540208785738221022e-18,2.46681027696361418431382248728e-18,2.19148074080394635487645496047e-19,-1.19637586088032471572800141657e-19,-3.08549067378668066229538879865e-20,-8.61274863110908891902471563788e-21,-7.12420534756398516935452026271e-21,-7.08562100297186383392925050331e-21,-7.08519842117714447967601375844e-21,-7.08519639736777202398988458686e-21,-7.08519639305731962743420002611e-21,-7.08519639305319843827976515189e-21,-7.08519639305319693364699609936e-21,-7.08519639305319693364699609936e-21
-7.08519639305319693364699609936e-21,-7.08519639305319693364699609936e-21,-7.08519639305319693364699609936e-21,-7.08519639305319693364699609936e-21,-7.08519639305319693364699609936e-21,-7.08519639305319693364699609936e-21,-7.08519639305319693364699609936e-21,-7.08519639305319693364699609936e-21,-7.08519639305319693364699609936e-21,-7.08519639305319693364699609936e-21,-7.08519639305319693364699609936e-21,-7.08519639305319693364699609936e-21,-7.08519639305319693364699609936e-21,-7.08519639305319693364699609936e-21,-7.08519639305319693364699609936e-21,-7.08519639305319693364699609936e-21,-7.08519639305319693364699609936e-21,-7.08519639305319693364699609936e-21,-7.08519639305319693364699609936e-21,-7.08519639305319693364699609936e-21,-7.08519639305319693364699609936e-21,-7.08519639305319693364699609936e-21,-7.08519639305319693364699609936e-21,-7.08519639305319693364699609936e-21,-7.08519639305319091511591988925e-21,-7.08519639303301679894846359369e-21,-7.08519636570368570210470939165e-21,-7.08517951183834804711981216842e-21,-7.08046014508519318738832250209e-21,-6.4827660981032685737829841838e-21,2.75255115939971795734514620369e-20,8.86118636863489262163758972427e-19,1.02574024620589676165880976292e-17,5.17339582229617830932419271703e-17,1.11073510528464337231371816613e-16,9.45440822018628359257777617851e-17,2.41995925985168788049928300823e-17,-2.94228550502444296509984395561e-18,-1.68123631666390565370854163352e-18,-1.85516501144476459485133803766e-19,-1.41681451963010378410044621796e-20,-7.20249572279490004471091828633e-21,-7.0860405545610618084258202151e-21,-7.08519908469895924493845887629e-21,-7.08519639689678886535552416406e-21,-7.08519639305567054991931845541e-21,-7.08519639305319843827976515189e-21,-7.08519639305319693364699609936e-21,-7.08519639305319693364699609936e-21
-7.08519639305319693364699609936e-21,-7.08519639305319693364699609936e-21,-7.08519639305319693364699609936e-21,-7.08519639305319693364699609936e-21,-7.08519639305319693364699609936e-21,-7.08519639305319693364699609936e-21,-7.08519639305319693364699609936e-21,-7.08519639305319693364699609936e-21,-7.08519639305319693364699609936e-21,-7.08519639305319693364699609936e-21,-7.08519639305319693364699609936e-21,-7.08519639305319693364699609936e-21,-7.08519639305319693364699609936e-21,-7.08519639305319693364699609936e-21,-7.08519639305319693364699609936e-21,-7.08519639305319693364699609936e-21,-7.08519639305319693364699609936e-21,-7.08519639305319693364699609936e-21,-7.08519639305319693364699609936e-21,-7.08519639305319693364699609936e-21,-7.08519639305319693364699609936e-21,-7.08519639305319693364699609936e-21,-7.08519639305319693364699609936e-21,-7.08519639305319542901422704683e-21,-7.08519639304479957816291394053e-21,-7.08519637614055134441157225154e-21,-7.08518086962322296938858343726e-21,-7.07871420671796102172629270333e-21,-5.85656205837179082264046715998e-21,9.82828990780245494894618034347e-20,4.06267820997651815066459302674e-18,7.02853593954014360236226329235e-17,5.3653219011493522297575763723e-16,1.77090623414632796298443989198e-15,2.41029179450095795032845139887e-15,1.17318632677479712216921001883e-15,5.48167077555301762346309456172e-17,-7.49420204145436048457161615515e-17,-1.43215635080944657637132620983e-17,-9.06259841867210358553374005398e-19,-2.98966020120304271314037610386e-20,-7.3333695482593035814761420774e-21,-7.08638464446802462286031374437e-21,-7.08519893117057837488829346891e-21,-7.0851963954912617429021790163e-21,-7.08519639305425619511640907908e-21,-7.08519639305319693364699609936e-21,-7.08519639305319693364699609936e-21,-7.08519639305319693364699609936e-21
-7.08519639305319693364699609936e-21,-7.08519639305319693364699609936e-21,-7.08519639305319693364699609936e-21,-7.08519639305319693364699609936e-21,-7.08519639305319693364699609936e-21,-7.08519639305319693364699609936e-21,-7.08519639305319693364699609936e-21,-7.08519639305319693364699609936e-21,-7.08519639305319693364699609936e-21,-7.08519639305319693364699609936e-21,-7.08519639305319693364699609936e-21,-7.08519639305319693364699609936e-21,-7.08519639305319693364699609936e-21,-7.08519639305319693364699609936e-21,-7.08519639305319693364699609936e-21,-7.08519639305319693364699609936e-21,-7.08519639305319693364699609936e-21,-7.08519639305319693364699609936e-21,-7.08519639305319693364699609936e-21,-7.08519639305319693364699609936e-21,-7.08519639305319693364699609936e-21,-7.08519639305319693364699609936e-21,-7.08519639305319693364699609936e-21,-7.08519639305071579421082848067e-21,-7.08519638562955852752610456612e-21,-7.08518626362830767734328648945e-21,-7.07890355763900100136991039928e-21,-5.30883154252402188963864912247e-21,2.2013516391950266113323991161e-19,1.3111441886807326036184701813e-17,3.39842044686773156213330311221e-16,3.91338753001633723535468661674e-15,1.97017983104910378011006124671e-14,4.19474314129738674318404195661e-14,3.47067644314621962281407165818e-14,7.68025789405387520622776803471e-15,-1.82876095548836917810660951177e-15,-7.74859945203432281310364550604e-16,-7.93960704350251100251316309397e-17,-3.12298425780089858942773745895e-18,-5.85581246493027334075089234941e-20,-7.45614727148709477481428437837e-21,-7.08638328906368938982030914158e-21,-7.08519809586875692599656915693e-21,-7.08519639415536601573504675981e-21,-7.08519639305352042969234239288e-21,-7.08519639305319693364699609936e-21,-7.08519639305319693364699609936e-21,-7.08519639305319693364699609936e-21
-7.08519639305319693364699609936e-21,-7.08519639305319693364699609936e-21,-7.08519639305319693364699609936e-21,-7.08519639305319693364699609936e-21,-7.08519639305319693364699609936e-21,-7.08519639305319693364699609936e-21,-7.08519639305319693364699609936e-21,-7.08519639305319693364699609936e-21,-7.08519639305319693364699609936e-21,-7.08519639305319693364699609936e-21,-7.08519639305319693364699609936e-21,-7.08519639305319693364699609936e-21,-7.08519639305319693364699609936e-21,-7.08519639305319693364699609936e-21,-7.08519639305319693364699609936e-21,-7.08519639305319693364699609936e-21,-7.08519639305319693364699609936e-21,-7.08519639305319693364699609936e-21,-7.08519639305319693364699609936e-21,-7.08519639305319693364699609936e-21,-7.08519639305319693364699609936e-21,-7.08519639305319693364699609936e-21,-7.08519639305267633070890392467e-21,-7.08519639074001213032486584968e-21,-7.08519170217080221094786241377e-21,-7.08086238350353034908852837235e-21,-5.26403248585530606912238937961e-21,3.40124449301349017239668478924e-19,2.99264429704678983660204875991e-17,1.16118918383191155950196177908e-15,2.01144267853098293909532183238e-14,1.53594228045983069198813252061e-13,5.04642852188658799100787820426e-13,6.75366761384836061497049818e-13,3.0821485486330963764159745451e-13,-4.10794596185868720587849131739e-15,-2.72922156500074689008783956179e-14,-4.83458842147358095210477833273e-15,-2.98016174587085902722447631007e-16,-7.52752886345843779744491284748e-18,-8.89087270683823724946105361097e-20,-7.47803775659780131750265288697e-21,-7.08603907113467276699197578497e-21,-7.08519720671639950661329681494e-21,-7.08519639340854605471413163953e-21,-7.08519639305326765138714156818e-21,-7.08519639305319693364699609936e-21,-7.08519639305319693364699609936e-21,-7.08519639305319693364699609936e-21
-7.08519639305319693364699609936e-21,-7.08519639305319693364699609936e-21,-7.08519639305319693364699609936e-21,-7.08519639305319693364699609936e-21,-7.08519639305319693364699609936e-21,-7.08519639305319693364699609936e-21,-7.08519639305319693364699609936e-21,-7.08519639305319693364699609936e-21,-7.08519639305319693364699609936e-21,-7.08519639305319693364699609936e-21,-7.08519639305319693364699609936e-21,-7.08519639305319693364699609936e-21,-7.08519639305319693364699609936e-21,-7.08519639305319693364699609936e-21,-7.08519639305319693364699609936e-21,-7.08519639305319693364699609936e-21,-7.08519639305319693364699609936e-21,-7.08519639305319693364699609936e-21,-7.08519639305319693364699609936e-21,-7.08519639305319693364699609936e-21,-7.08519639305319693364699609936e-21,-7.0851963930531186927430053679e-21,-7.08519639254147584279053848067e-21,-7.08519485117615063373346449099e-21,-7.08307840866769987643427846927e-21,-5.76094270790992829313082338674e-21,3.68997886254007057691616209146e-19,4.83657290873747650061750201925e-17,2.80615858760086896582309011931e-15,7.29591842576798693923878023459e-14,8.41517583330774093119559413959e-13,4.2281087364030861324309250478e-12,8.91176549639802054483949254301e-12,7.12185163662186389800586676087e-12,1.26592803675022975718593006801e-12,-5.68346632496028817580147569022e-13,-2.00211397404902897215889310873e-13,-1.98662100487535846001770348866e-14,-7.72467536766165946206490469432e-16,-1.2746044034977728828390416865e-17,-9.90568025241601681581260881075e-20,-7.38055794019956442600438509376e-21,-7.08562219441071933653302369698e-21,-7.08519667019765910882478608513e-21,-7.08519639313495265978623426132e-21,-7.08519639305320746607637946706e-21,-7.08519639305319693364699609936e-21,-7.08519639305319693364699609936e-21,-7.08519639305319693364699609936e-21
-7.08519639305319693364699609936e-21,-7.08519639305319693364699609936e-21,-7.08519639305319693364699609936e-21,-7.08519639305319693364699609936e-21,-7.08519639305319693364699609936e-21,-7.08519639305319693364699609936e-21,-7.08519639305319693364699609936e-21,-7.08519639305319693364699609936e-21,-7.08519639305319693364699609936e-21,-7.08519639305319693364699609936e-21,-7.08519639305319693364699609936e-21,-7.08519639305319693364699609936e-21,-7.08519639305319693364699609936e-21,-7.08519639305319693364699609936e-21,-7.08519639305319693364699609936e-21,-7.08519639305319693364699609936e-21,-7.08519639305319693364699609936e-21,-7.08519639305319693364699609936e-21,-7.08519639305319693364699609936e-21,-7.08519639305319693364699609936e-21,-7.08519639305318790585038178419e-21,-7.08519639297282095575697910558e-21,-7.08519603328944871555765054036e-21,-7.0844618667593706750051063279e-21,-6.40209739541886426674275132329e-21,2.81745629855133545397097154933e-19,5.53780773728246156079302260127e-17,4.79941403172554693541295929103e-15,1.86959062409228016838359960759e-13,3.2469987877705772253068789844e-12,2.47904510658390929223007000137e-11,8.09817162516560881300483648326e-11,1.06198229448422323858780180957e-10,4.455908377929716224471439742e-11,-4.34358111463989785975201141254e-12,-5.4863906009500459675308268544e-12,-9.16663082930096533862517993257e-13,-5.56260086941710447090696233283e-14,-1.39795418714762924621933390229e-15,-1.52261118892039863962949548063e-17,-8.03737855165848293638041029873e-20,-7.24310199700690194498049181293e-21,-7.08534967078996149063441549824e-21,-7.0851964603887844203875447517e-21,-7.08519639306662578111078991185e-21,-7.08519639305319843827976515189e-21,-7.08519639305319693364699609936e-21,-7.08519639305319693364699609936e-21,-7.08519639305319693364699609936e-21
-7.08519639305319693364699609936e-21,-7.08519639305319693364699609936e-21,-7.08519639305319693364699609936e-21,-7.08519639305319693364699609936e-21,-7.08519639305319693364699609936e-21,-7.08519639305319693364699609936e-21,-7.08519639305319693364699609936e-21,-7.08519639305319693364699609936e-21,-7.08519639305319693364699609936e-21,-7.08519639305319693364699609936e-21,-7.08519639305319693364699609936e-21,-7.08519639305319693364699609936e-21,-7.08519639305319693364699609936e-21,-7.08519639305319693364699609936e-21,-7.08519639305319693364699609936e-21,-7.08519639305319693364699609936e-21,-7.08519639305319693364699609936e-21,-7.08519639305319693364699609936e-21,-7.08519639305319693364699609936e-21,-7.08519639305319542901422704683e-21,-7.08519639304423233160898113747e-21,-7.08519633345960256820178001424e-21,-7.08501559290689390073852698538e-21,-6.83518450417593197655017241645e-21,1.50231334109438332473569914086e-19,4.49381872306962507444806985761e-17,5.8124721569743531525149689166e-15,3.38753103695072107320836714674e-13,8.8371545520568451414373960167e-12,1.02053960797967175704971022789e-10,5.11302990929751281670697428291e-10,1.06462915941931947304863855452e-09,8.15028482986441901064250996155e-10,9.95030957186480686973711684932e-11,-9.32758962259589465411689880008e-11,-2.89410667413303484059014621401e-11,-2.7972708500415734399296126797e-12,-1.07935932728985042623949631407e-13,-1.77826746717377176350160821645e-15,-1.28734742852870370835510514266e-17,-4.85665875791461362626170965443e-20,-7.14529481167046792882407730995e-21,-7.08523573175867847327229420448e-21,-7.08519640472932777742689976187e-21,-7.08519639305477228415619409619e-21,-7.08519639305319693364699609936e-21,-7.08519639305319693364699609936e-21,-7.08519639305319693364699609936e-21,-7.08519639305319693364699609936e-21
-7.08519639305319693364699609936e-21,-7.08519639305319693364699609936e-21,-7.08519639305319693364699609936e-21,-7.08519639305319693364699609936e-21,-7.08519639305319693364699609936e-21,-7.08519639305319693364699609936e-21,-7.08519639305319693364699609936e-21,-7.08519639305319693364699609936e-21,-7.08519639305319693364699609936e-21,-7.08519639305319693364699609936e-21,-7.08519639305319693364699609936e-21,-7.08519639305319693364699609936e-21,-7.08519639305319693364699609936e-21,-7.08519639305319693364699609936e-21,-7.08519639305319693364699609936e-21,-7.08519639305319693364699609936e-21,-7.08519639305319693364699609936e-21,-7.08519639305319693364699609936e-21,-7.08519639305319693364699609936e-21,-7.08519639305248674698000330614e-21,-7.08519638604455279619125136914e-21,-7.0851648033116784331203342301e-21,-7.02026309421171351826097477102e-21,5.36955062180705582158848136623e-20,2.58512439592976678181071575682e-17,4.98678270827010421254674230711e-15,4.34302312386432756135965399989e-13,1.69854143244620055388720733371e-11,2.95667837001317165893633927718e-10,2.25566912380743805424841473626e-09,7.3159773820602386021960421758e-09,9.36104359639968240264403643138e-09,3.50652283258988222942148788432e-09,-7.80820477980901410481759837773e-10,-6.12161533289890727370731401968e-10,-9.76504788497252761543762337647e-11,-5.84920172227928981668190910499e-12,-1.46534670252445322007316247048e-13,-1.59700724275658311746136106417e-15,-7.72286672345666980060726429327e-18,-2.37856474603031030512669637057e-20,-7.10149515075646126067472668159e-21,-7.08520359594112914751744746467e-21,-7.08519639449885863058204837926e-21,-7.08519639305332934133067272182e-21,-7.08519639305319693364699609936e-21,-7.08519639305319693364699609936e-21,-7.08519639305319693364699609936e-21,-7.08519639305319693364699609936e-21
-7.08519639305319693364699609936e-21,-7.08519639305319693364699609936e-21,-7.08519639305319693364699609936e-21,-7.08519639305319693364699609936e-21,-7.08519639305319693364699609936e-21,-7.08519639305319693364699609936e-21,-7.08519639305319693364699609936e-21,-7.08519639305319693364699609936e-21,-7.08519639305319693364699609936e-21,-7.08519639305319693364699609936e-21,-7.08519639305319693364699609936e-21,-7.08519639305319693364699609936e-21,-7.08519639305319693364699609936e-21,-7.08519639305319693364699609936e-21,-7.08519639305319693364699609936e-21,-7.08519639305319693364699609936e-21,-7.08519639305319693364699609936e-21,-7.08519639305319693364699609936e-21,-7.08519639305315781319500073363e-21,-7.08519639246792939303925091154e-21,-7.08519247479529045275229069383e-21,-7.07322728768479754238087613728e-21,9.57559317526129813739594058614e-21,1.05429012492267184479699228565e-17,3.03197919561554319686687243693e-15,3.942023372124841691467610743e-13,2.30771539862199217966510398356e-11,6.03895833696174663407384845847e-10,6.97932683764018204476493995015e-09,3.48348552985199380846887415655e-08,7.1474035016176135489655992742e-08,5.18453028281655752364511457152e-08,2.54419082553677066649306961175e-09,-8.28822589579778720722933767337e-09,-2.344106010318399079087097809e-09,-2.21710447534824748918637936162e-10,-8.50192195913488437878305502405e-12,-1.40021419471570695613826551053e-13,-1.01565376916598800815885371302e-15,-3.29500729750382678545328825714e-18,-1.18730703387840357898759334578e-20,-7.08834845484612802269342771255e-21,-7.08519733443475221837049817859e-21,-7.08519639318105009393169656197e-21,-7.085196393053204456810841362e-21,-7.08519639305319693364699609936e-21,-7.08519639305319693364699609936e-21,-7.08519639305319693364699609936e-21,-7.08519639305319693364699609936e-21
-7.08519639305319693364699609936e-21,-7.08519639305319693364699609936e-21,-7.08519639305319693364699609936e-21,-7.08519639305319693364699609936e-21,-7.08519639305319693364699609936e-21,-7.08519639305319693364699609936e-21,-7.08519639305319693364699609936e-21,-7.08519639305319693364699609936e-21,-7.08519639305319693364699609936e-21,-7.08519639305319693364699609936e-21,-7.08519639305319693364699609936e-21,-7.08519639305319693364699609936e-21,-7.08519639305319693364699609936e-21,-7.08519639305319693364699609936e-21,-7.08519639305319693364699609936e-21,-7.08519639305319693364699609936e-21,-7.08519639305319693364699609936e-21,-7.08519639305319542901422704683e-21,-7.0851963930184925788287995408e-21,-7.08519604800569608773926325759e-21,-7.08363038322692268787305420226e-21,-3.84454505851780420820544011709e-21,3.04595543353320475323136007532e-18,1.30681047584705728631202020159e-15,2.5343564954594296361016293918e-13,2.2179781244408749534975006564e-11,8.70717773994642803776262154859e-10,1.51859999201897973542789313604e-08,1.15687400995219340420428139407e-07,3.71948465244463537901796262516e-07,4.61891863458277061712039949018e-07,1.47262331393663189511386720464e-07,-6.28260409208816958178821406034e-08,-3.80550235686531633836952816154e-08,-5.84833790298070464262962482116e-09,-3.46560213586151481588588382728e-10,-8.66231492223566587963764842426e-12,-9.45484871122443166705034677762e-14,-4.58424384575462928883438066611e-16,-1.00400924783632240369046563788e-18,-8.06350675559044899311647248099e-21,-7.08563134940880287757120941824e-21,-7.08519648091202955704371270184e-21,-7.08519639306127681161680817477e-21,-7.08519639305319693364699609936e-21,-7.08519639305319693364699609936e-21,-7.08519639305319693364699609936e-21,-7.08519639305319693364699609936e-21,-7.08519639305319693364699609936e-21
-7.08519639305319693364699609936e-21,-7.08519639305319693364699609936e-21,-7.08519639305319693364699609936e-21,-7.08519639305319693364699609936e-21,-7.08519639305319693364699609936e-21,-7.08519639305319693364699609936e-21,-7.08519639305319693364699609936e-21,-7.08519639305319693364699609936e-21,-7.08519639305319693364699609936e-21,-7.08519639305319693364699609936e-21,-7.08519639305319693364699609936e-21,-7.08519639305319693364699609936e-21,-7.08519639305319693364699609936e-21,-7.08519639305319693364699609936e-21,-7.08519639305319693364699609936e-21,-7.08519639305319693364699609936e-21,-7.08519639305319693364699609936e-21,-7.08519639305173593522824609466e-21,-7.08519637147878224260981292568e-21,-7.08505094381230742425765765511e-21,-6.63785800660857725053503999756e-21,6.19708240666654293066894442745e-19,3.99385161884061005088103011409e-16,1.15453603940731767154111214976e-13,1.50891908593713677957444646222e-11,8.87148672063071840016839096415e-10,2.32811980265739203893666017927e-08,2.69134553913757994809665069838e-07,1.33675225556340097686047318354e-06,2.69458642722889413619003981526e-06,1.82426275669350785154027363988e-06,-9.11737103307342579507939602998e-08,-4.04029408987444667849403285437e-07,-1.06512088262752752983293592828e-07,-9.89488710887231344875680094523e-09,-3.77560434521987431577921873039e-10,-6.2195598214406960532970581037e-12,-4.52405552195033609094447599612e-14,-1.47092168594329930027141482398e-16,-2.22389499475853919172285698308e-19,-7.22776858859996678683579751861e-21,-7.08523924029952683698028049914e-21,-7.08519639891085417882278089784e-21,-7.08519639305356105477710681114e-21,-7.08519639305319693364699609936e-21,-7.08519639305319693364699609936e-21,-7.08519639305319693364699609936e-21,-7.08519639305319693364699609936e-21,-7.08519639305319693364699609936e-21
-7.08519639305319693364699609936e-21,-7.08519639305319693364699609936e-21,-7.08519639305319693364699609936e-21,-7.08519639305319693364699609936e-21,-7.08519639305319693364699609936e-21,-7.08519639305319693364699609936e-21,-7.08519639305319693364699609936e-21,-7.08519639305319693364699609936e-21,-7.08519639305319693364699609936e-21,-7.08519639305319693364699609936e-21,-7.08519639305319693364699609936e-21,-7.08519639305319693364699609936e-21,-7.08519639305319693364699609936e-21,-7.08519639305319693364699609936e-21,-7.08519639305319693364699609936e-21,-7.08519639305319693364699609936e-21,-7.08519639305315329929669357605e-21,-7.08519639209532965727492813773e-21,-7.08518680228340693080210532465e-21,-7.04136749406834520285351975478e-21,8.42207691263049011276627412853e-20,8.65655417406460631528076187523e-17,3.72805129325649030150031945077e-14,7.26985953667711161812180955106e-12,6.39253191777016893465655441204e-10,2.51844128406153042218324844895e-08,4.39912789318358529787149346912e-07,3.34384643491052373443167891609e-06,1.06372800753312047363765766028e-05,1.27333531696473590974711190271e-05,3.16522678645424912087492051727e-06,-2.57503508153834111222223700322e-06,-1.32152455024648349604654562484e-06,-1.97021268003584478533990638482e-07,-1.15719087738048923749399564376e-08,-2.88807798014389935415638218172e-10,-3.15831840877891560326510165593e-12,-1.5370640684672217940745173253e-14,-3.35968564851678041170962411686e-17,-4.02327075097485809917072495517e-20,-7.1000238127026151081137217063e-21,-7.08519940748797464378866005224e-21,-7.08519639333226869648701373205e-21,-7.08519639305320746607637946706e-21,-7.08519639305319693364699609936e-21,-7.08519639305319693364699609936e-21,-7.08519639305319693364699609936e-21,-7.08519639305319693364699609936e-21,-7.08519639305319693364699609936e-21
-7.08519639305319693364699609936e-21,-7.08519639305319693364699609936e-21,-7.08519639305319693364699609936e-21,-7.08519639305319693364699609936e-21,-7.08519639305319693364699609936e-21,-7.08519639305319693364699609936e-21,-7.08519639305319693364699609936e-21,-7.08519639305319693364699609936e-21,-7.08519639305319693364699609936e-21,-7.08519639305319693364699609936e-21,-7.08519639305319693364699609936e-21,-7.08519639305319693364699609936e-21,-7.08519639305319693364699609936e-21,-7.08519639305319693364699609936e-21,-7.08519639305319693364699609936e-21,-7.08519639305319542901422704683e-21,-7.08519639302299594470657375714e-21,-7.08519594404193935208820805131e-21,-7.08214812585038996396105842008e-21,2.3536690372826396220120489692e-21,1.33049370189641064020996728047e-17,8.53518187361737575741990453253e-15,2.48152475248111050390539915897e-12,3.25981011472905609230373741617e-10,1.9244689419962953429429149306e-08,5.06310166018654370814300151593e-07,5.85123424180031823023688183905e-06,2.88848528715477347299928068125e-05,5.69937943004830135452012940256e-05,3.52392861018012391329488897096e-05,-6.72068087070392942197196925469e-06,-1.08897318954353133956328147924e-05,-2.71761871759951897134207146611e-06,-2.48730374187826179092116862107e-07,-9.45419773171793119809711567533e-09,-1.55853581552132256425579123551e-10,-1.13717482740617717038430890883e-12,-3.71368344168609729743808358119e-15,-5.47220073213507005141834182618e-18,-1.07255605552156530335642413218e-20,-7.08629735894706816105398036569e-21,-7.0851965445647048454828527557e-21,-7.08519639306270019421633186627e-21,-7.08519639305319693364699609936e-21,-7.08519639305319693364699609936e-21,-7.08519639305319693364699609936e-21,-7.08519639305319693364699609936e-21,-7.08519639305319693364699609936e-21,-7.08519639305319693364699609936e-21
-7.08519639305319693364699609936e-21,-7.08519639305319693364699609936e-21,-7.08519639305319693364699609936e-21,-7.08519639305319693364699609936e-21,-7.08519639305319693364699609936e-21,-7.08519639305319693364699609936e-21,-7.08519639305319693364699609936e-21,-7.08519639305319693364699609936e-21,-7.08519639305319693364699609936e-21,-7.08519639305319693364699609936e-21,-7.08519639305319693364699609936e-21,-7.08519639305319693364699609936e-21,-7.08519639305319693364699609936e-21,-7.08519639305319693364699609936e-21,-7.08519639305319693364699609936e-21,-7.08519639305251984890092246175e-21,-7.08519637812676891458920479691e-21,-7.0850458862622743840276397329e-21,-6.39266071591332240485276446435e-21,1.44524433564911561520692444976e-18,1.38581000601966023740137091227e-15,6.00338338960273163759455417579e-13,1.17703159424593087264151556001e-10,1.03974531298525769708559463012e-08,4.1097866344725590748886622991e-07,7.18681666746024885991314667955e-06,5.44598090288491302525010484548e-05,0.000171036906946242858859261182225,0.000195617635950499381674444476786,3.09474370326155956119687506778e-05,-5.62120794131132277900338156673e-05,-2.56859786286636699930915894718e-05,-3.73513599273792297372396263577e-06,-2.1779417762031259285514272258e-07,-5.43123910641889433448343464488e-09,-5.95288714588198066179903027716e-11,-2.90859723967158707043943392138e-13,-6.38815359486208918954135495984e-16,-6.41075222518074054045351005285e-19,-7.37054123110139821860774553884e-21,-7.08525478203210959156438280707e-21,-7.08519639849534532575061813024e-21,-7.08519639305342864709343018867e-21,-7.08519639305319693364699609936e-21,-7.08519639305319693364699609936e-21,-7.08519639305319693364699609936e-21,-7.08519639305319693364699609936e-21,-7.08519639305319693364699609936e-21,-7.08519639305319693364699609936e-21
-7.08519639305319693364699609936e-21,-7.08519639305319693364699609936e-21,-7.08519639305319693364699609936e-21,-7.08519639305319693364699609936e-21,-7.08519639305319693364699609936e-21,-7.08519639305319693364699609936e-21,-7.08519639305319693364699609936e-21,-7.08519639305319693364699609936e-21,-7.08519639305319693364699609936e-21,-7.08519639305319693364699609936e-21,-7.08519639305319693364699609936e-21,-7.08519639305319693364699609936e-21,-7.08519639305319693364699609936e-21,-7.08519639305319693364699609936e-21,-7.08519639305318640121761273166e-21,-7.08519639270084203179027508993e-21,-7.08519111701520628122018267417e-21,-7.04912891225147483192202077364e-21,1.05352012142051688752875700955e-19,1.59599568938129692166058089531e-16,1.02964558589744773849900216376e-13,3.01060555047135797535477778702e-11,3.97455257813787996290019738496e-09,2.35564409330467474698765574688e-07,6.21108946707272173399323397791e-06,7.17118884287945535741665148421e-05,0.000351343808853124453094735057945,0.00067552603070046199872089598415,0.00036900668525361731515596619424,-0.000149239010845152641950711602803,-0.000163099535582192871731657679568,-3.89648155226947934021315689268e-05,-3.52243867962744151582014755231e-06,-1.33498639764675970757011450908e-07,-2.20338026452809070698590468873e-09,-1.61307525446261952631494365972e-11,-5.29220488757094994938806846057e-14,-7.83119180727693190325417770324e-17,-5.95573514995557112531980388453e-20,-7.10116700692190379282989670366e-21,-7.0851986055418530000447966015e-21,-7.08519639319292766501059721808e-21,-7.08519639305319994291253420442e-21,-7.08519639305319693364699609936e-21,-7.08519639305319693364699609936e-21,-7.08519639305319693364699609936e-21,-7.08519639305319693364699609936e-21,-7.08519639305319693364699609936e-21,-7.08519639305319693364699609936e-21
-7.08519639305319693364699609936e-21,-7.08519639305319693364699609936e-21,-7.08519639305319693364699609936e-21,-7.08519639305319693364699609936e-21,-7.08519639305319693364699609936e-21,-7.08519639305319693364699609936e-21,-7.08519639305319693364699609936e-21,-7.08519639305319693364699609936e-21,-7.08519639305319693364699609936e-21,-7.08519639305319693364699609936e-21,-7.08519639305319693364699609936e-21,-7.08519639305319693364699609936e-21,-7.08519639305319693364699609936e-21,-7.08519639305319693364699609936e-21,-7.08519639304728974539569587439e-21,-7.08519626172956656057318942497e-21,-7.0838629175728739857923156162e-21,-9.07351362911503201487912115347e-22,1.30344100122470103584080888918e-17,1.25228810720983734381544845623e-14,5.45697103228122594610660787396e-12,1.07558727371404905997186597888e-09,9.54347237649984498296227728928e-08,3.78370954121607013122654053494e-06,6.62082399317520789222210608749e-05,0.000499670201108479497542624869766,0.00154520078735470838687815486878,0.00166856703070044319614506633798,6.45836824489000999299087579786e-05,-0.000667239772804181568641168631473,-0.000279838289684594210358220545132,-3.98631686160884728662746889771e-05,-2.31081298039687944571754334155e-06,-5.76148579501980604214857975987e-08,-6.33121279551973747249459838817e-10,-3.10632573591760037382360717642e-12,-6.85740747504866245963250839589e-15,-6.85212530644841225138564587996e-18,-1.01852021542503302154683147004e-20,-7.08583489614543795192919219552e-21,-7.08519645296982391754563752805e-21,-7.08519639305576233251823065962e-21,-7.08519639305319693364699609936e-21,-7.08519639305319693364699609936e-21,-7.08519639305319693364699609936e-21,-7.08519639305319693364699609936e-21,-7.08519639305319693364699609936e-21,-7.08519639305319693364699609936e-21,-7.08519639305319693364699609936e-21
-7.08519639305319693364699609936e-21,-7.08519639305319693364699609936e-21,-7.08519639305319693364699609936e-21,-7.08519639305319693364699609936e-21,-7.08519639305319693364699609936e-21,-7.08519639305319693364699609936e-21,-7.08519639305319693364699609936e-21,-7.08519639305319693364699609936e-21,-7.08519639305319693364699609936e-21,-7.08519639305319693364699609936e-21,-7.08519639305319693364699609936e-21,-7.08519639305319693364699609936e-21,-7.08519639305319693364699609936e-21,-7.08519639305312621590685063054e-21,-7.08519639073210678975626386751e-21,-7.08516139132311185024753224491e-21,-6.84426256758172752175877591263e-21,7.49058471523017036643528997813e-19,1.08028648390674497557369964175e-15,7.01162511907555059379464399945e-13,2.06160850870477082699112777118e-10,2.734910152645201161002036787e-08,1.62695406946799839254490238627e-06,4.29761628574378454323463849551e-05,0.00049537790329940833283783874208,0.00240476402689564260420351793357,0.00447990001800189965169840533576,0.00204554403543759279887614965787,-0.00156311977014542418003284485195,-0.0013620772808738874654760353522,-0.000314134743934677516941089692182,-2.81089203520652796200463008347e-05,-1.0631226533349919437606732539e-06,-1.75751578652361524474638965632e-08,-1.29128732687287093045002062088e-10,-4.25671440820332174991544412939e-13,-6.3333114506471703386773762053e-16,-4.34048987921603558885697810742e-19,-7.21598475165274940646726357355e-21,-7.08521463337201574011084302788e-21,-7.08519639421313639090281857276e-21,-7.0851963930532315402006843075e-21,-7.08519639305319693364699609936e-21,-7.08519639305319693364699609936e-21,-7.08519639305319693364699609936e-21,-7.08519639305319693364699609936e-21,-7.08519639305319693364699609936e-21,-7.08519639305319693364699609936e-21,-7.08519639305319693364699609936e-21
-7.08519639305319693364699609936e-21,-7.08519639305319693364699609936e-21,-7.08519639305319693364699609936e-21,-7.08519639305319693364699609936e-21,-7.08519639305319693364699609936e-21,-7.08519639305319693364699609936e-21,-7.08519639305319693364699609936e-21,-7.08519639305319693364699609936e-21,-7.08519639305319693364699609936e-21,-7.08519639305319693364699609936e-21,-7.08519639305319693364699609936e-21,-7.08519639305319693364699609936e-21,-7.08519639305319542901422704683e-21,-7.08519639302406423397260105203e-21,-7.08519574072679939341263152257e-21,-7.07852619890901592823499204068e-21,2.40278685460747406137348285074e-20,6.61052810341450776332261455978e-17,6.38810536758974952187701740568e-14,2.7999007876960411840407637992e-11,5.54740282835098286361268365031e-09,4.94307502962583674791245853808e-07,1.96518465688596630377114882204e-05,0.00034391165712044266230054678779,0.00258203386944585652762462757437,0.00783745477590512204524308970122,0.00785932883871126239383464451294,-0.000983909787224025375595992670696,-0.00435580511629675773410674821662,-0.00171078839838680898076395120455,-0.000239576568885223242094673068436,-1.38234273841799698210024843759e-05,-3.44781001038846544708567050733e-07,-3.79970184536636932447956465091e-09,-1.87237096412882293044871638621e-11,-4.15509175763581628485869298568e-14,-4.17263102507695272536463272733e-17,-2.60980084461480717756330108803e-20,-7.08913828541788636836934931024e-21,-7.08519676548591394670663213852e-21,-7.08519639306925286992555562576e-21,-7.08519639305319693364699609936e-21,-7.08519639305319693364699609936e-21,-7.08519639305319693364699609936e-21,-7.08519639305319693364699609936e-21,-7.08519639305319693364699609936e-21,-7.08519639305319693364699609936e-21,-7.08519639305319693364699609936e-21,-7.08519639305319693364699609936e-21
-7.08519639305319693364699609936e-21,-7.08519639305319693364699609936e-21,-7.08519639305319693364699609936e-21,-7.08519639305319693364699609936e-21,-7.08519639305319693364699609936e-21,-7.08519639305319693364699609936e-21,-7.08519639305319693364699609936e-21,-7.08519639305319693364699609936e-21,-7.08519639305319693364699609936e-21,-7.08519639305319693364699609936e-21,-7.08519639305319693364699609936e-21,-7.08519639305319693364699609936e-21,-7.08519639305293663217795001201e-21,-7.08519638442055750956978631189e-21,-7.08506529374786888262718489676e-21,-6.17654595136677815986900719002e-21,2.86369434449709368772312694151e-18,4.12773660338175136388066893988e-15,2.69526007563486840148215523357e-12,7.96834501687300193106825915972e-10,1.06205071475701243642046254449e-07,6.33999388887335547958842146832e-06,0.000167711101073044079696680586089,0.00192846290721575817396493679468,0.00925749837755055621224542505843,0.0165887923892363044198194899081,0.00569150470916227491785521763745,-0.00847441599788201389842345889747,-0.00635797003488345995048103276304,-0.0014247421152818824565539079785,-0.00012641801338056756344278841464,-4.77507970791374568861678562293e-06,-7.90980763345194454993008982731e-08,-5.8336982565163806838279455448e-10,-1.93252692815960606795742514146e-12,-2.8914653253607079106375648221e-15,-1.96834472427111001267554424411e-18,-7.68986736029269158477313547452e-21,-7.08528129191688612455536156558e-21,-7.08519639848958709614345410554e-21,-7.0851963930533549200877466148e-21,-7.08519639305319693364699609936e-21,-7.08519639305319693364699609936e-21,-7.08519639305319693364699609936e-21,-7.08519639305319693364699609936e-21,-7.08519639305319693364699609936e-21,-7.08519639305319693364699609936e-21,-7.08519639305319693364699609936e-21,-7.08519639305319693364699609936e-21
-7.08519639305319693364699609936e-21,-7.08519639305319693364699609936e-21,-7.08519639305319693364699609936e-21,-7.08519639305319693364699609936e-21,-7.08519639305319693364699609936e-21,-7.08519639305319693364699609936e-21,-7.08519639305319693364699609936e-21,-7.08519639305319693364699609936e-21,-7.08519639305319693364699609936e-21,-7.08519639305319693364699609936e-21,-7.08519639305319693364699609936e-21,-7.08519639305319542901422704683e-21,-7.08519639297207164863799094663e-21,-7.08519456360285454597001403985e-21,-7.06635927156149193510658896108e-21,8.13768675118668148444658670297e-20,1.89195846740877948846998881238e-16,1.83951901556005416321889025842e-13,8.1089140325464327955697804634e-11,1.61477024396117351648195168681e-08,1.44472152314429497559566343418e-06,5.75770848079220387322370300343e-05,0.00100713893460150066133662605239,0.00751255348950235612298653720131,0.0222962488823399626602927980912,0.0202674996322828385175718324263,-0.00733017897738897847292882659076,-0.0157464463259980383402769632539,-0.00587419026567271695266070352659,-0.000811034575982081664888290184479,-4.66281411755040345475629981475e-05,-1.16399370332427589154055021237e-06,-1.28685648372557941162017280013e-08,-6.36982538952199435184339506808e-11,-1.42114982496242342015353566821e-13,-1.43545284134702118008118900861e-16,-7.29153343888585409007249484396e-20,-7.098935501249069648393360374e-21,-7.08519770004734956140559503709e-21,-7.08519639310993964463350503568e-21,-7.08519639305319843827976515189e-21,-7.08519639305319693364699609936e-21,-7.08519639305319693364699609936e-21,-7.08519639305319693364699609936e-21,-7.08519639305319693364699609936e-21,-7.08519639305319693364699609936e-21,-7.08519639305319693364699609936e-21,-7.08519639305319693364699609936e-21,-7.08519639305319693364699609936e-21
-7.08519639305319693364699609936e-21,-7.08519639305319693364699609936e-21,-7.08519639305319693364699609936e-21,-7.08519639305319693364699609936e-21,-7.08519639305319693364699609936e-21,-7.08519639305319693364699609936e-21,-7.08519639305319693364699609936e-21,-7.08519639305319693364699609936e-21,-7.08519639305319693364699609936e-21,-7.08519639305319693364699609936e-21,-7.08519639305319693364699609936e-21,-7.08519639305265526585013718928e-21,-7.08519637492591698136792133244e-21,-7.08491916392537797098879266766e-21,-5.15050888365551074906959203767e-21,6.14601167815516821308284591421e-18,8.90347517020164167528822343886e-15,5.8482818875705939641536505681e-12,1.73832777950113147638581459611e-09,2.32746129821239208980708556077e-07,1.39389389527446989989339920513e-05,0.000369089882025274936862280217298,0.0042299194204411987366154512813,0.0200335455610050269803501521437,0.0342020874237402155992882057944,0.00670660640063123515697274257263,-0.0246413636996911378229668798667,-0.0166180307004684217619949748723,-0.00363676000290521746552419024567,-0.000320483879277840737545557381338,-1.20976609751539344921262078558e-05,-2.00866595560070606900384651734e-07,-1.48740410471346570906960171682e-09,-4.95218685624919556674244930263e-12,-7.45189671366063809146304436514e-15,-5.09294732440818372412404828925e-18,-8.66344124985257284550429480353e-21,-7.08541948888905080349966915812e-21,-7.08519640743845518929243370491e-21,-7.08519639305361973545509985973e-21,-7.08519639305319693364699609936e-21,-7.08519639305319693364699609936e-21,-7.08519639305319693364699609936e-21,-7.08519639305319693364699609936e-21,-7.08519639305319693364699609936e-21,-7.08519639305319693364699609936e-21,-7.08519639305319693364699609936e-21,-7.08519639305319693364699609936e-21,-7.08519639305319693364699609936e-21
-7.08519639305319693364699609936e-21,-7.08519639305319693364699609936e-21,-7.08519639305319693364699609936e-21,-7.08519639305319693364699609936e-21,-7.08519639305319693364699609936e-21,-7.08519639305319693364699609936e-21,-7.08519639305319693364699609936e-21,-7.08519639305319693364699609936e-21,-7.08519639305319693364699609936e-21,-7.08519639305319693364699609936e-21,-7.0851963930531939243814579943e-21,-7.08519639292565071844718235246e-21,-7.08519349632086793518287977935e-21,-7.05516252465765359424295801593e-21,1.34911185845703122433433395995e-19,3.05667590597052319654244982561e-16,2.99017305247271135584409692909e-13,1.32557728417641021968892108851e-10,2.65276369295721827966617135984e-08,2.3825982709431802242564489569e-06,9.51541556528787873039942901698e-05,0.00166257479411836893261333880645,0.0123031037878375184430046473949,0.0355309080798363735587130918248,0.0281948545189329088933583022936,-0.0205579027655274360064652228175,-0.0316649878265251594200435647508,-0.0113362782909886047194580882547,-0.00154687870753244865670850138883,-8.86963376156273825001719046668e-05,-2.21707015381891056550640872747e-06,-2.45947415902937765565631231344e-08,-1.22310161457409215035760136582e-10,-2.7437420114208093325337976216e-13,-2.78794985622858617186007723966e-16,-1.3576215038923808794738276389e-19,-7.11223141003386004859113596061e-21,-7.08519898261683456032096404592e-21,-7.08519639316641603561989167454e-21,-7.08519639305319843827976515189e-21,-7.08519639305319693364699609936e-21,-7.08519639305319693364699609936e-21,-7.08519639305319693364699609936e-21,-7.08519639305319693364699609936e-21,-7.08519639305319693364699609936e-21,-7.08519639305319693364699609936e-21,-7.08519639305319693364699609936e-21,-7.08519639305319693364699609936e-21,-7.08519639305319693364699609936e-21
-7.08519639305319693364699609936e-21,-7.08519639305319693364699609936e-21,-7.08519639305319693364699609936e-21,-7.08519639305319693364699609936e-21,-7.08519639305319693364699609936e-21,-7.08519639305319693364699609936e-21,-7.08519639305319693364699609936e-21,-7.08519639305319693364699609936e-21,-7.08519639305319693364699609936e-21,-7.08519639305319693364699609936e-21,-7.08519639305255896935291782748e-21,-7.08519637156213889801532297745e-21,-7.08486541198099027454575269516e-21,-4.75958330151231167700096473624e-21,7.43822929679075707899968804928e-18,1.08412396480844519488535376001e-14,7.16301367808039141017170944782e-12,2.14036732155186256269915125476e-09,2.8783354250255093552510361754e-07,1.7289221585888133787432471844e-05,0.00045803230946453226887782328447,0.0052264098912447624553645475487,0.0243541906036294393544938685636,0.0391039474438912293408066034317,-7.08519639305319693364699609936e-21,-0.0391039474438912293408066034317,-0.0243541906036294393544938685636,-0.0052264098912447624553645475487,-0.00045803230946453226887782328447,-1.72892215858881473399596279128e-05,-2.87833542502565070387410923677e-07,-2.14036732156603258018249089534e-09,-7.16301369225078290193284617656e-12,-1.08412538184772405973184496772e-14,-7.45239968957686331638517406002e-18,-9.41080948459408143797664293622e-21,-7.08552737412540359274823950356e-21,-7.08519641454425496927866922127e-21,-7.08519639305383489794107437124e-21,-7.08519639305319693364699609936e-21,-7.08519639305319693364699609936e-21,-7.08519639305319693364699609936e-21,-7.08519639305319693364699609936e-21,-7.08519639305319693364699609936e-21,-7.08519639305319693364699609936e-21,-7.08519639305319693364699609936e-21,-7.08519639305319693364699609936e-21,-7.08519639305319693364699609936e-21,-7.08519639305319693364699609936e-21
-7.08519639305319693364699609936e-21,-7.08519639305319693364699609936e-21,-7.08519639305319693364699609936e-21,-7.08519639305319693364699609936e-21,-7.08519639305319693364699609936e-21,-7.08519639305319693364699609936e-21,-7.08519639305319693364699609936e-21,-7.08519639305319693364699609936e-21,-7.08519639305319693364699609936e-21,-7.08519639305319542901422704683e-21,-7.08519639293997783167410052418e-21,-7.0851938034895593069730281528e-21,-7.05816137607253381870285623811e-21,1.21591757603131682043026619271e-19,2.78780815230072532519037615092e-16,2.74374186971688128827696745663e-13,1.22310161443238835660902504048e-10,2.45947415902796119157537650885e-08,2.21707015381889616594630540436e-06,8.86963376156273825001719046668e-05,0.00154687870753244865670850138883,0.0113362782909886047194580882547,0.0316649878265251594200435647508,0.0205579027655274360064652228175,-0.0281948545189329088933583022936,-0.0355309080798363735587130918248,-0.0123031037878375184430046473949,-0.00166257479411836893261333880645,-9.51541556528787873039942901698e-05,-2.38259827094319462381655228e-06,-2.65276369295863507461935218565e-08,-1.32557728431811401343749741385e-10,-2.99017319417663940010092709406e-13,-3.05681760989838453625021667748e-16,-1.49081578631809528337789540614e-19,-7.11523026144874027305103418278e-21,-7.08519928978552593211111241937e-21,-7.08519639318074314884680984626e-21,-7.08519639305319994291253420442e-21,-7.08519639305319693364699609936e-21,-7.08519639305319693364699609936e-21,-7.08519639305319693364699609936e-21,-7.08519639305319693364699609936e-21,-7.08519639305319693364699609936e-21,-7.08519639305319693364699609936e-21,-7.08519639305319693364699609936e-21,-7.08519639305319693364699609936e-21,-7.08519639305319693364699609936e-21,-7.08519639305319693364699609936e-21
-7.08519639305319693364699609936e-21,-7.08519639305319693364699609936e-21,-7.08519639305319693364699609936e-21,-7.08519639305319693364699609936e-21,-7.08519639305319693364699609936e-21,-7.08519639305319693364699609936e-21,-7.08519639305319693364699609936e-21,-7.08519639305319693364699609936e-21,-7.08519639305319693364699609936e-21,-7.08519639305277413183889233899e-21,-7.08519637866793867800155849381e-21,-7.0849732972173430637943230406e-21,-5.50695153625382177410608192145e-21,5.07877693162207825711054003341e-18,7.45188254326785259844175317203e-15,4.9521868420788040749813125739e-12,1.48740410469929548479110893798e-09,2.008665955600564455682977439e-07,1.2097660975153920939599051787e-05,0.000320483879277840737545557381338,0.00363676000290521746552419024567,0.0166180307004684217619949748723,0.0246413636996911378229668798667,-0.00670660640063123515697274257263,-0.0342020874237402155992882057944,-0.0200335455610050269803501521437,-0.0042299194204411987366154512813,-0.000369089882025274936862280217298,-1.39389389527447108573952536115e-05,-2.3274612982125337031279546391e-07,-1.73832777951530190745946051321e-09,-5.84828190174098626370835424315e-12,-8.903489340594428746031325074e-15,-6.16018207094127445046833192495e-18,-9.01988390245088387054078468731e-21,-7.08547362218101589630519953106e-21,-7.08519641118047688592607086628e-21,-7.08519639305373860144385500944e-21,-7.08519639305319693364699609936e-21,-7.08519639305319693364699609936e-21,-7.08519639305319693364699609936e-21,-7.08519639305319693364699609936e-21,-7.08519639305319693364699609936e-21,-7.08519639305319693364699609936e-21,-7.08519639305319693364699609936e-21,-7.08519639305319693364699609936e-21,-7.08519639305319693364699609936e-21,-7.08519639305319693364699609936e-21,-7.08519639305319693364699609936e-21
-7.08519639305319693364699609936e-21,-7.08519639305319693364699609936e-21,-7.08519639305319693364699609936e-21,-7.08519639305319693364699609936e-21,-7.08519639305319693364699609936e-21,-7.08519639305319693364699609936e-21,-7.08519639305319693364699609936e-21,-7.08519639305319693364699609936e-21,-7.08519639305319542901422704683e-21,-7.08519639299645422266048716304e-21,-7.08519508605904430588839716163e-21,-7.07145728485732421890063182472e-21,5.87449416027521349963688038207e-20,1.43531113741916033341148791987e-16,1.42114968325849537589670550324e-13,6.36982538810495512188792470058e-11,1.28685648372416228579474695311e-08,1.16399370332426170373868370284e-06,4.66281411755040209950358420787e-05,0.000811034575982081664888290184479,0.00587419026567271695266070352659,0.0157464463259980383402769632539,0.00733017897738897847292882659076,-0.0202674996322828385175718324263,-0.0222962488823399626602927980912,-0.00751255348950235612298653720131,-0.00100713893460150066133662605239,-5.75770848079220590610277641375e-05,-1.44472152314430937515576675728e-06,-1.61477024396259064230737753382e-08,-8.1089140339634707330555437168e-11,-1.8395191572639822074757204234e-13,-1.89210017133664033513968990112e-16,-9.55472602979732207488220116486e-20,-7.10403351454490193218740323764e-21,-7.08519822250353932132397815887e-21,-7.08519639313432221865600125209e-21,-7.08519639305319843827976515189e-21,-7.08519639305319693364699609936e-21,-7.08519639305319693364699609936e-21,-7.08519639305319693364699609936e-21,-7.08519639305319693364699609936e-21,-7.08519639305319693364699609936e-21,-7.08519639305319693364699609936e-21,-7.08519639305319693364699609936e-21,-7.08519639305319693364699609936e-21,-7.08519639305319693364699609936e-21,-7.08519639305319693364699609936e-21,-7.08519639305319693364699609936e-21
-7.08519639305319693364699609936e-21,-7.08519639305319693364699609936e-21,-7.08519639305319693364699609936e-21,-7.08519639305319693364699609936e-21,-7.08519639305319693364699609936e-21,-7.08519639305319693364699609936e-21,-7.08519639305319693364699609936e-21,-7.08519639305319693364699609936e-21,-7.08519639305303744257347653139e-21,-7.08519638761680526651776904065e-21,-7.08511149418950774273863063314e-21,-6.48052542581370303483724125046e-21,1.95417433148500339010406935593e-18,2.89145115496792202318582101848e-15,1.93252691398921336450593799325e-12,5.8336982563746774070672520651e-10,7.90980763345052841672139904393e-08,4.77507970791373213608962955412e-06,0.00012641801338056756344278841464,0.0014247421152818824565539079785,0.00635797003488345995048103276304,0.00847441599788201389842345889747,-0.00569150470916227491785521763745,-0.0165887923892363044198194899081,-0.00925749837755055621224542505843,-0.00192846290721575817396493679468,-0.000167711101073044079696680586089,-6.33999388887336987914852479142e-06,-1.06205071475715404974133162282e-07,-7.96834501701470727578048402199e-10,-2.69526008980526110493364238178e-12,-4.127750773774536856901960133e-15,-2.87786473728319992510861295225e-18,-7.99384683473961495510860048244e-21,-7.08532749235852498466680730196e-21,-7.08519640168583635772420588682e-21,-7.08519639305345723511604218671e-21,-7.08519639305319693364699609936e-21,-7.08519639305319693364699609936e-21,-7.08519639305319693364699609936e-21,-7.08519639305319693364699609936e-21,-7.08519639305319693364699609936e-21,-7.08519639305319693364699609936e-21,-7.08519639305319693364699609936e-21,-7.08519639305319693364699609936e-21,-7.08519639305319693364699609936e-21,-7.08519639305319693364699609936e-21,-7.08519639305319693364699609936e-21,-7.08519639305319693364699609936e-21
-7.08519639305319693364699609936e-21,-7.08519639305319693364699609936e-21,-7.08519639305319693364699609936e-21,-7.08519639305319693364699609936e-21,-7.08519639305319693364699609936e-21,-7.08519639305319693364699609936e-21,-7.08519639305319693364699609936e-21,-7.08519639305319693364699609936e-21,-7.08519639303714099736843657296e-21,-7.0851960206204799205873600602e-21,-7.08125450068850749892464288848e-21,1.19276156600416794129717877341e-20,4.17121398579834240977487522821e-17,4.15509034059653836664528804318e-14,1.87237096271178370049324601871e-11,3.79970184535219889340591873381e-09,3.44781001038832303967141337808e-07,1.38234273841799579625412228157e-05,0.000239576568885223242094673068436,0.00171078839838680898076395120455,0.00435580511629675773410674821662,0.000983909787224025375595992670696,-0.00785932883871126239383464451294,-0.00783745477590512204524308970122,-0.00258203386944585652762462757437,-0.00034391165712044266230054678779,-1.96518465688596799783704333064e-05,-4.94307502962597968472230770126e-07,-5.54740282836515329468632956741e-09,-2.79990078911308073711366094523e-11,-6.38810678462902744009042234818e-14,-6.61194514269311869520995426281e-17,-3.81982613321811314717632826011e-20,-7.09186658719737793905900015804e-21,-7.08519704537959447388136067615e-21,-7.08519639308232963332139114669e-21,-7.08519639305319843827976515189e-21,-7.08519639305319693364699609936e-21,-7.08519639305319693364699609936e-21,-7.08519639305319693364699609936e-21,-7.08519639305319693364699609936e-21,-7.08519639305319693364699609936e-21,-7.08519639305319693364699609936e-21,-7.08519639305319693364699609936e-21,-7.08519639305319693364699609936e-21,-7.08519639305319693364699609936e-21,-7.08519639305319693364699609936e-21,-7.08519639305319693364699609936e-21,-7.08519639305319693364699609936e-21
-7.08519639305319693364699609936e-21,-7.08519639305319693364699609936e-21,-7.08519639305319693364699609936e-21,-7.08519639305319693364699609936e-21,-7.08519639305319693364699609936e-21,-7.08519639305319693364699609936e-21,-7.08519639305319693364699609936e-21,-7.08519639305316232709330789122e-21,-7.08519639189325747639117362596e-21,-7.08517815273437662255038011831e-21,-6.95440803445364446082672862517e-21,4.19878595135497177055465970963e-19,6.33316974671931047808380664283e-16,4.25671426649939421052959330586e-13,1.29128732673116713670144429554e-10,1.75751578652219811892096380931e-08,1.06312265333497775595880674437e-06,2.81089203520652626793873557487e-05,0.000314134743934677516941089692182,0.0013620772808738874654760353522,0.00156311977014542418003284485195,-0.00204554403543759279887614965787,-0.00447990001800189965169840533576,-0.00240476402689564260420351793357,-0.00049537790329940833283783874208,-4.29761628574378657611371190583e-05,-1.62695406946801279210500570938e-06,-2.7349101526466179559552176128e-08,-2.06160850884647462073970409652e-10,-7.01162526077947863805147416443e-13,-1.08030065429953106024066975062e-15,-7.6322886430912337032551222791e-19,-7.32613021852466484090244723356e-21,-7.0852313947832820170464599538e-21,-7.08519639537428707753772833121e-21,-7.08519639305326614675437251565e-21,-7.08519639305319693364699609936e-21,-7.08519639305319693364699609936e-21,-7.08519639305319693364699609936e-21,-7.08519639305319693364699609936e-21,-7.08519639305319693364699609936e-21,-7.08519639305319693364699609936e-21,-7.08519639305319693364699609936e-21,-7.08519639305319693364699609936e-21,-7.08519639305319693364699609936e-21,-7.08519639305319693364699609936e-21,-7.08519639305319693364699609936e-21,-7.08519639305319693364699609936e-21,-7.08519639305319693364699609936e-21
-7.08519639305319693364699609936e-21,-7.08519639305319693364699609936e-21,-7.08519639305319693364699609936e-21,-7.08519639305319693364699609936e-21,-7.08519639305319693364699609936e-21,-7.08519639305319693364699609936e-21,-7.08519639305319693364699609936e-21,-7.0851963930506315347757615391e-21,-7.08519633313656994974835467067e-21,-7.08455788996095441073203095067e-21,-3.98519063185606365182567749832e-21,6.83795491366230601400015986922e-18,6.85739330465587696661121720278e-15,3.10632572174720726647533655505e-12,6.3312127953780321277823735259e-10,5.76148579501838792370641884923e-08,2.3108129803968654696739136456e-06,3.98631686160884593137475329083e-05,0.000279838289684594210358220545132,0.000667239772804181568641168631473,-6.45836824489001134824359140474e-05,-0.00166856703070044319614506633798,-0.00154520078735470838687815486878,-0.000499670201108479497542624869766,-6.62082399317521060272753730125e-05,-3.78370954121608368375369660375e-06,-9.54347237650126111617096807266e-08,-1.07558727372821969784066503423e-09,-5.45697104645161824566131154901e-12,-1.25228952424911605088975861974e-14,-1.30485804050331165957935749026e-17,-1.32630414231948901015687916887e-20,-7.08652986853351988150167658251e-21,-7.08519652437682730672080277375e-21,-7.08519639305910412189829632433e-21,-7.08519639305319693364699609936e-21,-7.08519639305319693364699609936e-21,-7.08519639305319693364699609936e-21,-7.08519639305319693364699609936e-21,-7.08519639305319693364699609936e-21,-7.08519639305319693364699609936e-21,-7.08519639305319693364699609936e-21,-7.08519639305319693364699609936e-21,-7.08519639305319693364699609936e-21,-7.08519639305319693364699609936e-21,-7.08519639305319693364699609936e-21,-7.08519639305319693364699609936e-21,-7.08519639305319693364699609936e-21,-7.08519639305319693364699609936e-21
-7.08519639305319693364699609936e-21,-7.08519639305319693364699609936e-21,-7.08519639305319693364699609936e-21,-7.08519639305319693364699609936e-21,-7.08519639305319693364699609936e-21,-7.08519639305319693364699609936e-21,-7.08519639305319241974868894178e-21,-7.08519639291346620228339498064e-21,-7.08519418056454086724919559722e-21,-7.06922577918449007446409549506e-21,4.53869587134493173859040466465e-20,7.82977476799831973877167359237e-17,5.29220347053167203117466351807e-14,1.61307525304558029635947329222e-11,2.20338026451392027591225877164e-09,1.33498639764661809424924543074e-07,3.5224386796274279632929914835e-06,3.89648155226947730733408348236e-05,0.000163099535582192871731657679568,0.000149239010845152641950711602803,-0.00036900668525361731515596619424,-0.00067552603070046199872089598415,-0.000351343808853124453094735057945,-7.17118884287945806792208269798e-05,-6.21108946707273698058628455532e-06,-2.35564409330481636030852482522e-07,-3.97455257815205039397384330206e-09,-3.01060555188839785154510171158e-11,-1.02964572760137565653808749338e-13,-1.59613739330915776833028198404e-16,-1.19522404928158094657231845574e-19,-7.12126387385491903537197142508e-21,-7.08520166909118758607380952455e-21,-7.08519639340555183550371710879e-21,-7.08519639305320746607637946706e-21,-7.08519639305319693364699609936e-21,-7.08519639305319693364699609936e-21,-7.08519639305319693364699609936e-21,-7.08519639305319693364699609936e-21,-7.08519639305319693364699609936e-21,-7.08519639305319693364699609936e-21,-7.08519639305319693364699609936e-21,-7.08519639305319693364699609936e-21,-7.08519639305319693364699609936e-21,-7.08519639305319693364699609936e-21,-7.08519639305319693364699609936e-21,-7.08519639305319693364699609936e-21,-7.08519639305319693364699609936e-21,-7.08519639305319693364699609936e-21
-7.08519639305319693364699609936e-21,-7.08519639305319693364699609936e-21,-7.08519639305319693364699609936e-21,-7.08519639305319693364699609936e-21,-7.08519639305319693364699609936e-21,-7.08519639305319693364699609936e-21,-7.08519639305296522020056201005e-21,-7.08519638761104854154337406848e-21,-7.08513800407428427572960939165e-21,-6.79985155500499564868624665988e-21,6.26904829731967720363367775187e-19,6.38801189093422834287165387111e-16,2.90859709796765953105358309786e-13,5.95288714446494272431326702376e-11,5.4312391064047247305904012808e-09,2.17794177620298457992835416443e-07,3.73513599273790899768033293982e-06,2.56859786286636496643008553686e-05,5.62120794131132142375066595985e-05,-3.0947437032615615940759484781e-05,-0.000195617635950499381674444476786,-0.000171036906946242858859261182225,-5.44598090288491438050282045236e-05,-7.18681666746026325947325000265e-06,-4.10978663447270148230291942834e-07,-1.03974531298667482291102047713e-08,-1.17703159438763492488403330817e-10,-6.00338353130665968185138434076e-13,-1.38582417641244632206834102114e-15,-1.45941472843522223777839933794e-18,-7.7777320701930707101248432081e-21,-7.08534689984411948326635246582e-21,-7.08519640797962495270478740181e-21,-7.08519639305387251376030068444e-21,-7.08519639305319693364699609936e-21,-7.08519639305319693364699609936e-21,-7.08519639305319693364699609936e-21,-7.08519639305319693364699609936e-21,-7.08519639305319693364699609936e-21,-7.08519639305319693364699609936e-21,-7.08519639305319693364699609936e-21,-7.08519639305319693364699609936e-21,-7.08519639305319693364699609936e-21,-7.08519639305319693364699609936e-21,-7.08519639305319693364699609936e-21,-7.08519639305319693364699609936e-21,-7.08519639305319693364699609936e-21,-7.08519639305319693364699609936e-21,-7.08519639305319693364699609936e-21
-7.08519639305319693364699609936e-21,-7.08519639305319693364699609936e-21,-7.08519639305319693364699609936e-21,-7.08519639305319693364699609936e-21,-7.08519639305319693364699609936e-21,-7.08519639305319693364699609936e-21,-7.08519639304369367307766033245e-21,-7.0851962415416875171783703905e-21,-7.08409542715932570624001183303e-21,-3.44483223089073932909698182441e-21,5.45803033934896381403285581544e-18,3.71366927129331180441679238807e-15,1.13717481323578446693282176062e-12,1.55853581537961877050721491017e-10,9.45419773170375828548163209914e-09,2.4873037418781204422980955597e-07,2.71761871759950499529844177016e-06,1.08897318954353015371715532322e-05,6.72068087070391417537891867728e-06,-3.52392861018012594617396238128e-05,-5.69937943004830338739920281288e-05,-2.88848528715477516706517518985e-05,-5.85123424180033262979698516215e-06,-5.06310166018668558616166661124e-07,-1.9244689419977121378960957564e-08,-3.25981011487075988605231374151e-10,-2.48152476665150361125366978033e-12,-8.53519604401016125044119572564e-15,-1.33191074117502126394851588155e-17,-1.6524061823389033865464233431e-20,-7.08824466025600390333293377864e-21,-7.08519684206445451520578414741e-21,-7.08519639308339792258741844158e-21,-7.08519639305319843827976515189e-21,-7.08519639305319693364699609936e-21,-7.08519639305319693364699609936e-21,-7.08519639305319693364699609936e-21,-7.08519639305319693364699609936e-21,-7.08519639305319693364699609936e-21,-7.08519639305319693364699609936e-21,-7.08519639305319693364699609936e-21,-7.08519639305319693364699609936e-21,-7.08519639305319693364699609936e-21,-7.08519639305319693364699609936e-21,-7.08519639305319693364699609936e-21,-7.08519639305319693364699609936e-21,-7.08519639305319693364699609936e-21,-7.08519639305319693364699609936e-21,-7.08519639305319693364699609936e-21
-7.08519639305319693364699609936e-21,-7.08519639305319693364699609936e-21,-7.08519639305319693364699609936e-21,-7.08519639305319693364699609936e-21,-7.08519639305319693364699609936e-21,-7.08519639305318489658484367914e-21,-7.08519639277412517080697846667e-21,-7.08519337861841922350533214648e-21,-7.07036897340377725454750143989e-21,2.6062314723642187124413257353e-20,3.35826860923816947982228441383e-17,1.53706265142794324477238820599e-14,3.15831839460852249591683103456e-12,2.88807798000219556040780585638e-10,1.15719087737907211166856979675e-08,1.97021268003570317201903730649e-07,1.32152455024646909648644230173e-06,2.57503508153832713617860730726e-06,-3.16522678645426309691855021322e-06,-1.27333531696473709559323805873e-05,-1.06372800753312182889037326716e-05,-3.34384643491053771047530861205e-06,-4.39912789318372717589015856443e-07,-2.51844128406294721713642927475e-08,-6.3925319179118742793687792743e-10,-7.26985955084750391767651322611e-12,-3.72805271029576821971372439327e-14,-8.65797121334321847976326598609e-17,-9.83911619124113070320188859043e-20,-7.12902529203804866444047244394e-21,-7.08520598382298543185911782154e-21,-7.08519639401106421001906406099e-21,-7.08519639305324056799729862267e-21,-7.08519639305319693364699609936e-21,-7.08519639305319693364699609936e-21,-7.08519639305319693364699609936e-21,-7.08519639305319693364699609936e-21,-7.08519639305319693364699609936e-21,-7.08519639305319693364699609936e-21,-7.08519639305319693364699609936e-21,-7.08519639305319693364699609936e-21,-7.08519639305319693364699609936e-21,-7.08519639305319693364699609936e-21,-7.08519639305319693364699609936e-21,-7.08519639305319693364699609936e-21,-7.08519639305319693364699609936e-21,-7.08519639305319693364699609936e-21,-7.08519639305319693364699609936e-21,-7.08519639305319693364699609936e-21
-7.08519639305319693364699609936e-21,-7.08519639305319693364699609936e-21,-7.08519639305319693364699609936e-21,-7.08519639305319693364699609936e-21,-7.08519639305319693364699609936e-21,-7.08519639305283281251688538758e-21,-7.08519638719553968847121130088e-21,-7.08515354580686703031371169958e-21,-6.94262419750642708045819468011e-21,2.0821910668974751326792955369e-19,1.47077998201543845360171373525e-16,4.52405410491105817273107105361e-14,6.21955980727030375374235442865e-12,3.77560434507817052203064240505e-10,9.8948871088581421905025424751e-09,1.06512088262738591651206684994e-07,4.04029408987430427107977572512e-07,9.11737103307201098535968533144e-08,-1.82426275669352225110037696298e-06,-2.69458642722890811223366951122e-06,-1.33675225556341537642057650664e-06,-2.69134553913772182611531579369e-07,-2.32811980265880883388984100507e-08,-8.87148672077242374488061582642e-10,-1.50891908735417600952991682973e-11,-1.15453618111124571579794231473e-13,-3.99399332276847139058879696595e-16,-6.33878633452760626748877672842e-19,-7.53253477949781661675895220116e-21,-7.08534184229408644303633454361e-21,-7.08519641462761162468417927304e-21,-7.08519639305465793206574610406e-21,-7.08519639305319693364699609936e-21,-7.08519639305319693364699609936e-21,-7.08519639305319693364699609936e-21,-7.08519639305319693364699609936e-21,-7.08519639305319693364699609936e-21,-7.08519639305319693364699609936e-21,-7.08519639305319693364699609936e-21,-7.08519639305319693364699609936e-21,-7.08519639305319693364699609936e-21,-7.08519639305319693364699609936e-21,-7.08519639305319693364699609936e-21,-7.08519639305319693364699609936e-21,-7.08519639305319693364699609936e-21,-7.08519639305319693364699609936e-21,-7.08519639305319693364699609936e-21,-7.08519639305319693364699609936e-21,-7.08519639305319693364699609936e-21
-7.08519639305319693364699609936e-21,-7.08519639305319693364699609936e-21,-7.08519639305319693364699609936e-21,-7.08519639305319693364699609936e-21,-7.08519639305319693364699609936e-21,-7.08519639304511705567718402394e-21,-7.08519630519436431025027949688e-21,-7.08476143669758948509001372795e-21,-6.10688603051594412186113519147e-21,9.89838855050216166304979627142e-19,4.58410214182676844216467957737e-16,9.4548472941851524866594934815e-14,8.66231490806527358008294474921e-12,3.46560213571981102213730750194e-10,5.84833790296653503873659145709e-09,3.80550235686389888167185729332e-08,6.28260409208675212509054319211e-08,-1.47262331393677350843473628297e-07,-4.61891863458291302453465661942e-07,-3.71948465244477778643221975441e-07,-1.15687400995233501752515047241e-07,-1.51859999202039686125331898305e-08,-8.70717774008813338247484641086e-10,-2.2179781258579141834529710239e-11,-2.53435663716335717548748021532e-13,-1.30682464623984337097899031047e-15,-3.06012582631931060543085720861e-18,-1.03258477275885889067721675554e-20,-7.08676240287947117942093799646e-21,-7.08519673810069777955472894113e-21,-7.08519639308790128846519265791e-21,-7.08519639305319843827976515189e-21,-7.08519639305319693364699609936e-21,-7.08519639305319693364699609936e-21,-7.08519639305319693364699609936e-21,-7.08519639305319693364699609936e-21,-7.08519639305319693364699609936e-21,-7.08519639305319693364699609936e-21,-7.08519639305319693364699609936e-21,-7.08519639305319693364699609936e-21,-7.08519639305319693364699609936e-21,-7.08519639305319693364699609936e-21,-7.08519639305319693364699609936e-21,-7.08519639305319693364699609936e-21,-7.08519639305319693364699609936e-21,-7.08519639305319693364699609936e-21,-7.08519639305319693364699609936e-21,-7.08519639305319693364699609936e-21,-7.08519639305319693364699609936e-21
-7.08519639305319693364699609936e-21,-7.08519639305319693364699609936e-21,-7.08519639305319693364699609936e-21,-7.08519639305319693364699609936e-21,-7.08519639305318941048315083672e-21,-7.08519639292534377336229563675e-21,-7.08519545167164164892349402013e-21,-7.08204433126026584460056448617e-21,-2.29732244732235807741805874088e-21,3.28083690471772093325379112385e-18,1.01563959877320192349188360415e-15,1.40021405301177916431692501628e-13,8.501921944964492079228351349e-12,2.21710447520654369543780303628e-10,2.3441060103042286480134518919e-09,8.2882258957836176033363043093e-09,-2.54419082555094151115702180536e-09,-5.18453028281797498034278543974e-08,-7.14740350161903100566327014243e-08,-3.48348552985341060342205498235e-08,-6.97932683765435164865797331422e-09,-6.03895833710345197878607332074e-10,-2.30771540003903173273800112959e-11,-3.94202351382876973572444090798e-13,-3.03199336600832908431861624055e-15,-1.05570716420128246853554088672e-17,-2.37459859613676935093227018374e-20,-7.09716549842159632491311606144e-21,-7.08520031131110341454170150489e-21,-7.08519639363846447425474128718e-21,-7.08519639305323605409899146509e-21,-7.08519639305319693364699609936e-21,-7.08519639305319693364699609936e-21,-7.08519639305319693364699609936e-21,-7.08519639305319693364699609936e-21,-7.08519639305319693364699609936e-21,-7.08519639305319693364699609936e-21,-7.08519639305319693364699609936e-21,-7.08519639305319693364699609936e-21,-7.08519639305319693364699609936e-21,-7.08519639305319693364699609936e-21,-7.08519639305319693364699609936e-21,-7.08519639305319693364699609936e-21,-7.08519639305319693364699609936e-21,-7.08519639305319693364699609936e-21,-7.08519639305319693364699609936e-21,-7.08519639305319693364699609936e-21,-7.08519639305319693364699609936e-21,-7.08519639305319693364699609936e-21
-7.08519639305319693364699609936e-21,-7.08519639305319693364699609936e-21,-7.08519639305319693364699609936e-21,-7.08519639305319693364699609936e-21,-7.08519639305306452596331947689e-21,-7.08519639160753523671194381946e-21,-7.08518919016526471977654473405e-21,-7.06889763534993260661926551713e-21,9.61525467419671219323850961202e-21,7.70869633067056356322177828253e-18,1.59699307236379703279439095529e-15,1.4653465608205251758163323055e-13,5.84920170810889751712720542994e-12,9.76504788355548967795186012307e-11,6.12161533275720192899508915741e-10,7.80820477966730876010537351547e-10,-3.50652283260405307408544007793e-09,-9.36104359641385531525952000756e-09,-7.31597738207440820608907553987e-09,-2.25566912382160807173175437685e-09,-2.95667837015487545268491560252e-10,-1.69854143386323978384267770121e-11,-4.34302326556825510074550482342e-13,-4.98679687866289049442893872124e-15,-2.58654143520837771369805545985e-17,-6.7865899004176952083178805861e-20,-7.1501296918946803490330174277e-21,-7.08522798279471543417365796862e-21,-7.08519640006184107110274082958e-21,-7.08519639305390712031398889258e-21,-7.08519639305319693364699609936e-21,-7.08519639305319693364699609936e-21,-7.08519639305319693364699609936e-21,-7.08519639305319693364699609936e-21,-7.08519639305319693364699609936e-21,-7.08519639305319693364699609936e-21,-7.08519639305319693364699609936e-21,-7.08519639305319693364699609936e-21,-7.08519639305319693364699609936e-21,-7.08519639305319693364699609936e-21,-7.08519639305319693364699609936e-21,-7.08519639305319693364699609936e-21,-7.08519639305319693364699609936e-21,-7.08519639305319693364699609936e-21,-7.08519639305319693364699609936e-21,-7.08519639305319693364699609936e-21,-7.08519639305319693364699609936e-21,-7.08519639305319693364699609936e-21,-7.08519639305319693364699609936e-21
-7.08519639305319693364699609936e-21,-7.08519639305319693364699609936e-21,-7.08519639305319693364699609936e-21,-7.08519639305319693364699609936e-21,-7.08519639305162158313779810253e-21,-7.08519638137706608986709243685e-21,-7.08515705434771539402169799424e-21,-7.02509797443592593846991488877e-21,3.43961947930397423953231043455e-20,1.28593038925009308461655654158e-17,1.77825329678098587604986441283e-15,1.07935918558592250820041098445e-13,2.79727083587118033258134205833e-12,2.89410667271599528751724906798e-11,9.32758962117885671663113554668e-11,-9.95030957328184609969258721682e-11,-8.15028483000612435535473482382e-10,-1.06462915943349011091743760987e-09,-5.1130299094392171274434334539e-10,-1.02053960812137555079828655323e-10,-8.83715456622723744099209969175e-12,-3.38753117865464911746519731171e-13,-5.81248632736713943439716533073e-15,-4.49523576234823477374024515281e-17,-1.64401726895544738377926058705e-19,-7.33520828193046189074381978227e-21,-7.08537719319949996655546521334e-21,-7.08519645264678979445944313196e-21,-7.08519639306216153568501106124e-21,-7.08519639305319843827976515189e-21,-7.08519639305319693364699609936e-21,-7.08519639305319693364699609936e-21,-7.08519639305319693364699609936e-21,-7.08519639305319693364699609936e-21,-7.08519639305319693364699609936e-21,-7.08519639305319693364699609936e-21,-7.08519639305319693364699609936e-21,-7.08519639305319693364699609936e-21,-7.08519639305319693364699609936e-21,-7.08519639305319693364699609936e-21,-7.08519639305319693364699609936e-21,-7.08519639305319693364699609936e-21,-7.08519639305319693364699609936e-21,-7.08519639305319693364699609936e-21,-7.08519639305319693364699609936e-21,-7.08519639305319693364699609936e-21,-7.08519639305319693364699609936e-21,-7.08519639305319693364699609936e-21,-7.08519639305319693364699609936e-21
-7.08519639305319693364699609936e-21,-7.08519639305319693364699609936e-21,-7.08519639305319693364699609936e-21,-7.08519639305319542901422704683e-21,-7.08519639303976658155043323434e-21,-7.08519632571760944690644744702e-21,-7.08504311531643237665957670048e-21,-6.92729078909949041768073133326e-21,6.62033927304784354965101107886e-20,1.52119414964178801589094687956e-17,1.39794001675484316155236379342e-15,5.56259945237782655269355739032e-14,9.16663068759703830411030845049e-13,5.48639058677965447576969012566e-12,4.34358110046950475240374079118e-12,-4.45590837934675480819205655245e-11,-1.06198229462592716158334884632e-10,-8.09817162658264804296030685076e-11,-2.47904510800094852218554036888e-11,-3.24699880194096992875836613261e-12,-1.86959076579620821264042977256e-13,-4.79942820211833321729515570516e-15,-5.53922477656107187638278010038e-17,-2.95916022641239879079080385031e-19,-7.76829539068752884823485634917e-21,-7.08593091934702319228888587082e-21,-7.08519675281694515173634165836e-21,-7.08519639313357140690424404061e-21,-7.08519639305320596144361041453e-21,-7.08519639305319693364699609936e-21,-7.08519639305319693364699609936e-21,-7.08519639305319693364699609936e-21,-7.08519639305319693364699609936e-21,-7.08519639305319693364699609936e-21,-7.08519639305319693364699609936e-21,-7.08519639305319693364699609936e-21,-7.08519639305319693364699609936e-21,-7.08519639305319693364699609936e-21,-7.08519639305319693364699609936e-21,-7.08519639305319693364699609936e-21,-7.08519639305319693364699609936e-21,-7.08519639305319693364699609936e-21,-7.08519639305319693364699609936e-21,-7.08519639305319693364699609936e-21,-7.08519639305319693364699609936e-21,-7.08519639305319693364699609936e-21,-7.08519639305319693364699609936e-21,-7.08519639305319693364699609936e-21,-7.08519639305319693364699609936e-21
-7.08519639305319693364699609936e-21,-7.08519639305319693364699609936e-21,-7.08519639305319693364699609936e-21,-7.08519639305318489658484367914e-21,-7.0851963929714412075077579374e-21,-7.08519611590873475846920611359e-21,-7.08477059169567453076096850173e-21,-6.78983484590682944128960710496e-21,8.48864097380537622537699434886e-20,1.27318736421916225910049308542e-17,7.72453366373379960147133513185e-16,1.98661958783607959517121228094e-14,2.00211383234510092790206294375e-13,5.68346618325636013154464552525e-13,-1.26592805092062225868902547964e-12,-7.12185165079225619756057043592e-12,-8.91176551056841284439419621806e-12,-4.22810875057347923977919566916e-12,-8.41517597501166897545242430456e-13,-7.29591984280726611962963353071e-14,-2.80617275799365524770528653344e-15,-4.83798994801608681620725951837e-17,-3.83168279040113439521848048925e-19,-8.40945007819646557416316881198e-21,-7.08731437743869399085971372945e-21,-7.0851979349302417289277586552e-21,-7.08519639356491802450345371804e-21,-7.08519639305327366991821777829e-21,-7.08519639305319693364699609936e-21,-7.08519639305319693364699609936e-21,-7.08519639305319693364699609936e-21,-7.08519639305319693364699609936e-21,-7.08519639305319693364699609936e-21,-7.08519639305319693364699609936e-21,-7.08519639305319693364699609936e-21,-7.08519639305319693364699609936e-21,-7.08519639305319693364699609936e-21,-7.08519639305319693364699609936e-21,-7.08519639305319693364699609936e-21,-7.08519639305319693364699609936e-21,-7.08519639305319693364699609936e-21,-7.08519639305319693364699609936e-21,-7.08519639305319693364699609936e-21,-7.08519639305319693364699609936e-21,-7.08519639305319693364699609936e-21,-7.08519639305319693364699609936e-21,-7.08519639305319693364699609936e-21,-7.08519639305319693364699609936e-21,-7.08519639305319693364699609936e-21
-7.08519639305319693364699609936e-21,-7.08519639305319693364699609936e-21,-7.08519639305319693364699609936e-21,-7.08519639305312621590685063054e-21,-7.08519639269784781257986055919e-21,-7.08519557938999436068069538378e-21,-7.08435371497172110030201641375e-21,-6.69235502950859254979133931174e-21,7.47383342822759665902543914908e-20,7.51335847067233310080338234653e-18,2.9800200419429976875167094582e-16,4.83457425108079545908348713962e-15,2.72922014796146802524134835407e-14,4.10793179146590092399629490327e-15,-3.08214869033702442067280471008e-13,-6.75366775555228865922732834497e-13,-5.04642866359051603526470836923e-13,-1.53594242216375848380947301486e-13,-2.0114440955702618039418130401e-14,-1.16120335422469764416893188796e-15,-2.99406133632540076848938846294e-17,-3.54294842087455350921651709021e-19,-8.90636030025108554122244924032e-21,-7.08953040260286351820546382637e-21,-7.08520108393559015171336073242e-21,-7.08519639536638173696912634904e-21,-7.08519639305371753658508827405e-21,-7.08519639305319693364699609936e-21,-7.08519639305319693364699609936e-21,-7.08519639305319693364699609936e-21,-7.08519639305319693364699609936e-21,-7.08519639305319693364699609936e-21,-7.08519639305319693364699609936e-21,-7.08519639305319693364699609936e-21,-7.08519639305319693364699609936e-21,-7.08519639305319693364699609936e-21,-7.08519639305319693364699609936e-21,-7.08519639305319693364699609936e-21,-7.08519639305319693364699609936e-21,-7.08519639305319693364699609936e-21,-7.08519639305319693364699609936e-21,-7.08519639305319693364699609936e-21,-7.08519639305319693364699609936e-21,-7.08519639305319693364699609936e-21,-7.08519639305319693364699609936e-21,-7.08519639305319693364699609936e-21,-7.08519639305319693364699609936e-21,-7.08519639305319693364699609936e-21,-7.08519639305319693364699609936e-21
-7.08519639305319693364699609936e-21,-7.08519639305319693364699609936e-21,-7.08519639305319693364699609936e-21,-7.08519639305287343760164980584e-21,-7.08519639195102785155894543891e-21,-7.08519469023763694129742304179e-21,-7.08400949704270297284091400461e-21,-6.71424551461929834016332329409e-21,4.43877318631963455587460075055e-20,3.10881386501479273722824032566e-18,7.93819000422390007062582339094e-17,7.74845774810646295251007594357e-16,1.82874678509558289622441309764e-15,-7.68027206444666069924905922783e-15,-3.47067786018549817211620077749e-14,-4.19474455833666466139744689912e-14,-1.97018124808838264495655245443e-14,-3.91340170040912351723688303087e-15,-3.39856215079559339487913572721e-16,-1.31256122795934322735701878237e-17,-2.34305556705609042963471751389e-19,-8.86156124358237122533895854998e-21,-7.09148922846739286592408179944e-21,-7.08520652247808618995070570927e-21,-7.0851964004768353397678876326e-21,-7.08519639305567807308316371805e-21,-7.08519639305319693364699609936e-21,-7.08519639305319693364699609936e-21,-7.08519639305319693364699609936e-21,-7.08519639305319693364699609936e-21,-7.08519639305319693364699609936e-21,-7.08519639305319693364699609936e-21,-7.08519639305319693364699609936e-21,-7.08519639305319693364699609936e-21,-7.08519639305319693364699609936e-21,-7.08519639305319693364699609936e-21,-7.08519639305319693364699609936e-21,-7.08519639305319693364699609936e-21,-7.08519639305319693364699609936e-21,-7.08519639305319693364699609936e-21,-7.08519639305319693364699609936e-21,-7.08519639305319693364699609936e-21,-7.08519639305319693364699609936e-21,-7.08519639305319693364699609936e-21,-7.08519639305319693364699609936e-21,-7.08519639305319693364699609936e-21,-7.08519639305319693364699609936e-21,-7.08519639305319693364699609936e-21,-7.08519639305319693364699609936e-21
-7.08519639305319693364699609936e-21,-7.08519639305319693364699609936e-21,-7.08519639305319693364699609936e-21,-7.08519639305213767217758311964e-21,-7.08519639061513212439181318242e-21,-7.08519385493581549240569872981e-21,-7.08400814163836924443367845435e-21,-6.83702323784709028581785012132e-21,1.57262092259240362733753069449e-20,8.92089449081103928574893555939e-19,1.43073931153083595263277760876e-17,7.49278500217574832008911204429e-17,-5.48308781483162793905285206084e-17,-1.17320049716758300962095382245e-15,-2.41030596489374383778019520249e-15,-1.77092040453911404765141000086e-15,-5.3654636050772140625034089873e-16,-7.02995297881875576684476740321e-17,-4.07684860276262438805007903747e-18,-1.12453291864130955393817948054e-19,-8.31383072773460379696990956501e-21,-7.09167857938843284556769949539e-21,-7.08521191648316939327263970893e-21,-7.08519640996584252288241994718e-21,-7.08519639306159428913107825818e-21,-7.08519639305319843827976515189e-21,-7.08519639305319693364699609936e-21,-7.08519639305319693364699609936e-21,-7.08519639305319693364699609936e-21,-7.08519639305319693364699609936e-21,-7.08519639305319693364699609936e-21,-7.08519639305319693364699609936e-21,-7.08519639305319693364699609936e-21,-7.08519639305319693364699609936e-21,-7.08519639305319693364699609936e-21,-7.08519639305319693364699609936e-21,-7.08519639305319693364699609936e-21,-7.08519639305319693364699609936e-21,-7.08519639305319693364699609936e-21,-7.08519639305319693364699609936e-21,-7.08519639305319693364699609936e-21,-7.08519639305319693364699609936e-21,-7.08519639305319693364699609936e-21,-7.08519639305319693364699609936e-21,-7.08519639305319693364699609936e-21,-7.08519639305319693364699609936e-21,-7.08519639305319693364699609936e-21,-7.08519639305319693364699609936e-21,-7.08519639305319693364699609936e-21
-7.08519639305319693364699609936e-21,-7.08519639305319693364699609936e-21,-7.08519639305319542901422704683e-21,-7.08519639305072331737467374331e-21,-7.08519638920960500193846803466e-21,-7.08519370140743462235553332243e-21,-7.08435223154533205886817198362e-21,-6.96789706331149382258307391239e-21,-2.24758980535555131634388999894e-24,1.71346108358370053580777659147e-19,1.66706592387779903113706674533e-18,2.92811511223833672771435794488e-18,-2.42137629913029881238662271126e-17,-9.45582525946489575706028028937e-17,-1.11087680921250446550245213643e-16,-5.17481286157478862491395021615e-17,-1.02715728548450738539735836399e-17,-9.00289029649595499549244983163e-19,-4.16959043801035734407454542356e-20,-7.68762668800312454119462348866e-21,-7.0899326410211991752729006441e-21,-7.08521327426804431554141097777e-21,-7.08519642040270816518928280707e-21,-7.0851963930733755637127595525e-21,-7.08519639305320295217807230947e-21,-7.08519639305319693364699609936e-21,-7.08519639305319693364699609936e-21,-7.08519639305319693364699609936e-21,-7.08519639305319693364699609936e-21,-7.08519639305319693364699609936e-21,-7.08519639305319693364699609936e-21,-7.08519639305319693364699609936e-21,-7.08519639305319693364699609936e-21,-7.08519639305319693364699609936e-21,-7.08519639305319693364699609936e-21,-7.08519639305319693364699609936e-21,-7.08519639305319693364699609936e-21,-7.08519639305319693364699609936e-21,-7.08519639305319693364699609936e-21,-7.08519639305319693364699609936e-21,-7.08519639305319693364699609936e-21,-7.08519639305319693364699609936e-21,-7.08519639305319693364699609936e-21,-7.08519639305319693364699609936e-21,-7.08519639305319693364699609936e-21,-7.08519639305319693364699609936e-21,-7.08519639305319693364699609936e-21,-7.08519639305319693364699609936e-21,-7.08519639305319693364699609936e-21
-7.08519639305319693364699609936e-21,-7.08519639305319693364699609936e-21,-7.08519639305319542901422704683e-21,-7.08519639304907273522702312008e-21,-7.08519638873862184330410761185e-21,-7.08519436492924938761797844028e-21,-7.08477178313453003336474169541e-21,-7.04618743854240719330670288348e-21,-5.55764415499730419595289203458e-21,1.66845139517604157649254338928e-20,1.05467193301926065668443997038e-19,-2.33318466866501017317877335826e-19,-2.48098066974972003651331962057e-18,-4.83866400887150832524286822096e-18,-3.50767005844757059169151579506e-18,-1.0639340003900881935395699548e-18,-1.45668106778897270225938082637e-19,-1.51343772898688814018448453918e-20,-7.29453615135273673598229428671e-21,-7.0876504927841808106209848936e-21,-7.08520941768084614048078647236e-21,-7.08519642444239888568842684733e-21,-7.08519639308762293140291794023e-21,-7.08519639305321348460745567717e-21,-7.08519639305319693364699609936e-21,-7.08519639305319693364699609936e-21,-7.08519639305319693364699609936e-21,-7.08519639305319693364699609936e-21,-7.08519639305319693364699609936e-21,-7.08519639305319693364699609936e-21,-7.08519639305319693364699609936e-21,-7.08519639305319693364699609936e-21,-7.08519639305319693364699609936e-21,-7.08519639305319693364699609936e-21,-7.08519639305319693364699609936e-21,-7.08519639305319693364699609936e-21,-7.08519639305319693364699609936e-21,-7.08519639305319693364699609936e-21,-7.08519639305319693364699609936e-21,-7.08519639305319693364699609936e-21,-7.08519639305319693364699609936e-21,-7.08519639305319693364699609936e-21,-7.08519639305319693364699609936e-21,-7.08519639305319693364699609936e-21,-7.08519639305319693364699609936e-21,-7.08519639305319693364699609936e-21,-7.08519639305319693364699609936e-21,-7.08519639305319693364699609936e-21,-7.08519639305319693364699609936e-21
-7.08519639305319693364699609936e-21,-7.08519639305319693364699609936e-21,-7.0851963930531939243814579943e-21,-7.08519639304829935398373012069e-21,-7.08519638960845004709337405455e-21,-7.08519530922494431752149761405e-21,-7.0850456471765562019201188826e-21,-7.07612477924118604056758932899e-21,-6.85976941975046959342570730554e-21,-5.07167702578366941498311366397e-21,-5.14048526592041986021436065692e-21,-4.80727140555158196801743448202e-20,-1.51333807253562272873822282103e-19,-1.72639648525819186933051455294e-19,-8.36803606431663250373113924569e-20,-2.22713110149873803056329754636e-20,-8.40981653525053503953093915296e-21,-7.13673119368597590019020272888e-21,-7.08609793781236547885085735931e-21,-7.08520352151121470565468882204e-21,-7.08519641861825432617774900523e-21,-7.08519639309488579377913449294e-21,-7.08519639305322853093514620245e-21,-7.08519639305319693364699609936e-21,-7.08519639305319693364699609936e-21,-7.08519639305319693364699609936e-21,-7.08519639305319693364699609936e-21,-7.08519639305319693364699609936e-21,-7.08519639305319693364699609936e-21,-7.08519639305319693364699609936e-21,-7.08519639305319693364699609936e-21,-7.08519639305319693364699609936e-21,-7.08519639305319693364699609936e-21,-7.08519639305319693364699609936e-21,-7.08519639305319693364699609936e-21,-7.08519639305319693364699609936e-21,-7.08519639305319693364699609936e-21,-7.08519639305319693364699609936e-21,-7.08519639305319693364699609936e-21,-7.08519639305319693364699609936e-21,-7.08519639305319693364699609936e-21,-7.08519639305319693364699609936e-21,-7.08519639305319693364699609936e-21,-7.08519639305319693364699609936e-21,-7.08519639305319693364699609936e-21,-7.08519639305319693364699609936e-21,-7.08519639305319693364699609936e-21,-7.08519639305319693364699609936e-21,-7.08519639305319693364699609936e-21
