-0.000502697210045128400381087008242,-0.000501026287164820145238197657278,-0.000499013139525348063327281344925,-0.000496616532668442737206981885123,-0.00049379790251163598394090747945,-0.000490523700984784520422177234167,-0.000486768010850080435833464598261,-0.000482515318446670763655875768805,-0.000477763296546845645657031198539,-0.000472525418008852202394337593816,-0.000466833198581612085747288842796,-0.000460737858019111886243718290146,-0.000454311195898326905615732806965,-0.000447645504337835695683744940965,-0.000440852384700510528843520052789,-0.000434060397911419147774086946256,-0.00042741155474909425446283783856,-0.000421056737949296452580560945478,-0.000415150235203325492557707709906,-0.000409843643196039573561167967952,-0.000405279469622472291855802550842,-0.000401584805308380983924348983649,-0.000398865456439124598398554555345,-0.000397200914165281185417427645135,-0.000396640495101511733090637878973,-0.000397200914165281185417427645135,-0.000398865456439124598398554555345,-0.000401584805308380983924348983649,-0.000405279469622472291855802550842,-0.000409843643196039573561167967952,-0.000415150235203325492557707709906,-0.000421056737949296452580560945478,-0.00042741155474909425446283783856,-0.000434060397911419147774086946256,-0.000440852384700510528843520052789,-0.000447645504337835695683744940965,-0.000454311195898326905615732806965,-0.000460737858019111886243718290146,-0.000466833198581612085747288842796,-0.000472525418008852202394337593816,-0.000477763296546845645657031198539,-0.000482515318446670763655875768805,-0.000486768010850080435833464598261,-0.000490523700984784520422177234167,-0.00049379790251163598394090747945,-0.000496616532668442737206981885123,-0.000499013139525348063327281344925,-0.000501026287164820145238197657278,-0.000502697210045128400381087008242
-0.000501026287164820145238197657278,-0.000498912722161641585850999636165,-0.000496366274059719617822716841715,-0.000493334785031214625126982920023,-0.000489769475030054821616809501705,-0.000485627908808141728943391646212,-0.000480877303424111029149512486214,-0.000475498035512314314553206084923,-0.000469487161342014821044377193004,-0.000462861722849749036932248680287,-0.000455661584582681361641626205383,-0.000447951534856761562908289420193,-0.000439822393586497030482096448623,-0.000431390901881962911777745883768,-0.000422798225285658834434604491648,-0.000414206981639019065216666959373,-0.000405796801621064601173216601637,-0.000397758538127309323705060872811,-0.000390287351011385714224383169935,-0.000383574996249281933730773674895,-0.00037780173307405771204736666391,-0.000373128319785639072855842890419,-0.000369688591555672842799834532101,-0.000367583097437561702285069298313,-0.000366874218449634627043504098154,-0.000367583097437561702285069298313,-0.000369688591555672842799834532101,-0.000373128319785639072855842890419,-0.00037780173307405771204736666391,-0.000383574996249281933730773674895,-0.000390287351011385714224383169935,-0.000397758538127309323705060872811,-0.000405796801621064601173216601637,-0.000414206981639019065216666959373,-0.000422798225285658834434604491648,-0.000431390901881962911777745883768,-0.000439822393586497030482096448623,-0.000447951534856761562908289420193,-0.000455661584582681361641626205383,-0.000462861722849749036932248680287,-0.000469487161342014821044377193004,-0.000475498035512314314553206084923,-0.000480877303424111029149512486214,-0.000485627908808141728943391646212,-0.000489769475030054821616809501705,-0.000493334785031214625126982920023,-0.000496366274059719617822716841715,-0.000498912722161641585850999636165,-0.000501026287164820145238197657278
-0.000499013139525348063327281344925,-0.000496366274059719617822716841715,-0.000493177299256079035121025366806,-0.000489380896681795851677065911645,-0.000484915977977077347193385348234,-0.000479729400516762686731975229293,-0.000473780109478677676979052613149,-0.000467043530076252687895793647144,-0.000459515975808615626842235091232,-0.00045121878868001927091746505738,-0.000442201891968448026343230239377,-0.000432546421553709815356614232229,-0.000422366113277824811386707004601,-0.000411807164684853410380888094622,-0.000401046360590411596954568684836,-0.000390287351011385714224383169935,-0.000379755091527638453680754127006,-0.000369688591555672842799834532101,-0.000360332254213481691356574243557,-0.000351926219865760436193019566886,-0.000344696231244873260626121469485,-0.00033884360962163363175866925836,-0.000334535959821720537896161395963,-0.000331899201708801599910308999242,-0.000331011456449189459417398184726,-0.000331899201708801599910308999242,-0.000334535959821720537896161395963,-0.00033884360962163363175866925836,-0.000344696231244873260626121469485,-0.000351926219865760436193019566886,-0.000360332254213481691356574243557,-0.000369688591555672842799834532101,-0.000379755091527638453680754127006,-0.000390287351011385714224383169935,-0.000401046360590411596954568684836,-0.000411807164684853410380888094622,-0.000422366113277824811386707004601,-0.000432546421553709815356614232229,-0.000442201891968448026343230239377,-0.00045121878868001927091746505738,-0.000459515975808615626842235091232,-0.000467043530076252687895793647144,-0.000473780109478677676979052613149,-0.000479729400516762686731975229293,-0.000484915977977077347193385348234,-0.000489380896681795851677065911645,-0.000493177299256079035121025366806,-0.000496366274059719617822716841715,-0.000499013139525348063327281344925
-0.000496616532668442737206981885123,-0.000493334785031214625126982920023,-0.000489380896681795851677065911645,-0.000484673881784398238176114759312,-0.000479137999209366754159444834471,-0.000472707359440659581444055259425,-0.000465331060168576264839818135144,-0.000456978632051623198835621497693,-0.000447645504337835695683744940965,-0.000437358138165091776643211840536,-0.000426178431503536066064785625684,-0.000414206981639019065216666959373,-0.000401584805308380983924348983649,-0.000388493167275932426568685329471,-0.000375151256298517619697935332468,-0.000361811570272390367955517298526,-0.000348753023049532700529395956579,-0.000336271953298482816335085443527,-0.000324671387132739123603658581985,-0.000314249065440411667806536177849,-0.000305284878033875437582794765135,-0.000298028435485861008941155247953,-0.000292687544633475280053680478431,-0.000289418328717750935382552190944,-0.000288317647196145590907101485811,-0.000289418328717750935382552190944,-0.000292687544633475280053680478431,-0.000298028435485861008941155247953,-0.000305284878033875437582794765135,-0.000314249065440411667806536177849,-0.000324671387132739123603658581985,-0.000336271953298482816335085443527,-0.000348753023049532700529395956579,-0.000361811570272390367955517298526,-0.000375151256298517619697935332468,-0.000388493167275932426568685329471,-0.000401584805308380983924348983649,-0.000414206981639019065216666959373,-0.000426178431503536066064785625684,-0.000437358138165091776643211840536,-0.000447645504337835695683744940965,-0.000456978632051623198835621497693,-0.000465331060168576264839818135144,-0.000472707359440659581444055259425,-0.000479137999209366754159444834471,-0.000484673881784398238176114759312,-0.000489380896681795851677065911645,-0.000493334785031214625126982920023,-0.000496616532668442737206981885123
-0.00049379790251163598394090747945,-0.000489769475030054821616809501705,-0.000484915977977077347193385348234,-0.000479137999209366754159444834471,-0.000472342564591822619470690147736,-0.000464448793091985594454901287165,-0.000455394200848833628682971186308,-0.000445141385981970586979694637364,-0.000433684737778793939766419640591,-0.000421056737949296452580560945478,-0.000407333367803301010789951419611,-0.000392638113030656453038974573744,-0.000377144075210413248083751724948,-0.000361073761384157331400662771514,-0.000344696231244873260626121469485,-0.000328321432289063123554501144596,-0.000312291738260999989992838798969,-0.00029697091230403247375663200458,-0.000282730926567818481934257768273,-0.000269937265455377013896598459297,-0.000258933500726826520878937065717,-0.000250026035616673491124989370249,-0.00024346995822613747158767727452,-0.00023945691374680928820671554913,-0.000238105799590496825619487242243,-0.00023945691374680928820671554913,-0.00024346995822613747158767727452,-0.000250026035616673491124989370249,-0.000258933500726826520878937065717,-0.000269937265455377013896598459297,-0.000282730926567818481934257768273,-0.00029697091230403247375663200458,-0.000312291738260999989992838798969,-0.000328321432289063123554501144596,-0.000344696231244873260626121469485,-0.000361073761384157331400662771514,-0.000377144075210413248083751724948,-0.000392638113030656453038974573744,-0.000407333367803301010789951419611,-0.000421056737949296452580560945478,-0.000433684737778793939766419640591,-0.000445141385981970586979694637364,-0.000455394200848833628682971186308,-0.000464448793091985594454901287165,-0.000472342564591822619470690147736,-0.000479137999209366754159444834471,-0.000484915977977077347193385348234,-0.000489769475030054821616809501705,-0.00049379790251163598394090747945
-0.000490523700984784520422177234167,-0.000485627908808141728943391646212,-0.000479729400516762686731975229293,-0.000472707359440659581444055259425,-0.000464448793091985594454901287165,-0.000454855405863394156914386590174,-0.000443851260432106913249999946558,-0.000431390901881962911777745883768,-0.000417467511452294557598025059875,-0.000402120564522115908016181018425,-0.000385442402012022412947228611202,-0.000367583097437561702285069298313,-0.000348753023049532700529395956579,-0.000329222594100146194202177740706,-0.000309318801790307536855179071367,-0.000289418328717750935382552190944,-0.000269937265455377013896598459297,-0.000251317697347777212896202669867,-0.000234011686235099350579524912774,-0.000218463409327722824903456055878,-0.000205090413160367168602174481329,-0.000194265072950224282300954459224,-0.000186297400069228893384684631052,-0.000181420303024229496004562922629,-0.000179778279146061123515767943282,-0.000181420303024229496004562922629,-0.000186297400069228893384684631052,-0.000194265072950224282300954459224,-0.000205090413160367168602174481329,-0.000218463409327722824903456055878,-0.000234011686235099350579524912774,-0.000251317697347777212896202669867,-0.000269937265455377013896598459297,-0.000289418328717750935382552190944,-0.000309318801790307536855179071367,-0.000329222594100146194202177740706,-0.000348753023049532700529395956579,-0.000367583097437561702285069298313,-0.000385442402012022412947228611202,-0.000402120564522115908016181018425,-0.000417467511452294557598025059875,-0.000431390901881962911777745883768,-0.000443851260432106913249999946558,-0.000454855405863394156914386590174,-0.000464448793091985594454901287165,-0.000472707359440659581444055259425,-0.000479729400516762686731975229293,-0.000485627908808141728943391646212,-0.000490523700984784520422177234167
-0.000486768010850080435833464598261,-0.000480877303424111029149512486214,-0.000473780109478677676979052613149,-0.000465331060168576264839818135144,-0.000455394200848833628682971186308,-0.000443851260432106913249999946558,-0.000430610869731335127279236996145,-0.00041561833655319913201353632104,-0.000398865456439124598398554555345,-0.000380399726893072495387954079504,-0.000360332254213481691356574243557,-0.00033884360962163363175866925836,-0.000316186916888980956708010694456,-0.000292687544633475280053680478431,-0.000268738934697805673546683324915,-0.000244794318529640815909620421564,-0.000221354343979058339891841100666,-0.000198950936284780782606698701365,-0.00017812802458895188643071827439,-0.000159420051101784874050815155044,-0.000143329415513465549753338579286,-0.000130304166551965800021836705547,-0.000120717315616646753140273062854,-0.000114849102517811132409715491054,-0.00011287338910846910703788398278,-0.000114849102517811132409715491054,-0.000120717315616646753140273062854,-0.000130304166551965800021836705547,-0.000143329415513465549753338579286,-0.000159420051101784874050815155044,-0.00017812802458895188643071827439,-0.000198950936284780782606698701365,-0.000221354343979058339891841100666,-0.000244794318529640815909620421564,-0.000268738934697805673546683324915,-0.000292687544633475280053680478431,-0.000316186916888980956708010694456,-0.00033884360962163363175866925836,-0.000360332254213481691356574243557,-0.000380399726893072495387954079504,-0.000398865456439124598398554555345,-0.00041561833655319913201353632104,-0.000430610869731335127279236996145,-0.000443851260432106913249999946558,-0.000455394200848833628682971186308,-0.000465331060168576264839818135144,-0.000473780109478677676979052613149,-0.000480877303424111029149512486214,-0.000486768010850080435833464598261
-0.000482515318446670763655875768805,-0.000475498035512314314553206084923,-0.000467043530076252687895793647144,-0.000456978632051623198835621497693,-0.000445141385981970586979694637364,-0.000431390901881962911777745883768,-0.00041561833655319913201353632104,-0.000397758538127309323705060872811,-0.00037780173307405771204736666391,-0.000355804502615336053304023744559,-0.000331899201708801599910308999242,-0.000306300935138635111506383301716,-0.000279311235639913854698207495986,-0.000251317697347777212896202669867,-0.000222789006368785691154094097399,-0.000194265072950224282300954459224,-0.000166342291949352836773548536264,-0.000139654317294320552775982458016,-0.000114849102517811132409715491054,-9.25632998807391250018633543917e-05,-7.33953911132655513818723314046e-05,-5.78791125674450089794512153141e-05,-4.64588126615196223847224776815e-05,-3.94683260092565461321298392328e-05,-3.71147648852674662788009296577e-05,-3.94683260092565461321298392328e-05,-4.64588126615196223847224776815e-05,-5.78791125674450089794512153141e-05,-7.33953911132655513818723314046e-05,-9.25632998807391250018633543917e-05,-0.000114849102517811132409715491054,-0.000139654317294320552775982458016,-0.000166342291949352836773548536264,-0.000194265072950224282300954459224,-0.000222789006368785691154094097399,-0.000251317697347777212896202669867,-0.000279311235639913854698207495986,-0.000306300935138635111506383301716,-0.000331899201708801599910308999242,-0.000355804502615336053304023744559,-0.00037780173307405771204736666391,-0.000397758538127309323705060872811,-0.00041561833655319913201353632104,-0.000431390901881962911777745883768,-0.000445141385981970586979694637364,-0.000456978632051623198835621497693,-0.000467043530076252687895793647144,-0.000475498035512314314553206084923,-0.000482515318446670763655875768805
-0.000477763296546845645657031198539,-0.000469487161342014821044377193004,-0.000459515975808615626842235091232,-0.000447645504337835695683744940965,-0.000433684737778793939766419640591,-0.000417467511452294557598025059875,-0.000398865456439124598398554555345,-0.00037780173307405771204736666391,-0.00035426481452278799815294729747,-0.000328321432289063123554501144596,-0.000300127684899171253123800751084,-0.000269937265455377013896598459297,-0.000238105799590496825619487242243,-0.000205090413160367168602174481329,-0.000171443871333900829147245392647,-0.000137802940541467618422097340947,-0.000104871004773754788953928074324,-7.33953911132655513818723314046e-05,-4.41402914976923315304620232258e-05,-1.78565692225694600469513423358e-05,4.74993047787663289079854861408e-06,2.30497226228265998106917861188e-05,3.65187457454953636002553674089e-05,4.47632775996182783947996419727e-05,4.75390513937175965861019200087e-05,4.47632775996182783947996419727e-05,3.65187457454953636002553674089e-05,2.30497226228265998106917861188e-05,4.74993047787663289079854861408e-06,-1.78565692225694600469513423358e-05,-4.41402914976923315304620232258e-05,-7.33953911132655513818723314046e-05,-0.000104871004773754788953928074324,-0.000137802940541467618422097340947,-0.000171443871333900829147245392647,-0.000205090413160367168602174481329,-0.000238105799590496825619487242243,-0.000269937265455377013896598459297,-0.000300127684899171253123800751084,-0.000328321432289063123554501144596,-0.00035426481452278799815294729747,-0.00037780173307405771204736666391,-0.000398865456439124598398554555345,-0.000417467511452294557598025059875,-0.000433684737778793939766419640591,-0.000447645504337835695683744940965,-0.000459515975808615626842235091232,-0.000469487161342014821044377193004,-0.000477763296546845645657031198539
-0.000472525418008852202394337593816,-0.000462861722849749036932248680287,-0.00045121878868001927091746505738,-0.000437358138165091776643211840536,-0.000421056737949296452580560945478,-0.000402120564522115908016181018425,-0.000380399726893072495387954079504,-0.000355804502615336053304023744559,-0.000328321432289063123554501144596,-0.000298028435485861008941155247953,-0.000265107781892666926303048224867,-0.000229855698280017576185657590671,-0.000192687433749244211135878690477,-0.000154136754945141153660959076888,-0.000114849102517811132409715491054,-7.55680018590400542476820389126e-05,-3.71147648852674662788009296577e-05,-3.62014013928137988909374466936e-07,3.37979359551196363001430988948e-05,6.448833351714290890513425758e-05,9.08849928650892768550867417687e-05,0.000112252890849709222281620213391,0.000127980102927202491532726602586,0.00013760689618225389169690886515,0.000140848050551160944602810398685,0.00013760689618225389169690886515,0.000127980102927202491532726602586,0.000112252890849709222281620213391,9.08849928650892768550867417687e-05,6.448833351714290890513425758e-05,3.37979359551196363001430988948e-05,-3.62014013928137988909374466936e-07,-3.71147648852674662788009296577e-05,-7.55680018590400542476820389126e-05,-0.000114849102517811132409715491054,-0.000154136754945141153660959076888,-0.000192687433749244211135878690477,-0.000229855698280017576185657590671,-0.000265107781892666926303048224867,-0.000298028435485861008941155247953,-0.000328321432289063123554501144596,-0.000355804502615336053304023744559,-0.000380399726893072495387954079504,-0.000402120564522115908016181018425,-0.000421056737949296452580560945478,-0.000437358138165091776643211840536,-0.00045121878868001927091746505738,-0.000462861722849749036932248680287,-0.000472525418008852202394337593816
-0.000466833198581612085747288842796,-0.000455661584582681361641626205383,-0.000442201891968448026343230239377,-0.000426178431503536066064785625684,-0.000407333367803301010789951419611,-0.000385442402012022412947228611202,-0.000360332254213481691356574243557,-0.000331899201708801599910308999242,-0.000300127684899171253123800751084,-0.000265107781892666926303048224867,-0.000227050203659848388090120030469,-0.000186297400069228893384684631052,-0.000143329415513465549753338579286,-9.876330535522972488542831071e-05,-5.33452245262997046693770331061e-05,-7.93471780107901982230424881015e-06,3.65187457454953636002553674089e-05,7.9006380068966122168401533532e-05,0.000118496633951561220962633846909,0.000153975947960517472144770234621,0.000184491530689628722332676358242,0.000209193666293299682405401607177,0.000227374945784878984469251639311,0.000238503899722507668170953798459,0.000242250802426311384520779546037,0.000238503899722507668170953798459,0.000227374945784878984469251639311,0.000209193666293299682405401607177,0.000184491530689628722332676358242,0.000153975947960517472144770234621,0.000118496633951561220962633846909,7.9006380068966122168401533532e-05,3.65187457454953636002553674089e-05,-7.93471780107901982230424881015e-06,-5.33452245262997046693770331061e-05,-9.876330535522972488542831071e-05,-0.000143329415513465549753338579286,-0.000186297400069228893384684631052,-0.000227050203659848388090120030469,-0.000265107781892666926303048224867,-0.000300127684899171253123800751084,-0.000331899201708801599910308999242,-0.000360332254213481691356574243557,-0.000385442402012022412947228611202,-0.000407333367803301010789951419611,-0.000426178431503536066064785625684,-0.000442201891968448026343230239377,-0.000455661584582681361641626205383,-0.000466833198581612085747288842796
-0.000460737858019111886243718290146,-0.000447951534856761562908289420193,-0.000432546421553709815356614232229,-0.000414206981639019065216666959373,-0.000392638113030656453038974573744,-0.000367583097437561702285069298313,-0.00033884360962163363175866925836,-0.000306300935138635111506383301716,-0.000269937265455377013896598459297,-0.000229855698280017576185657590671,-0.000186297400069228893384684631052,-0.000139654317294320552775982458016,-9.04758784208102426931466522042e-05,-3.94683260092565461321298392328e-05,1.25143381740950713668742919071e-05,6.448833351714290890513425758e-05,0.000115366957738017575016420401823,0.00016399561810129739008491667196,0.000209193666293299682405401607177,0.000249801046260101017662536015962,0.00028472725318948454180031926164,0.000312999756039920125003095385807,0.000333808899204604927254264046255,0.000346546396357572290825022065519,0.000350834864329460985581804477462,0.000346546396357572290825022065519,0.000333808899204604927254264046255,0.000312999756039920125003095385807,0.00028472725318948454180031926164,0.000249801046260101017662536015962,0.000209193666293299682405401607177,0.00016399561810129739008491667196,0.000115366957738017575016420401823,6.448833351714290890513425758e-05,1.25143381740950713668742919071e-05,-3.94683260092565461321298392328e-05,-9.04758784208102426931466522042e-05,-0.000139654317294320552775982458016,-0.000186297400069228893384684631052,-0.000229855698280017576185657590671,-0.000269937265455377013896598459297,-0.000306300935138635111506383301716,-0.00033884360962163363175866925836,-0.000367583097437561702285069298313,-0.000392638113030656453038974573744,-0.000414206981639019065216666959373,-0.000432546421553709815356614232229,-0.000447951534856761562908289420193,-0.000460737858019111886243718290146
-0.000454311195898326905615732806965,-0.000439822393586497030482096448623,-0.000422366113277824811386707004601,-0.000401584805308380983924348983649,-0.000377144075210413248083751724948,-0.000348753023049532700529395956579,-0.000316186916888980956708010694456,-0.000279311235639913854698207495986,-0.000238105799590496825619487242243,-0.000192687433749244211135878690477,-0.000143329415513465549753338579286,-9.04758784208102426931466522042e-05,-3.4749406487050510318644047647e-05,2.30497226228265998106917861188e-05,8.19537981284838010827970000705e-05,0.000140848050551160944602810398685,0.000198501084881213375006245303034,0.000253604576146576133136023578629,0.000304820674536983261468381378734,0.000350834864329460985581804477462,0.000390411441682983820222752058271,0.000422448384552282505451786809303,0.000446028232938991018793895015904,0.00046046170813381906081196426328,0.000465321178982191520617089919298,0.00046046170813381906081196426328,0.000446028232938991018793895015904,0.000422448384552282505451786809303,0.000390411441682983820222752058271,0.000350834864329460985581804477462,0.000304820674536983261468381378734,0.000253604576146576133136023578629,0.000198501084881213375006245303034,0.000140848050551160944602810398685,8.19537981284838010827970000705e-05,2.30497226228265998106917861188e-05,-3.4749406487050510318644047647e-05,-9.04758784208102426931466522042e-05,-0.000143329415513465549753338579286,-0.000192687433749244211135878690477,-0.000238105799590496825619487242243,-0.000279311235639913854698207495986,-0.000316186916888980956708010694456,-0.000348753023049532700529395956579,-0.000377144075210413248083751724948,-0.000401584805308380983924348983649,-0.000422366113277824811386707004601,-0.000439822393586497030482096448623,-0.000454311195898326905615732806965
-0.000447645504337835695683744940965,-0.000431390901881962911777745883768,-0.000411807164684853410380888094622,-0.000388493167275932426568685329471,-0.000361073761384157331400662771514,-0.000329222594100146194202177740706,-0.000292687544633475280053680478431,-0.000251317697347777212896202669867,-0.000205090413160367168602174481329,-0.000154136754945141153660959076888,-9.876330535522972488542831071e-05,-3.94683260092565461321298392328e-05,2.30497226228265998106917861188e-05,8.78930302859887575524580616282e-05,0.000153975947960517472144770234621,0.000220047845379175614028907648212,0.00028472725318948454180031926164,0.000346546396357572290825022065519,0.000404004376717840912262152963663,0.000455626473997415581702191689217,0.000500026384880344052820400069237,0.000535967780106419823885066655578,0.000562421385673441765265523351047,0.000578613918106372785224444932339,0.000584065629371816855304466731269,0.000578613918106372785224444932339,0.000562421385673441765265523351047,0.000535967780106419823885066655578,0.000500026384880344052820400069237,0.000455626473997415581702191689217,0.000404004376717840912262152963663,0.000346546396357572290825022065519,0.00028472725318948454180031926164,0.000220047845379175614028907648212,0.000153975947960517472144770234621,8.78930302859887575524580616282e-05,2.30497226228265998106917861188e-05,-3.94683260092565461321298392328e-05,-9.876330535522972488542831071e-05,-0.000154136754945141153660959076888,-0.000205090413160367168602174481329,-0.000251317697347777212896202669867,-0.000292687544633475280053680478431,-0.000329222594100146194202177740706,-0.000361073761384157331400662771514,-0.000388493167275932426568685329471,-0.000411807164684853410380888094622,-0.000431390901881962911777745883768,-0.000447645504337835695683744940965
-0.000440852384700510528843520052789,-0.000422798225285658834434604491648,-0.000401046360590411596954568684836,-0.000375151256298517619697935332468,-0.000344696231244873260626121469485,-0.000309318801790307536855179071367,-0.000268738934697805673546683324915,-0.000222789006368785691154094097399,-0.000171443871333900829147245392647,-0.000114849102517811132409715491054,-5.33452245262997046693770331061e-05,1.25143381740950713668742919071e-05,8.19537981284838010827970000705e-05,0.000153975947960517472144770234621,0.000227374945784878984469251639311,0.000300761703294116279107373035373,0.000372601807820550272407761349669,0.000441264986060443606397107885186,0.000505084174496203664427029789152,0.000562421385673441765265523351047,0.000611736837789958053275551908001,0.000651657326818548283259291409308,0.000681039627204004047872354377091,0.000699024844785789628912042736886,0.000705080118332914286896628830448,0.000699024844785789628912042736886,0.000681039627204004047872354377091,0.000651657326818548283259291409308,0.000611736837789958053275551908001,0.000562421385673441765265523351047,0.000505084174496203664427029789152,0.000441264986060443606397107885186,0.000372601807820550272407761349669,0.000300761703294116279107373035373,0.000227374945784878984469251639311,0.000153975947960517472144770234621,8.19537981284838010827970000705e-05,1.25143381740950713668742919071e-05,-5.33452245262997046693770331061e-05,-0.000114849102517811132409715491054,-0.000171443871333900829147245392647,-0.000222789006368785691154094097399,-0.000268738934697805673546683324915,-0.000309318801790307536855179071367,-0.000344696231244873260626121469485,-0.000375151256298517619697935332468,-0.000401046360590411596954568684836,-0.000422798225285658834434604491648,-0.000440852384700510528843520052789
-0.000434060397911419147774086946256,-0.000414206981639019065216666959373,-0.000390287351011385714224383169935,-0.000361811570272390367955517298526,-0.000328321432289063123554501144596,-0.000289418328717750935382552190944,-0.000244794318529640815909620421564,-0.000194265072950224282300954459224,-0.000137802940541467618422097340947,-7.55680018590400542476820389126e-05,-7.93471780107901982230424881015e-06,6.448833351714290890513425758e-05,0.000140848050551160944602810398685,0.000220047845379175614028907648212,0.000300761703294116279107373035373,0.000381462101038141287914079446963,0.00046046170813381906081196426328,0.000535967780106419823885066655578,0.000606147115796764886057335086633,0.00066919848779604983526891892609,0.000723428661410524575028913041308,0.000767327580671777961796031775066,0.00079963808747461997180477899505,0.00081941569124980011707554128364,0.000826074426426106223769751935038,0.00081941569124980011707554128364,0.00079963808747461997180477899505,0.000767327580671777961796031775066,0.000723428661410524575028913041308,0.00066919848779604983526891892609,0.000606147115796764886057335086633,0.000535967780106419823885066655578,0.00046046170813381906081196426328,0.000381462101038141287914079446963,0.000300761703294116279107373035373,0.000220047845379175614028907648212,0.000140848050551160944602810398685,6.448833351714290890513425758e-05,-7.93471780107901982230424881015e-06,-7.55680018590400542476820389126e-05,-0.000137802940541467618422097340947,-0.000194265072950224282300954459224,-0.000244794318529640815909620421564,-0.000289418328717750935382552190944,-0.000328321432289063123554501144596,-0.000361811570272390367955517298526,-0.000390287351011385714224383169935,-0.000414206981639019065216666959373,-0.000434060397911419147774086946256
-0.00042741155474909425446283783856,-0.000405796801621064601173216601637,-0.000379755091527638453680754127006,-0.000348753023049532700529395956579,-0.000312291738260999989992838798969,-0.000269937265455377013896598459297,-0.000221354343979058339891841100666,-0.000166342291949352836773548536264,-0.000104871004773754788953928074324,-3.71147648852674662788009296577e-05,3.65187457454953636002553674089e-05,0.000115366957738017575016420401823,0.000198501084881213375006245303034,0.00028472725318948454180031926164,0.000372601807820550272407761349669,0.00046046170813381906081196426328,0.000546469928641351372806955755124,0.000628674677837279651318458384424,0.000705080118332914286896628830448,0.000773725223107285422878554026482,0.000832766538651381069482959595973,0.000880560041260723203385141211186,0.000915737041450651631339929803488,0.000937269256219088711841458394503,0.000944518734848158220303304677401,0.000937269256219088711841458394503,0.000915737041450651631339929803488,0.000880560041260723203385141211186,0.000832766538651381069482959595973,0.000773725223107285422878554026482,0.000705080118332914286896628830448,0.000628674677837279651318458384424,0.000546469928641351372806955755124,0.00046046170813381906081196426328,0.000372601807820550272407761349669,0.00028472725318948454180031926164,0.000198501084881213375006245303034,0.000115366957738017575016420401823,3.65187457454953636002553674089e-05,-3.71147648852674662788009296577e-05,-0.000104871004773754788953928074324,-0.000166342291949352836773548536264,-0.000221354343979058339891841100666,-0.000269937265455377013896598459297,-0.000312291738260999989992838798969,-0.000348753023049532700529395956579,-0.000379755091527638453680754127006,-0.000405796801621064601173216601637,-0.00042741155474909425446283783856
-0.000421056737949296452580560945478,-0.000397758538127309323705060872811,-0.000369688591555672842799834532101,-0.000336271953298482816335085443527,-0.00029697091230403247375663200458,-0.000251317697347777212896202669867,-0.000198950936284780782606698701365,-0.000139654317294320552775982458016,-7.33953911132655513818723314046e-05,-3.62014013928137988909374466936e-07,7.9006380068966122168401533532e-05,0.00016399561810129739008491667196,0.000253604576146576133136023578629,0.000346546396357572290825022065519,0.000441264986060443606397107885186,0.000535967780106419823885066655578,0.000628674677837279651318458384424,0.000717281874123016542979525134172,0.00079963808747461997180477899505,0.000873629557946729623681136889246,0.000937269256219088711841458394503,0.000988785115196961616329529576319,0.00102670184617735115069347973105,0.00104991107920969365188690325397,0.00105772517732614468148610864517,0.00104991107920969365188690325397,0.00102670184617735115069347973105,0.000988785115196961616329529576319,0.000937269256219088711841458394503,0.000873629557946729623681136889246,0.00079963808747461997180477899505,0.000717281874123016542979525134172,0.000628674677837279651318458384424,0.000535967780106419823885066655578,0.000441264986060443606397107885186,0.000346546396357572290825022065519,0.000253604576146576133136023578629,0.00016399561810129739008491667196,7.9006380068966122168401533532e-05,-3.62014013928137988909374466936e-07,-7.33953911132655513818723314046e-05,-0.000139654317294320552775982458016,-0.000198950936284780782606698701365,-0.000251317697347777212896202669867,-0.00029697091230403247375663200458,-0.000336271953298482816335085443527,-0.000369688591555672842799834532101,-0.000397758538127309323705060872811,-0.000421056737949296452580560945478
-0.000415150235203325492557707709906,-0.000390287351011385714224383169935,-0.000360332254213481691356574243557,-0.000324671387132739123603658581985,-0.000282730926567818481934257768273,-0.000234011686235099350579524912774,-0.00017812802458895188643071827439,-0.000114849102517811132409715491054,-4.41402914976923315304620232258e-05,3.37979359551196363001430988948e-05,0.000118496633951561220962633846909,0.000209193666293299682405401607177,0.000304820674536983261468381378734,0.000404004376717840912262152963663,0.000505084174496203664427029789152,0.000606147115796764886057335086633,0.000705080118332914286896628830448,0.00079963808747461997180477899505,0.000887525263766893537410729297932,0.000966485929208661621522824525243,0.00103439960752909699062684900639,0.00108937522133623759801324126784,0.00112983840297710804237429904617,0.00115460634545660784273934940103,0.00116294523077900232611858744036,0.00115460634545660784273934940103,0.00112983840297710804237429904617,0.00108937522133623759801324126784,0.00103439960752909699062684900639,0.000966485929208661621522824525243,0.000887525263766893537410729297932,0.00079963808747461997180477899505,0.000705080118332914286896628830448,0.000606147115796764886057335086633,0.000505084174496203664427029789152,0.000404004376717840912262152963663,0.000304820674536983261468381378734,0.000209193666293299682405401607177,0.000118496633951561220962633846909,3.37979359551196363001430988948e-05,-4.41402914976923315304620232258e-05,-0.000114849102517811132409715491054,-0.00017812802458895188643071827439,-0.000234011686235099350579524912774,-0.000282730926567818481934257768273,-0.000324671387132739123603658581985,-0.000360332254213481691356574243557,-0.000390287351011385714224383169935,-0.000415150235203325492557707709906
-0.000409843643196039573561167967952,-0.000383574996249281933730773674895,-0.000351926219865760436193019566886,-0.000314249065440411667806536177849,-0.000269937265455377013896598459297,-0.000218463409327722824903456055878,-0.000159420051101784874050815155044,-9.25632998807391250018633543917e-05,-1.78565692225694600469513423358e-05,6.448833351714290890513425758e-05,0.000153975947960517472144770234621,0.000249801046260101017662536015962,0.000350834864329460985581804477462,0.000455626473997415581702191689217,0.000562421385673441765265523351047,0.00066919848779604983526891892609,0.000773725223107285422878554026482,0.000873629557946729623681136889246,0.000966485929208661621522824525243,0.00104991107920969365188690325397,0.00112166463864723999106776108903,0.00117974860745119892839471997803,0.00122249960225377066365404221671,0.00124866793942530855676675827226,0.00125747831044953936423247409238,0.00124866793942530855676675827226,0.00122249960225377066365404221671,0.00117974860745119892839471997803,0.00112166463864723999106776108903,0.00104991107920969365188690325397,0.000966485929208661621522824525243,0.000873629557946729623681136889246,0.000773725223107285422878554026482,0.00066919848779604983526891892609,0.000562421385673441765265523351047,0.000455626473997415581702191689217,0.000350834864329460985581804477462,0.000249801046260101017662536015962,0.000153975947960517472144770234621,6.448833351714290890513425758e-05,-1.78565692225694600469513423358e-05,-9.25632998807391250018633543917e-05,-0.000159420051101784874050815155044,-0.000218463409327722824903456055878,-0.000269937265455377013896598459297,-0.000314249065440411667806536177849,-0.000351926219865760436193019566886,-0.000383574996249281933730773674895,-0.000409843643196039573561167967952
-0.000405279469622472291855802550842,-0.00037780173307405771204736666391,-0.000344696231244873260626121469485,-0.000305284878033875437582794765135,-0.000258933500726826520878937065717,-0.000205090413160367168602174481329,-0.000143329415513465549753338579286,-7.33953911132655513818723314046e-05,4.74993047787663289079854861408e-06,9.08849928650892768550867417687e-05,0.000184491530689628722332676358242,0.00028472725318948454180031926164,0.000390411441682983820222752058271,0.000500026384880344052820400069237,0.000611736837789958053275551908001,0.000723428661410524575028913041308,0.000832766538651381069482959595973,0.000937269256219088711841458394503,0.00103439960752909699062684900639,0.00112166463864723999106776108903,0.00119672086086652982965528035919,0.00125747831044953936423247409238,0.00130219704205184177298049164051,0.00132956985178075558391708188566,0.00133878574532823348131049812082,0.00132956985178075558391708188566,0.00130219704205184177298049164051,0.00125747831044953936423247409238,0.00119672086086652982965528035919,0.00112166463864723999106776108903,0.00103439960752909699062684900639,0.000937269256219088711841458394503,0.000832766538651381069482959595973,0.000723428661410524575028913041308,0.000611736837789958053275551908001,0.000500026384880344052820400069237,0.000390411441682983820222752058271,0.00028472725318948454180031926164,0.000184491530689628722332676358242,9.08849928650892768550867417687e-05,4.74993047787663289079854861408e-06,-7.33953911132655513818723314046e-05,-0.000143329415513465549753338579286,-0.000205090413160367168602174481329,-0.000258933500726826520878937065717,-0.000305284878033875437582794765135,-0.000344696231244873260626121469485,-0.00037780173307405771204736666391,-0.000405279469622472291855802550842
-0.000401584805308380983924348983649,-0.000373128319785639072855842890419,-0.00033884360962163363175866925836,-0.000298028435485861008941155247953,-0.000250026035616673491124989370249,-0.000194265072950224282300954459224,-0.000130304166551965800021836705547,-5.78791125674450089794512153141e-05,2.30497226228265998106917861188e-05,0.000112252890849709222281620213391,0.000209193666293299682405401607177,0.000312999756039920125003095385807,0.000422448384552282505451786809303,0.000535967780106419823885066655578,0.000651657326818548283259291409308,0.000767327580671777961796031775066,0.000880560041260723203385141211186,0.000988785115196961616329529576319,0.00108937522133623759801324126784,0.00117974860745119892839471997803,0.00125747831044953936423247409238,0.00132039992269410372607851833493,0.001366711522493968935035302259,0.0013950593437344540204830822816,0.00140460350472642139275925021735,0.0013950593437344540204830822816,0.001366711522493968935035302259,0.00132039992269410372607851833493,0.00125747831044953936423247409238,0.00117974860745119892839471997803,0.00108937522133623759801324126784,0.000988785115196961616329529576319,0.000880560041260723203385141211186,0.000767327580671777961796031775066,0.000651657326818548283259291409308,0.000535967780106419823885066655578,0.000422448384552282505451786809303,0.000312999756039920125003095385807,0.000209193666293299682405401607177,0.000112252890849709222281620213391,2.30497226228265998106917861188e-05,-5.78791125674450089794512153141e-05,-0.000130304166551965800021836705547,-0.000194265072950224282300954459224,-0.000250026035616673491124989370249,-0.000298028435485861008941155247953,-0.00033884360962163363175866925836,-0.000373128319785639072855842890419,-0.000401584805308380983924348983649
-0.000398865456439124598398554555345,-0.000369688591555672842799834532101,-0.000334535959821720537896161395963,-0.000292687544633475280053680478431,-0.00024346995822613747158767727452,-0.000186297400069228893384684631052,-0.000120717315616646753140273062854,-4.64588126615196223847224776815e-05,3.65187457454953636002553674089e-05,0.000127980102927202491532726602586,0.000227374945784878984469251639311,0.000333808899204604927254264046255,0.000446028232938991018793895015904,0.000562421385673441765265523351047,0.000681039627204004047872354377091,0.00079963808747461997180477899505,0.000915737041450651631339929803488,0.00102670184617735115069347973105,0.00112983840297710804237429904617,0.00122249960225377066365404221671,0.00130219704205184177298049164051,0.001366711522493968935035302259,0.00141419550602444677248059612396,0.00144326095577623964884284024635,0.00145304672835402329950094113542,0.00144326095577623964884284024635,0.00141419550602444677248059612396,0.001366711522493968935035302259,0.00130219704205184177298049164051,0.00122249960225377066365404221671,0.00112983840297710804237429904617,0.00102670184617735115069347973105,0.000915737041450651631339929803488,0.00079963808747461997180477899505,0.000681039627204004047872354377091,0.000562421385673441765265523351047,0.000446028232938991018793895015904,0.000333808899204604927254264046255,0.000227374945784878984469251639311,0.000127980102927202491532726602586,3.65187457454953636002553674089e-05,-4.64588126615196223847224776815e-05,-0.000120717315616646753140273062854,-0.000186297400069228893384684631052,-0.00024346995822613747158767727452,-0.000292687544633475280053680478431,-0.000334535959821720537896161395963,-0.000369688591555672842799834532101,-0.000398865456439124598398554555345
-0.000397200914165281185417427645135,-0.000367583097437561702285069298313,-0.000331899201708801599910308999242,-0.000289418328717750935382552190944,-0.00023945691374680928820671554913,-0.000181420303024229496004562922629,-0.000114849102517811132409715491054,-3.94683260092565461321298392328e-05,4.47632775996182783947996419727e-05,0.00013760689618225389169690886515,0.000238503899722507668170953798459,0.000346546396357572290825022065519,0.00046046170813381906081196426328,0.000578613918106372785224444932339,0.000699024844785789628912042736886,0.00081941569124980011707554128364,0.000937269256219088711841458394503,0.00104991107920969365188690325397,0.00115460634545660784273934940103,0.00124866793942530855676675827226,0.00132956985178075558391708188566,0.0013950593437344540204830822816,0.00144326095577623964884284024635,0.00147276567354821656154195697042,0.00148269933913928292877615344736,0.00147276567354821656154195697042,0.00144326095577623964884284024635,0.0013950593437344540204830822816,0.00132956985178075558391708188566,0.00124866793942530855676675827226,0.00115460634545660784273934940103,0.00104991107920969365188690325397,0.000937269256219088711841458394503,0.00081941569124980011707554128364,0.000699024844785789628912042736886,0.000578613918106372785224444932339,0.00046046170813381906081196426328,0.000346546396357572290825022065519,0.000238503899722507668170953798459,0.00013760689618225389169690886515,4.47632775996182783947996419727e-05,-3.94683260092565461321298392328e-05,-0.000114849102517811132409715491054,-0.000181420303024229496004562922629,-0.00023945691374680928820671554913,-0.000289418328717750935382552190944,-0.000331899201708801599910308999242,-0.000367583097437561702285069298313,-0.000397200914165281185417427645135
-0.000396640495101511733090637878973,-0.000366874218449634627043504098154,-0.000331011456449189459417398184726,-0.000288317647196145590907101485811,-0.000238105799590496825619487242243,-0.000179778279146061123515767943282,-0.00011287338910846910703788398278,-3.71147648852674662788009296577e-05,4.75390513937175965861019200087e-05,0.000140848050551160944602810398685,0.000242250802426311384520779546037,0.000350834864329460985581804477462,0.000465321178982191520617089919298,0.000584065629371816855304466731269,0.000705080118332914286896628830448,0.000826074426426106223769751935038,0.000944518734848158220303304677401,0.00105772517732614468148610864517,0.00116294523077900232611858744036,0.00125747831044953936423247409238,0.00133878574532823348131049812082,0.00140460350472642139275925021735,0.00145304672835402329950094113542,0.00148269933913928292877615344736,0.00149268279743633458002405323128,0.00148269933913928292877615344736,0.00145304672835402329950094113542,0.00140460350472642139275925021735,0.00133878574532823348131049812082,0.00125747831044953936423247409238,0.00116294523077900232611858744036,0.00105772517732614468148610864517,0.000944518734848158220303304677401,0.000826074426426106223769751935038,0.000705080118332914286896628830448,0.000584065629371816855304466731269,0.000465321178982191520617089919298,0.000350834864329460985581804477462,0.000242250802426311384520779546037,0.000140848050551160944602810398685,4.75390513937175965861019200087e-05,-3.71147648852674662788009296577e-05,-0.00011287338910846910703788398278,-0.000179778279146061123515767943282,-0.000238105799590496825619487242243,-0.000288317647196145590907101485811,-0.000331011456449189459417398184726,-0.000366874218449634627043504098154,-0.000396640495101511733090637878973
-0.000397200914165281185417427645135,-0.000367583097437561702285069298313,-0.000331899201708801599910308999242,-0.000289418328717750935382552190944,-0.00023945691374680928820671554913,-0.000181420303024229496004562922629,-0.000114849102517811132409715491054,-3.94683260092565461321298392328e-05,4.47632775996182783947996419727e-05,0.00013760689618225389169690886515,0.000238503899722507668170953798459,0.000346546396357572290825022065519,0.00046046170813381906081196426328,0.000578613918106372785224444932339,0.000699024844785789628912042736886,0.00081941569124980011707554128364,0.000937269256219088711841458394503,0.00104991107920969365188690325397,0.00115460634545660784273934940103,0.00124866793942530855676675827226,0.00132956985178075558391708188566,0.0013950593437344540204830822816,0.00144326095577623964884284024635,0.00147276567354821656154195697042,0.00148269933913928292877615344736,0.00147276567354821656154195697042,0.00144326095577623964884284024635,0.0013950593437344540204830822816,0.00132956985178075558391708188566,0.00124866793942530855676675827226,0.00115460634545660784273934940103,0.00104991107920969365188690325397,0.000937269256219088711841458394503,0.00081941569124980011707554128364,0.000699024844785789628912042736886,0.000578613918106372785224444932339,0.00046046170813381906081196426328,0.000346546396357572290825022065519,0.000238503899722507668170953798459,0.00013760689618225389169690886515,4.47632775996182783947996419727e-05,-3.94683260092565461321298392328e-05,-0.000114849102517811132409715491054,-0.000181420303024229496004562922629,-0.00023945691374680928820671554913,-0.000289418328717750935382552190944,-0.000331899201708801599910308999242,-0.000367583097437561702285069298313,-0.000397200914165281185417427645135
-0.000398865456439124598398554555345,-0.000369688591555672842799834532101,-0.000334535959821720537896161395963,-0.000292687544633475280053680478431,-0.00024346995822613747158767727452,-0.000186297400069228893384684631052,-0.000120717315616646753140273062854,-4.64588126615196223847224776815e-05,3.65187457454953636002553674089e-05,0.000127980102927202491532726602586,0.000227374945784878984469251639311,0.000333808899204604927254264046255,0.000446028232938991018793895015904,0.000562421385673441765265523351047,0.000681039627204004047872354377091,0.00079963808747461997180477899505,0.000915737041450651631339929803488,0.00102670184617735115069347973105,0.00112983840297710804237429904617,0.00122249960225377066365404221671,0.00130219704205184177298049164051,0.001366711522493968935035302259,0.00141419550602444677248059612396,0.00144326095577623964884284024635,0.00145304672835402329950094113542,0.00144326095577623964884284024635,0.00141419550602444677248059612396,0.001366711522493968935035302259,0.00130219704205184177298049164051,0.00122249960225377066365404221671,0.00112983840297710804237429904617,0.00102670184617735115069347973105,0.000915737041450651631339929803488,0.00079963808747461997180477899505,0.000681039627204004047872354377091,0.000562421385673441765265523351047,0.000446028232938991018793895015904,0.000333808899204604927254264046255,0.000227374945784878984469251639311,0.000127980102927202491532726602586,3.65187457454953636002553674089e-05,-4.64588126615196223847224776815e-05,-0.000120717315616646753140273062854,-0.000186297400069228893384684631052,-0.00024346995822613747158767727452,-0.000292687544633475280053680478431,-0.000334535959821720537896161395963,-0.000369688591555672842799834532101,-0.000398865456439124598398554555345
-0.000401584805308380983924348983649,-0.000373128319785639072855842890419,-0.00033884360962163363175866925836,-0.000298028435485861008941155247953,-0.000250026035616673491124989370249,-0.000194265072950224282300954459224,-0.000130304166551965800021836705547,-5.78791125674450089794512153141e-05,2.30497226228265998106917861188e-05,0.000112252890849709222281620213391,0.000209193666293299682405401607177,0.000312999756039920125003095385807,0.000422448384552282505451786809303,0.000535967780106419823885066655578,0.000651657326818548283259291409308,0.000767327580671777961796031775066,0.000880560041260723203385141211186,0.000988785115196961616329529576319,0.00108937522133623759801324126784,0.00117974860745119892839471997803,0.00125747831044953936423247409238,0.00132039992269410372607851833493,0.001366711522493968935035302259,0.0013950593437344540204830822816,0.00140460350472642139275925021735,0.0013950593437344540204830822816,0.001366711522493968935035302259,0.00132039992269410372607851833493,0.00125747831044953936423247409238,0.00117974860745119892839471997803,0.00108937522133623759801324126784,0.000988785115196961616329529576319,0.000880560041260723203385141211186,0.000767327580671777961796031775066,0.000651657326818548283259291409308,0.000535967780106419823885066655578,0.000422448384552282505451786809303,0.000312999756039920125003095385807,0.000209193666293299682405401607177,0.000112252890849709222281620213391,2.30497226228265998106917861188e-05,-5.78791125674450089794512153141e-05,-0.000130304166551965800021836705547,-0.000194265072950224282300954459224,-0.000250026035616673491124989370249,-0.000298028435485861008941155247953,-0.00033884360962163363175866925836,-0.000373128319785639072855842890419,-0.000401584805308380983924348983649
-0.000405279469622472291855802550842,-0.00037780173307405771204736666391,-0.000344696231244873260626121469485,-0.000305284878033875437582794765135,-0.000258933500726826520878937065717,-0.000205090413160367168602174481329,-0.000143329415513465549753338579286,-7.33953911132655513818723314046e-05,4.74993047787663289079854861408e-06,9.08849928650892768550867417687e-05,0.000184491530689628722332676358242,0.00028472725318948454180031926164,0.000390411441682983820222752058271,0.000500026384880344052820400069237,0.000611736837789958053275551908001,0.000723428661410524575028913041308,0.000832766538651381069482959595973,0.000937269256219088711841458394503,0.00103439960752909699062684900639,0.00112166463864723999106776108903,0.00119672086086652982965528035919,0.00125747831044953936423247409238,0.00130219704205184177298049164051,0.00132956985178075558391708188566,0.00133878574532823348131049812082,0.00132956985178075558391708188566,0.00130219704205184177298049164051,0.00125747831044953936423247409238,0.00119672086086652982965528035919,0.00112166463864723999106776108903,0.00103439960752909699062684900639,0.000937269256219088711841458394503,0.000832766538651381069482959595973,0.000723428661410524575028913041308,0.000611736837789958053275551908001,0.000500026384880344052820400069237,0.000390411441682983820222752058271,0.00028472725318948454180031926164,0.000184491530689628722332676358242,9.08849928650892768550867417687e-05,4.74993047787663289079854861408e-06,-7.33953911132655513818723314046e-05,-0.000143329415513465549753338579286,-0.000205090413160367168602174481329,-0.000258933500726826520878937065717,-0.000305284878033875437582794765135,-0.000344696231244873260626121469485,-0.00037780173307405771204736666391,-0.000405279469622472291855802550842
-0.000409843643196039573561167967952,-0.000383574996249281933730773674895,-0.000351926219865760436193019566886,-0.000314249065440411667806536177849,-0.000269937265455377013896598459297,-0.000218463409327722824903456055878,-0.000159420051101784874050815155044,-9.25632998807391250018633543917e-05,-1.78565692225694600469513423358e-05,6.448833351714290890513425758e-05,0.000153975947960517472144770234621,0.000249801046260101017662536015962,0.000350834864329460985581804477462,0.000455626473997415581702191689217,0.000562421385673441765265523351047,0.00066919848779604983526891892609,0.000773725223107285422878554026482,0.000873629557946729623681136889246,0.000966485929208661621522824525243,0.00104991107920969365188690325397,0.00112166463864723999106776108903,0.00117974860745119892839471997803,0.00122249960225377066365404221671,0.00124866793942530855676675827226,0.00125747831044953936423247409238,0.00124866793942530855676675827226,0.00122249960225377066365404221671,0.00117974860745119892839471997803,0.00112166463864723999106776108903,0.00104991107920969365188690325397,0.000966485929208661621522824525243,0.000873629557946729623681136889246,0.000773725223107285422878554026482,0.00066919848779604983526891892609,0.000562421385673441765265523351047,0.000455626473997415581702191689217,0.000350834864329460985581804477462,0.000249801046260101017662536015962,0.000153975947960517472144770234621,6.448833351714290890513425758e-05,-1.78565692225694600469513423358e-05,-9.25632998807391250018633543917e-05,-0.000159420051101784874050815155044,-0.000218463409327722824903456055878,-0.000269937265455377013896598459297,-0.000314249065440411667806536177849,-0.000351926219865760436193019566886,-0.000383574996249281933730773674895,-0.000409843643196039573561167967952
-0.000415150235203325492557707709906,-0.000390287351011385714224383169935,-0.000360332254213481691356574243557,-0.000324671387132739123603658581985,-0.000282730926567818481934257768273,-0.000234011686235099350579524912774,-0.00017812802458895188643071827439,-0.000114849102517811132409715491054,-4.41402914976923315304620232258e-05,3.37979359551196363001430988948e-05,0.000118496633951561220962633846909,0.000209193666293299682405401607177,0.000304820674536983261468381378734,0.000404004376717840912262152963663,0.000505084174496203664427029789152,0.000606147115796764886057335086633,0.000705080118332914286896628830448,0.00079963808747461997180477899505,0.000887525263766893537410729297932,0.000966485929208661621522824525243,0.00103439960752909699062684900639,0.00108937522133623759801324126784,0.00112983840297710804237429904617,0.00115460634545660784273934940103,0.00116294523077900232611858744036,0.00115460634545660784273934940103,0.00112983840297710804237429904617,0.00108937522133623759801324126784,0.00103439960752909699062684900639,0.000966485929208661621522824525243,0.000887525263766893537410729297932,0.00079963808747461997180477899505,0.000705080118332914286896628830448,0.000606147115796764886057335086633,0.000505084174496203664427029789152,0.000404004376717840912262152963663,0.000304820674536983261468381378734,0.000209193666293299682405401607177,0.000118496633951561220962633846909,3.37979359551196363001430988948e-05,-4.41402914976923315304620232258e-05,-0.000114849102517811132409715491054,-0.00017812802458895188643071827439,-0.000234011686235099350579524912774,-0.000282730926567818481934257768273,-0.000324671387132739123603658581985,-0.000360332254213481691356574243557,-0.000390287351011385714224383169935,-0.000415150235203325492557707709906
-0.000421056737949296452580560945478,-0.000397758538127309323705060872811,-0.000369688591555672842799834532101,-0.000336271953298482816335085443527,-0.00029697091230403247375663200458,-0.000251317697347777212896202669867,-0.000198950936284780782606698701365,-0.000139654317294320552775982458016,-7.33953911132655513818723314046e-05,-3.62014013928137988909374466936e-07,7.9006380068966122168401533532e-05,0.00016399561810129739008491667196,0.000253604576146576133136023578629,0.000346546396357572290825022065519,0.000441264986060443606397107885186,0.000535967780106419823885066655578,0.000628674677837279651318458384424,0.000717281874123016542979525134172,0.00079963808747461997180477899505,0.000873629557946729623681136889246,0.000937269256219088711841458394503,0.000988785115196961616329529576319,0.00102670184617735115069347973105,0.00104991107920969365188690325397,0.00105772517732614468148610864517,0.00104991107920969365188690325397,0.00102670184617735115069347973105,0.000988785115196961616329529576319,0.000937269256219088711841458394503,0.000873629557946729623681136889246,0.00079963808747461997180477899505,0.000717281874123016542979525134172,0.000628674677837279651318458384424,0.000535967780106419823885066655578,0.000441264986060443606397107885186,0.000346546396357572290825022065519,0.000253604576146576133136023578629,0.00016399561810129739008491667196,7.9006380068966122168401533532e-05,-3.62014013928137988909374466936e-07,-7.33953911132655513818723314046e-05,-0.000139654317294320552775982458016,-0.000198950936284780782606698701365,-0.000251317697347777212896202669867,-0.00029697091230403247375663200458,-0.000336271953298482816335085443527,-0.000369688591555672842799834532101,-0.000397758538127309323705060872811,-0.000421056737949296452580560945478
-0.00042741155474909425446283783856,-0.000405796801621064601173216601637,-0.000379755091527638453680754127006,-0.000348753023049532700529395956579,-0.000312291738260999989992838798969,-0.000269937265455377013896598459297,-0.000221354343979058339891841100666,-0.000166342291949352836773548536264,-0.000104871004773754788953928074324,-3.71147648852674662788009296577e-05,3.65187457454953636002553674089e-05,0.000115366957738017575016420401823,0.000198501084881213375006245303034,0.00028472725318948454180031926164,0.000372601807820550272407761349669,0.00046046170813381906081196426328,0.000546469928641351372806955755124,0.000628674677837279651318458384424,0.000705080118332914286896628830448,0.000773725223107285422878554026482,0.000832766538651381069482959595973,0.000880560041260723203385141211186,0.000915737041450651631339929803488,0.000937269256219088711841458394503,0.000944518734848158220303304677401,0.000937269256219088711841458394503,0.000915737041450651631339929803488,0.000880560041260723203385141211186,0.000832766538651381069482959595973,0.000773725223107285422878554026482,0.000705080118332914286896628830448,0.000628674677837279651318458384424,0.000546469928641351372806955755124,0.00046046170813381906081196426328,0.000372601807820550272407761349669,0.00028472725318948454180031926164,0.000198501084881213375006245303034,0.000115366957738017575016420401823,3.65187457454953636002553674089e-05,-3.71147648852674662788009296577e-05,-0.000104871004773754788953928074324,-0.000166342291949352836773548536264,-0.000221354343979058339891841100666,-0.000269937265455377013896598459297,-0.000312291738260999989992838798969,-0.000348753023049532700529395956579,-0.000379755091527638453680754127006,-0.000405796801621064601173216601637,-0.00042741155474909425446283783856
-0.000434060397911419147774086946256,-0.000414206981639019065216666959373,-0.000390287351011385714224383169935,-0.000361811570272390367955517298526,-0.000328321432289063123554501144596,-0.000289418328717750935382552190944,-0.000244794318529640815909620421564,-0.000194265072950224282300954459224,-0.000137802940541467618422097340947,-7.55680018590400542476820389126e-05,-7.93471780107901982230424881015e-06,6.448833351714290890513425758e-05,0.000140848050551160944602810398685,0.000220047845379175614028907648212,0.000300761703294116279107373035373,0.000381462101038141287914079446963,0.00046046170813381906081196426328,0.000535967780106419823885066655578,0.000606147115796764886057335086633,0.00066919848779604983526891892609,0.000723428661410524575028913041308,0.000767327580671777961796031775066,0.00079963808747461997180477899505,0.00081941569124980011707554128364,0.000826074426426106223769751935038,0.00081941569124980011707554128364,0.00079963808747461997180477899505,0.000767327580671777961796031775066,0.000723428661410524575028913041308,0.00066919848779604983526891892609,0.000606147115796764886057335086633,0.000535967780106419823885066655578,0.00046046170813381906081196426328,0.000381462101038141287914079446963,0.000300761703294116279107373035373,0.000220047845379175614028907648212,0.000140848050551160944602810398685,6.448833351714290890513425758e-05,-7.93471780107901982230424881015e-06,-7.55680018590400542476820389126e-05,-0.000137802940541467618422097340947,-0.000194265072950224282300954459224,-0.000244794318529640815909620421564,-0.000289418328717750935382552190944,-0.000328321432289063123554501144596,-0.000361811570272390367955517298526,-0.000390287351011385714224383169935,-0.000414206981639019065216666959373,-0.000434060397911419147774086946256
-0.000440852384700510528843520052789,-0.000422798225285658834434604491648,-0.000401046360590411596954568684836,-0.000375151256298517619697935332468,-0.000344696231244873260626121469485,-0.000309318801790307536855179071367,-0.000268738934697805673546683324915,-0.000222789006368785691154094097399,-0.000171443871333900829147245392647,-0.000114849102517811132409715491054,-5.33452245262997046693770331061e-05,1.25143381740950713668742919071e-05,8.19537981284838010827970000705e-05,0.000153975947960517472144770234621,0.000227374945784878984469251639311,0.000300761703294116279107373035373,0.000372601807820550272407761349669,0.000441264986060443606397107885186,0.000505084174496203664427029789152,0.000562421385673441765265523351047,0.000611736837789958053275551908001,0.000651657326818548283259291409308,0.000681039627204004047872354377091,0.000699024844785789628912042736886,0.000705080118332914286896628830448,0.000699024844785789628912042736886,0.000681039627204004047872354377091,0.000651657326818548283259291409308,0.000611736837789958053275551908001,0.000562421385673441765265523351047,0.000505084174496203664427029789152,0.000441264986060443606397107885186,0.000372601807820550272407761349669,0.000300761703294116279107373035373,0.000227374945784878984469251639311,0.000153975947960517472144770234621,8.19537981284838010827970000705e-05,1.25143381740950713668742919071e-05,-5.33452245262997046693770331061e-05,-0.000114849102517811132409715491054,-0.000171443871333900829147245392647,-0.000222789006368785691154094097399,-0.000268738934697805673546683324915,-0.000309318801790307536855179071367,-0.000344696231244873260626121469485,-0.000375151256298517619697935332468,-0.000401046360590411596954568684836,-0.000422798225285658834434604491648,-0.000440852384700510528843520052789
-0.000447645504337835695683744940965,-0.000431390901881962911777745883768,-0.000411807164684853410380888094622,-0.000388493167275932426568685329471,-0.000361073761384157331400662771514,-0.000329222594100146194202177740706,-0.000292687544633475280053680478431,-0.000251317697347777212896202669867,-0.000205090413160367168602174481329,-0.000154136754945141153660959076888,-9.876330535522972488542831071e-05,-3.94683260092565461321298392328e-05,2.30497226228265998106917861188e-05,8.78930302859887575524580616282e-05,0.000153975947960517472144770234621,0.000220047845379175614028907648212,0.00028472725318948454180031926164,0.000346546396357572290825022065519,0.000404004376717840912262152963663,0.000455626473997415581702191689217,0.000500026384880344052820400069237,0.000535967780106419823885066655578,0.000562421385673441765265523351047,0.000578613918106372785224444932339,0.000584065629371816855304466731269,0.000578613918106372785224444932339,0.000562421385673441765265523351047,0.000535967780106419823885066655578,0.000500026384880344052820400069237,0.000455626473997415581702191689217,0.000404004376717840912262152963663,0.000346546396357572290825022065519,0.00028472725318948454180031926164,0.000220047845379175614028907648212,0.000153975947960517472144770234621,8.78930302859887575524580616282e-05,2.30497226228265998106917861188e-05,-3.94683260092565461321298392328e-05,-9.876330535522972488542831071e-05,-0.000154136754945141153660959076888,-0.000205090413160367168602174481329,-0.000251317697347777212896202669867,-0.000292687544633475280053680478431,-0.000329222594100146194202177740706,-0.000361073761384157331400662771514,-0.000388493167275932426568685329471,-0.000411807164684853410380888094622,-0.000431390901881962911777745883768,-0.000447645504337835695683744940965
-0.000454311195898326905615732806965,-0.000439822393586497030482096448623,-0.000422366113277824811386707004601,-0.000401584805308380983924348983649,-0.000377144075210413248083751724948,-0.000348753023049532700529395956579,-0.000316186916888980956708010694456,-0.000279311235639913854698207495986,-0.000238105799590496825619487242243,-0.000192687433749244211135878690477,-0.000143329415513465549753338579286,-9.04758784208102426931466522042e-05,-3.4749406487050510318644047647e-05,2.30497226228265998106917861188e-05,8.19537981284838010827970000705e-05,0.000140848050551160944602810398685,0.000198501084881213375006245303034,0.000253604576146576133136023578629,0.000304820674536983261468381378734,0.000350834864329460985581804477462,0.000390411441682983820222752058271,0.000422448384552282505451786809303,0.000446028232938991018793895015904,0.00046046170813381906081196426328,0.000465321178982191520617089919298,0.00046046170813381906081196426328,0.000446028232938991018793895015904,0.000422448384552282505451786809303,0.000390411441682983820222752058271,0.000350834864329460985581804477462,0.000304820674536983261468381378734,0.000253604576146576133136023578629,0.000198501084881213375006245303034,0.000140848050551160944602810398685,8.19537981284838010827970000705e-05,2.30497226228265998106917861188e-05,-3.4749406487050510318644047647e-05,-9.04758784208102426931466522042e-05,-0.000143329415513465549753338579286,-0.000192687433749244211135878690477,-0.000238105799590496825619487242243,-0.000279311235639913854698207495986,-0.000316186916888980956708010694456,-0.000348753023049532700529395956579,-0.000377144075210413248083751724948,-0.000401584805308380983924348983649,-0.000422366113277824811386707004601,-0.000439822393586497030482096448623,-0.000454311195898326905615732806965
-0.000460737858019111886243718290146,-0.000447951534856761562908289420193,-0.000432546421553709815356614232229,-0.000414206981639019065216666959373,-0.000392638113030656453038974573744,-0.000367583097437561702285069298313,-0.00033884360962163363175866925836,-0.000306300935138635111506383301716,-0.000269937265455377013896598459297,-0.000229855698280017576185657590671,-0.000186297400069228893384684631052,-0.000139654317294320552775982458016,-9.04758784208102426931466522042e-05,-3.94683260092565461321298392328e-05,1.25143381740950713668742919071e-05,6.448833351714290890513425758e-05,0.000115366957738017575016420401823,0.00016399561810129739008491667196,0.000209193666293299682405401607177,0.000249801046260101017662536015962,0.00028472725318948454180031926164,0.000312999756039920125003095385807,0.000333808899204604927254264046255,0.000346546396357572290825022065519,0.000350834864329460985581804477462,0.000346546396357572290825022065519,0.000333808899204604927254264046255,0.000312999756039920125003095385807,0.00028472725318948454180031926164,0.000249801046260101017662536015962,0.000209193666293299682405401607177,0.00016399561810129739008491667196,0.000115366957738017575016420401823,6.448833351714290890513425758e-05,1.25143381740950713668742919071e-05,-3.94683260092565461321298392328e-05,-9.04758784208102426931466522042e-05,-0.000139654317294320552775982458016,-0.000186297400069228893384684631052,-0.000229855698280017576185657590671,-0.000269937265455377013896598459297,-0.000306300935138635111506383301716,-0.00033884360962163363175866925836,-0.000367583097437561702285069298313,-0.000392638113030656453038974573744,-0.000414206981639019065216666959373,-0.000432546421553709815356614232229,-0.000447951534856761562908289420193,-0.000460737858019111886243718290146
-0.000466833198581612085747288842796,-0.000455661584582681361641626205383,-0.000442201891968448026343230239377,-0.000426178431503536066064785625684,-0.000407333367803301010789951419611,-0.000385442402012022412947228611202,-0.000360332254213481691356574243557,-0.000331899201708801599910308999242,-0.000300127684899171253123800751084,-0.000265107781892666926303048224867,-0.000227050203659848388090120030469,-0.000186297400069228893384684631052,-0.000143329415513465549753338579286,-9.876330535522972488542831071e-05,-5.33452245262997046693770331061e-05,-7.93471780107901982230424881015e-06,3.65187457454953636002553674089e-05,7.9006380068966122168401533532e-05,0.000118496633951561220962633846909,0.000153975947960517472144770234621,0.000184491530689628722332676358242,0.000209193666293299682405401607177,0.000227374945784878984469251639311,0.000238503899722507668170953798459,0.000242250802426311384520779546037,0.000238503899722507668170953798459,0.000227374945784878984469251639311,0.000209193666293299682405401607177,0.000184491530689628722332676358242,0.000153975947960517472144770234621,0.000118496633951561220962633846909,7.9006380068966122168401533532e-05,3.65187457454953636002553674089e-05,-7.93471780107901982230424881015e-06,-5.33452245262997046693770331061e-05,-9.876330535522972488542831071e-05,-0.000143329415513465549753338579286,-0.000186297400069228893384684631052,-0.000227050203659848388090120030469,-0.000265107781892666926303048224867,-0.000300127684899171253123800751084,-0.000331899201708801599910308999242,-0.000360332254213481691356574243557,-0.000385442402012022412947228611202,-0.000407333367803301010789951419611,-0.000426178431503536066064785625684,-0.000442201891968448026343230239377,-0.000455661584582681361641626205383,-0.000466833198581612085747288842796
-0.000472525418008852202394337593816,-0.000462861722849749036932248680287,-0.00045121878868001927091746505738,-0.000437358138165091776643211840536,-0.000421056737949296452580560945478,-0.000402120564522115908016181018425,-0.000380399726893072495387954079504,-0.000355804502615336053304023744559,-0.000328321432289063123554501144596,-0.000298028435485861008941155247953,-0.000265107781892666926303048224867,-0.000229855698280017576185657590671,-0.000192687433749244211135878690477,-0.000154136754945141153660959076888,-0.000114849102517811132409715491054,-7.55680018590400542476820389126e-05,-3.71147648852674662788009296577e-05,-3.62014013928137988909374466936e-07,3.37979359551196363001430988948e-05,6.448833351714290890513425758e-05,9.08849928650892768550867417687e-05,0.000112252890849709222281620213391,0.000127980102927202491532726602586,0.00013760689618225389169690886515,0.000140848050551160944602810398685,0.00013760689618225389169690886515,0.000127980102927202491532726602586,0.000112252890849709222281620213391,9.08849928650892768550867417687e-05,6.448833351714290890513425758e-05,3.37979359551196363001430988948e-05,-3.62014013928137988909374466936e-07,-3.71147648852674662788009296577e-05,-7.55680018590400542476820389126e-05,-0.000114849102517811132409715491054,-0.000154136754945141153660959076888,-0.000192687433749244211135878690477,-0.000229855698280017576185657590671,-0.000265107781892666926303048224867,-0.000298028435485861008941155247953,-0.000328321432289063123554501144596,-0.000355804502615336053304023744559,-0.000380399726893072495387954079504,-0.000402120564522115908016181018425,-0.000421056737949296452580560945478,-0.000437358138165091776643211840536,-0.00045121878868001927091746505738,-0.000462861722849749036932248680287,-0.000472525418008852202394337593816
-0.000477763296546845645657031198539,-0.000469487161342014821044377193004,-0.000459515975808615626842235091232,-0.000447645504337835695683744940965,-0.000433684737778793939766419640591,-0.000417467511452294557598025059875,-0.000398865456439124598398554555345,-0.00037780173307405771204736666391,-0.00035426481452278799815294729747,-0.000328321432289063123554501144596,-0.000300127684899171253123800751084,-0.000269937265455377013896598459297,-0.000238105799590496825619487242243,-0.000205090413160367168602174481329,-0.000171443871333900829147245392647,-0.000137802940541467618422097340947,-0.000104871004773754788953928074324,-7.33953911132655513818723314046e-05,-4.41402914976923315304620232258e-05,-1.78565692225694600469513423358e-05,4.74993047787663289079854861408e-06,2.30497226228265998106917861188e-05,3.65187457454953636002553674089e-05,4.47632775996182783947996419727e-05,4.75390513937175965861019200087e-05,4.47632775996182783947996419727e-05,3.65187457454953636002553674089e-05,2.30497226228265998106917861188e-05,4.74993047787663289079854861408e-06,-1.78565692225694600469513423358e-05,-4.41402914976923315304620232258e-05,-7.33953911132655513818723314046e-05,-0.000104871004773754788953928074324,-0.000137802940541467618422097340947,-0.000171443871333900829147245392647,-0.000205090413160367168602174481329,-0.000238105799590496825619487242243,-0.000269937265455377013896598459297,-0.000300127684899171253123800751084,-0.000328321432289063123554501144596,-0.00035426481452278799815294729747,-0.00037780173307405771204736666391,-0.000398865456439124598398554555345,-0.000417467511452294557598025059875,-0.000433684737778793939766419640591,-0.000447645504337835695683744940965,-0.000459515975808615626842235091232,-0.000469487161342014821044377193004,-0.000477763296546845645657031198539
-0.000482515318446670763655875768805,-0.000475498035512314314553206084923,-0.000467043530076252687895793647144,-0.000456978632051623198835621497693,-0.000445141385981970586979694637364,-0.000431390901881962911777745883768,-0.00041561833655319913201353632104,-0.000397758538127309323705060872811,-0.00037780173307405771204736666391,-0.000355804502615336053304023744559,-0.000331899201708801599910308999242,-0.000306300935138635111506383301716,-0.000279311235639913854698207495986,-0.000251317697347777212896202669867,-0.000222789006368785691154094097399,-0.000194265072950224282300954459224,-0.000166342291949352836773548536264,-0.000139654317294320552775982458016,-0.000114849102517811132409715491054,-9.25632998807391250018633543917e-05,-7.33953911132655513818723314046e-05,-5.78791125674450089794512153141e-05,-4.64588126615196223847224776815e-05,-3.94683260092565461321298392328e-05,-3.71147648852674662788009296577e-05,-3.94683260092565461321298392328e-05,-4.64588126615196223847224776815e-05,-5.78791125674450089794512153141e-05,-7.33953911132655513818723314046e-05,-9.25632998807391250018633543917e-05,-0.000114849102517811132409715491054,-0.000139654317294320552775982458016,-0.000166342291949352836773548536264,-0.000194265072950224282300954459224,-0.000222789006368785691154094097399,-0.000251317697347777212896202669867,-0.000279311235639913854698207495986,-0.000306300935138635111506383301716,-0.000331899201708801599910308999242,-0.000355804502615336053304023744559,-0.00037780173307405771204736666391,-0.000397758538127309323705060872811,-0.00041561833655319913201353632104,-0.000431390901881962911777745883768,-0.000445141385981970586979694637364,-0.000456978632051623198835621497693,-0.000467043530076252687895793647144,-0.000475498035512314314553206084923,-0.000482515318446670763655875768805
-0.000486768010850080435833464598261,-0.000480877303424111029149512486214,-0.000473780109478677676979052613149,-0.000465331060168576264839818135144,-0.000455394200848833628682971186308,-0.000443851260432106913249999946558,-0.000430610869731335127279236996145,-0.00041561833655319913201353632104,-0.000398865456439124598398554555345,-0.000380399726893072495387954079504,-0.000360332254213481691356574243557,-0.00033884360962163363175866925836,-0.000316186916888980956708010694456,-0.000292687544633475280053680478431,-0.000268738934697805673546683324915,-0.000244794318529640815909620421564,-0.000221354343979058339891841100666,-0.000198950936284780782606698701365,-0.00017812802458895188643071827439,-0.000159420051101784874050815155044,-0.000143329415513465549753338579286,-0.000130304166551965800021836705547,-0.000120717315616646753140273062854,-0.000114849102517811132409715491054,-0.00011287338910846910703788398278,-0.000114849102517811132409715491054,-0.000120717315616646753140273062854,-0.000130304166551965800021836705547,-0.000143329415513465549753338579286,-0.000159420051101784874050815155044,-0.00017812802458895188643071827439,-0.000198950936284780782606698701365,-0.000221354343979058339891841100666,-0.000244794318529640815909620421564,-0.000268738934697805673546683324915,-0.000292687544633475280053680478431,-0.000316186916888980956708010694456,-0.00033884360962163363175866925836,-0.000360332254213481691356574243557,-0.000380399726893072495387954079504,-0.000398865456439124598398554555345,-0.00041561833655319913201353632104,-0.000430610869731335127279236996145,-0.000443851260432106913249999946558,-0.000455394200848833628682971186308,-0.000465331060168576264839818135144,-0.000473780109478677676979052613149,-0.000480877303424111029149512486214,-0.000486768010850080435833464598261
-0.000490523700984784520422177234167,-0.000485627908808141728943391646212,-0.000479729400516762686731975229293,-0.000472707359440659581444055259425,-0.000464448793091985594454901287165,-0.000454855405863394156914386590174,-0.000443851260432106913249999946558,-0.000431390901881962911777745883768,-0.000417467511452294557598025059875,-0.000402120564522115908016181018425,-0.000385442402012022412947228611202,-0.000367583097437561702285069298313,-0.000348753023049532700529395956579,-0.000329222594100146194202177740706,-0.000309318801790307536855179071367,-0.000289418328717750935382552190944,-0.000269937265455377013896598459297,-0.000251317697347777212896202669867,-0.000234011686235099350579524912774,-0.000218463409327722824903456055878,-0.000205090413160367168602174481329,-0.000194265072950224282300954459224,-0.000186297400069228893384684631052,-0.000181420303024229496004562922629,-0.000179778279146061123515767943282,-0.000181420303024229496004562922629,-0.000186297400069228893384684631052,-0.000194265072950224282300954459224,-0.000205090413160367168602174481329,-0.000218463409327722824903456055878,-0.000234011686235099350579524912774,-0.000251317697347777212896202669867,-0.000269937265455377013896598459297,-0.000289418328717750935382552190944,-0.000309318801790307536855179071367,-0.000329222594100146194202177740706,-0.000348753023049532700529395956579,-0.000367583097437561702285069298313,-0.000385442402012022412947228611202,-0.000402120564522115908016181018425,-0.000417467511452294557598025059875,-0.000431390901881962911777745883768,-0.000443851260432106913249999946558,-0.000454855405863394156914386590174,-0.000464448793091985594454901287165,-0.000472707359440659581444055259425,-0.000479729400516762686731975229293,-0.000485627908808141728943391646212,-0.000490523700984784520422177234167
-0.00049379790251163598394090747945,-0.000489769475030054821616809501705,-0.000484915977977077347193385348234,-0.000479137999209366754159444834471,-0.000472342564591822619470690147736,-0.000464448793091985594454901287165,-0.000455394200848833628682971186308,-0.000445141385981970586979694637364,-0.000433684737778793939766419640591,-0.000421056737949296452580560945478,-0.000407333367803301010789951419611,-0.000392638113030656453038974573744,-0.000377144075210413248083751724948,-0.000361073761384157331400662771514,-0.000344696231244873260626121469485,-0.000328321432289063123554501144596,-0.000312291738260999989992838798969,-0.00029697091230403247375663200458,-0.000282730926567818481934257768273,-0.000269937265455377013896598459297,-0.000258933500726826520878937065717,-0.000250026035616673491124989370249,-0.00024346995822613747158767727452,-0.00023945691374680928820671554913,-0.000238105799590496825619487242243,-0.00023945691374680928820671554913,-0.00024346995822613747158767727452,-0.000250026035616673491124989370249,-0.000258933500726826520878937065717,-0.000269937265455377013896598459297,-0.000282730926567818481934257768273,-0.00029697091230403247375663200458,-0.000312291738260999989992838798969,-0.000328321432289063123554501144596,-0.000344696231244873260626121469485,-0.000361073761384157331400662771514,-0.000377144075210413248083751724948,-0.000392638113030656453038974573744,-0.000407333367803301010789951419611,-0.000421056737949296452580560945478,-0.000433684737778793939766419640591,-0.000445141385981970586979694637364,-0.000455394200848833628682971186308,-0.000464448793091985594454901287165,-0.000472342564591822619470690147736,-0.000479137999209366754159444834471,-0.000484915977977077347193385348234,-0.000489769475030054821616809501705,-0.00049379790251163598394090747945
-0.000496616532668442737206981885123,-0.000493334785031214625126982920023,-0.000489380896681795851677065911645,-0.000484673881784398238176114759312,-0.000479137999209366754159444834471,-0.000472707359440659581444055259425,-0.000465331060168576264839818135144,-0.000456978632051623198835621497693,-0.000447645504337835695683744940965,-0.000437358138165091776643211840536,-0.000426178431503536066064785625684,-0.000414206981639019065216666959373,-0.000401584805308380983924348983649,-0.000388493167275932426568685329471,-0.000375151256298517619697935332468,-0.000361811570272390367955517298526,-0.000348753023049532700529395956579,-0.000336271953298482816335085443527,-0.000324671387132739123603658581985,-0.000314249065440411667806536177849,-0.000305284878033875437582794765135,-0.000298028435485861008941155247953,-0.000292687544633475280053680478431,-0.000289418328717750935382552190944,-0.000288317647196145590907101485811,-0.000289418328717750935382552190944,-0.000292687544633475280053680478431,-0.000298028435485861008941155247953,-0.000305284878033875437582794765135,-0.000314249065440411667806536177849,-0.000324671387132739123603658581985,-0.000336271953298482816335085443527,-0.000348753023049532700529395956579,-0.000361811570272390367955517298526,-0.000375151256298517619697935332468,-0.000388493167275932426568685329471,-0.000401584805308380983924348983649,-0.000414206981639019065216666959373,-0.000426178431503536066064785625684,-0.000437358138165091776643211840536,-0.000447645504337835695683744940965,-0.000456978632051623198835621497693,-0.000465331060168576264839818135144,-0.000472707359440659581444055259425,-0.000479137999209366754159444834471,-0.000484673881784398238176114759312,-0.000489380896681795851677065911645,-0.000493334785031214625126982920023,-0.000496616532668442737206981885123
-0.000499013139525348063327281344925,-0.000496366274059719617822716841715,-0.000493177299256079035121025366806,-0.000489380896681795851677065911645,-0.000484915977977077347193385348234,-0.000479729400516762686731975229293,-0.000473780109478677676979052613149,-0.000467043530076252687895793647144,-0.000459515975808615626842235091232,-0.00045121878868001927091746505738,-0.000442201891968448026343230239377,-0.000432546421553709815356614232229,-0.000422366113277824811386707004601,-0.000411807164684853410380888094622,-0.000401046360590411596954568684836,-0.000390287351011385714224383169935,-0.000379755091527638453680754127006,-0.000369688591555672842799834532101,-0.000360332254213481691356574243557,-0.000351926219865760436193019566886,-0.000344696231244873260626121469485,-0.00033884360962163363175866925836,-0.000334535959821720537896161395963,-0.000331899201708801599910308999242,-0.000331011456449189459417398184726,-0.000331899201708801599910308999242,-0.000334535959821720537896161395963,-0.00033884360962163363175866925836,-0.000344696231244873260626121469485,-0.000351926219865760436193019566886,-0.000360332254213481691356574243557,-0.000369688591555672842799834532101,-0.000379755091527638453680754127006,-0.000390287351011385714224383169935,-0.000401046360590411596954568684836,-0.000411807164684853410380888094622,-0.000422366113277824811386707004601,-0.000432546421553709815356614232229,-0.000442201891968448026343230239377,-0.00045121878868001927091746505738,-0.000459515975808615626842235091232,-0.000467043530076252687895793647144,-0.000473780109478677676979052613149,-0.000479729400516762686731975229293,-0.000484915977977077347193385348234,-0.000489380896681795851677065911645,-0.000493177299256079035121025366806,-0.000496366274059719617822716841715,-0.000499013139525348063327281344925
-0.000501026287164820145238197657278,-0.000498912722161641585850999636165,-0.000496366274059719617822716841715,-0.000493334785031214625126982920023,-0.000489769475030054821616809501705,-0.000485627908808141728943391646212,-0.000480877303424111029149512486214,-0.000475498035512314314553206084923,-0.000469487161342014821044377193004,-0.000462861722849749036932248680287,-0.000455661584582681361641626205383,-0.000447951534856761562908289420193,-0.000439822393586497030482096448623,-0.000431390901881962911777745883768,-0.000422798225285658834434604491648,-0.000414206981639019065216666959373,-0.000405796801621064601173216601637,-0.000397758538127309323705060872811,-0.000390287351011385714224383169935,-0.000383574996249281933730773674895,-0.00037780173307405771204736666391,-0.000373128319785639072855842890419,-0.000369688591555672842799834532101,-0.000367583097437561702285069298313,-0.000366874218449634627043504098154,-0.000367583097437561702285069298313,-0.000369688591555672842799834532101,-0.000373128319785639072855842890419,-0.00037780173307405771204736666391,-0.000383574996249281933730773674895,-0.000390287351011385714224383169935,-0.000397758538127309323705060872811,-0.000405796801621064601173216601637,-0.000414206981639019065216666959373,-0.000422798225285658834434604491648,-0.000431390901881962911777745883768,-0.000439822393586497030482096448623,-0.000447951534856761562908289420193,-0.000455661584582681361641626205383,-0.000462861722849749036932248680287,-0.000469487161342014821044377193004,-0.000475498035512314314553206084923,-0.000480877303424111029149512486214,-0.000485627908808141728943391646212,-0.000489769475030054821616809501705,-0.000493334785031214625126982920023,-0.000496366274059719617822716841715,-0.000498912722161641585850999636165,-0.000501026287164820145238197657278
-0.000502697210045128400381087008242,-0.000501026287164820145238197657278,-0.000499013139525348063327281344925,-0.000496616532668442737206981885123,-0.00049379790251163598394090747945,-0.000490523700984784520422177234167,-0.000486768010850080435833464598261,-0.000482515318446670763655875768805,-0.000477763296546845645657031198539,-0.000472525418008852202394337593816,-0.000466833198581612085747288842796,-0.000460737858019111886243718290146,-0.000454311195898326905615732806965,-0.000447645504337835695683744940965,-0.000440852384700510528843520052789,-0.000434060397911419147774086946256,-0.00042741155474909425446283783856,-0.000421056737949296452580560945478,-0.000415150235203325492557707709906,-0.000409843643196039573561167967952,-0.000405279469622472291855802550842,-0.000401584805308380983924348983649,-0.000398865456439124598398554555345,-0.000397200914165281185417427645135,-0.000396640495101511733090637878973,-0.000397200914165281185417427645135,-0.000398865456439124598398554555345,-0.000401584805308380983924348983649,-0.000405279469622472291855802550842,-0.000409843643196039573561167967952,-0.000415150235203325492557707709906,-0.000421056737949296452580560945478,-0.00042741155474909425446283783856,-0.000434060397911419147774086946256,-0.000440852384700510528843520052789,-0.000447645504337835695683744940965,-0.000454311195898326905615732806965,-0.000460737858019111886243718290146,-0.000466833198581612085747288842796,-0.000472525418008852202394337593816,-0.000477763296546845645657031198539,-0.000482515318446670763655875768805,-0.000486768010850080435833464598261,-0.000490523700984784520422177234167,-0.00049379790251163598394090747945,-0.000496616532668442737206981885123,-0.000499013139525348063327281344925,-0.000501026287164820145238197657278,-0.000502697210045128400381087008242
