-11.094,-6.9958,-0.46994,4.9938,6.0742,2.1549,-4.4338,-9.2594,-6.9703,4.5922,19.406,25.549,15.807,-4.3838,-20.703,-21.871,-8.9938,5.5462,9.1966,1.0385,-7.73,-6.6523,1.8278,6.4196,2.572,-1.5482,2.9011,12.504,15.534,6.15,-9.7812,-21.38
-12.91,-7.8936,-0.23896,5.78,6.6967,2.5911,-3.4091,-7.194,-4.8664,4.9896,17.732,23.566,15.503,-3.0237,-19.567,-22.612,-11.447,2.9354,7.7914,1.0093,-7.1305,-6.1799,2.1492,7.3947,4.9638,1.6608,4.8638,11.56,12.342,3.2421,-10.387,-19.91
-15.662,-9.3921,-0.1976,6.6074,7.4341,3.3857,-1.368,-3.406,-1.1385,5.7953,15.07,20.347,15.025,-0.72896,-17.628,-23.883,-15.761,-1.7562,5.2104,0.94221,-6.0422,-5.3897,2.5417,8.7906,8.6749,6.7431,8.0634,10.294,7.6062,-1.1246,-11.323,-17.731
-17.804,-10.881,-0.83579,6.5536,7.7241,4.4277,1.3755,1.1233,3.1152,6.8425,12.372,16.921,14.422,1.7135,-15.433,-25.25,-20.771,-7.3972,2.0986,1.0941,-4.3162,-4.1572,2.8908,9.8165,11.933,11.384,10.922,8.961,3.1421,-5.0341,-11.803,-15.151
-17.659,-11.503,-2.2276,5.1966,7.3296,5.4977,3.9924,4.8061,6.3583,7.6758,10.32,14.053,13.555,3.4518,-13.46,-26.038,-24.921,-12.467,-0.67654,1.7974,-1.6903,-2.1013,3.3912,9.9397,13.196,13.43,11.666,7.0271,-0.33054,-7.2559,-10.822,-11.534
-14.326,-10.524,-3.8276,2.9343,6.4066,6.2373,5.4399,6.159,7.274,7.6752,8.9811,11.943,12.231,4.0005,-11.799,-25.395,-26.653,-15.569,-2.5618,2.8368,1.455,0.69404,4.2119,9.2426,12.234,12.38,9.7066,3.9874,-3.1008,-7.7785,-8.0824,-6.4139
-8.4753,-7.9225,-4.8419,0.74859,5.4246,6.4278,5.1952,4.7445,5.5098,6.4023,7.8621,10.232,10.292,3.3618,-10.194,-22.623,-24.925,-15.852,-3.4928,3.3636,3.8318,3.2097,5.0902,8.3311,10.345,9.811,6.2847,0.23475,-5.6513,-7.5351,-4.5412,-0.64824
-2.2254,-4.6636,-4.8898,-0.44934,4.9502,6.2709,3.7234,1.5427,1.9927,4.0355,6.4178,8.3161,7.5862,1.7337,-8.48,-17.71,-19.702,-13.193,-3.5524,2.6926,4.1431,4.0993,5.411,7.807,9.2941,8.0865,3.4937,-3.1696,-8.1748,-7.6478,-1.7762,4.038
2.0474,-2.1671,-4.2521,-0.39264,5.2313,6.1367,2.0696,-1.6626,-1.4997,1.49,4.6041,5.878,4.1577,-0.61342,-6.8274,-11.598,-12.24,-8.3846,-2.7938,1.0586,2.316,2.8843,4.7164,7.7294,9.8528,8.4995,2.6672,-5.3789,-10.587,-8.7058,-0.76397,6.5279
2.9929,-1.36,-3.4162,0.5804,5.9515,6.0017,0.88432,-3.5327,-3.4347,-0.12666,2.9436,3.2952,0.67662,-2.9878,-5.3853,-5.7756,-4.7858,-3.1587,-1.5373,-0.57155,-0.2663,0.49008,3.1021,7.5298,11.238,10.482,3.6422,-6.2321,-12.605,-10.44,-1.2616,7.0678
0.66783,-2.1898,-2.4794,2.1079,6.5911,5.4008,-0.11643,-4.1132,-3.5888,-0.35853,2.1081,1.5684,-1.515,-4.1856,-3.9346,-1.4884,0.43013,0.47695,-0.47954,-1.3118,-1.778,-1.43,1.1343,6.4412,11.785,12.236,5.1784,-6.0659,-13.732,-11.874,-2.1819,6.6968
-3.9136,-3.9292,-1.1261,4.2182,7.0727,4.0535,-1.7128,-4.6602,-3.1435,0.30951,2.502,1.7424,-1.1865,-3.2871,-2.2681,0.65429,2.2801,1.4409,-0.10771,-0.78124,-1.1287,-1.6537,-0.55631,4.0495,10.11,11.98,5.8813,-5.2857,-13.337,-11.865,-2.4943,6.1424
-9.2931,-5.7514,0.86107,7.0821,7.8604,2.3361,-4.3073,-6.4854,-3.6245,0.99438,4.1055,4.1721,1.7835,-0.58655,-0.81669,0.46978,0.97682,0.17008,-0.064351,1.1558,1.7481,0.052704,-1.593,0.53347,5.8776,8.9414,5.0386,-4.0519,-10.989,-9.8397,-1.9777,5.2214
-13.892,-7.0279,3.2403,10.477,9.3497,0.98182,-7.5072,-9.8311,-5.627,1.1529,6.448,8.105,6.1514,2.5188,-0.45344,-1.9315,-2.476,-2.0031,0.58519,4.5884,6.2902,3.1741,-1.8861,-3.4525,-0.12954,3.6939,2.9433,-2.3172,-6.9008,-6.2651,-1.2588,3.2592
-16.572,-7.4265,5.5057,13.731,11.363,0.47805,-10.382,-13.688,-8.463,0.79443,8.6579,11.873,9.9467,4.5555,-1.5194,-5.7482,-6.7059,-3.8591,2.3637,9.1384,11.504,6.8185,-1.5341,-7.019,-6.3879,-2.2481,0.45255,-0.26596,-2.1379,-2.3876,-1.0328,0.19382
-17.403,-7.0605,7.3488,16.292,13.407,0.901,-12.006,-16.585,-10.901,0.15779,9.7415,13.664,11.424,4.8012,-3.2645,-9.2032,-9.9894,-4.6533,4.8226,13.548,15.903,9.8381,-0.83956,-9.366,-11.273,-7.2817,-1.8136,1.3574,1.7589,0.63275,-1.1945,-2.7649
-17.678,-6.4748,8.8509,18.196,15.211,2.0966,-11.955,-17.621,-12.143,-0.60323,9.1098,12.496,9.8172,3.3333,-4.4522,-10.293,-10.604,-3.9138,7.0723,16.241,17.926,11.023,-0.42907,-10.273,-13.842,-10.489,-3.7774,1.6928,3.7242,2.4754,-0.86129,-3.8552
-18.648,-6.1929,10.202,19.73,16.69,3.7058,-10.513,-16.862,-12.143,-1.4,6.9852,8.7995,5.6642,0.6834,-4.4913,-8.2652,-7.837,-1.3892,8.7579,16.553,16.872,9.5935,-1.1595,-10.376,-14.298,-11.84,-5.4606,0.71433,3.9762,3.6702,0.65286,-2.3755
-20.107,-6.2092,11.233,20.627,17.443,5.1545,-8.3072,-14.837,-11.225,-2.1418,4.1708,4.0882,0.57639,-2.344,-3.8037,-4.2996,-2.7104,2.6216,10.251,15.16,13.312,5.6436,-3.5704,-10.637,-13.566,-11.755,-6.4731,-0.43596,3.8457,4.9197,2.9457,0.43073
-20.493,-6.0658,11.278,19.884,16.715,6.0156,-5.5805,-11.766,-9.657,-2.9221,1.2567,-0.11126,-3.544,-4.6737,-3.0363,-0.47955,2.5608,6.9839,11.74,13.036,8.4098,0.15647,-7.1642,-11.241,-12.259,-10.524,-6.1493,-0.30431,4.6313,6.376,4.688,2.24
-18.386,-5.4079,9.6262,16.564,14.044,6.3792,-2.01,-7.4549,-7.5686,-4.0384,-1.7588,-3.1129,-5.4682,-5.2821,-2.2129,1.8998,6.0282,10.021,12.36,10.203,3.0269,-5.3096,-10.236,-11.109,-10.153,-8.2164,-4.238,1.6033,6.5091,7.5106,4.6893,1.4976
-13.681,-4.2811,6.1626,10.704,9.6821,6.5068,2.4707,-1.9902,-4.9918,-5.3906,-4.7719,-4.9189,-5.1938,-3.9624,-0.96946,2.9498,7.1043,10.435,10.652,5.848,-2.3942,-9.0984,-10.715,-8.76,-6.7723,-5.0823,-1.3518,4.4394,8.5491,7.6492,2.7695,-1.5979
-7.375,-2.8902,1.6043,3.3783,4.2639,6.103,6.8208,3.7013,-1.8781,-5.9726,-6.7989,-5.551,-3.7248,-1.7073,0.64202,3.4887,6.5583,8.2165,6.0276,-0.36547,-7.38,-10.138,-7.6205,-3.795,-2.3159,-1.7755,1.4564,6.9393,9.7816,6.6122,-0.40799,-5.8979
-0.79663,-1.3115,-2.7754,-3.8295,-1.554,4.342,9.2378,8.1306,1.7071,-4.5301,-6.5692,-4.9911,-2.3435,0.0077034,2.1076,4.229,5.7683,4.7794,-0.26533,-7.3763,-11.318,-8.6744,-2.062,2.4015,2.1777,1.0781,3.684,8.6885,10.162,4.8339,-4.1811,-10.757
4.7576,0.42843,-5.6382,-9.2493,-6.9315,0.78958,8.4391,10.076,5.2931,-0.88496,-3.9829,-3.7496,-1.9909,0.3825,3.1707,5.597,5.9476,2.1795,-5.6899,-13.162,-13.868,-6.4176,3.1173,7.3762,5.558,3.4737,5.8601,10.385,10.44,2.9226,-8.3231,-16.305
8.1464,2.1272,-6.1128,-11.546,-10.737,-3.9072,4.5911,9.2453,8.0902,3.6946,-0.50097,-2.9306,-3.0177,-0.36346,4.0849,7.725,7.6319,1.9478,-7.9776,-16.004,-15.211,-5.5584,5.0506,9.1593,7.3236,5.9302,8.8472,12.826,11.186,1.2184,-12.617,-22.344
8.8249,3.4188,-4.283,-10.411,-12.099,-8.3011,-0.74238,6.4557,9.5237,7.4781,2.0705,-3.3496,-5.1127,-1.6024,4.9451,10.109,10.355,4.2476,-6.4206,-15.38,-15.677,-7.1525,2.7632,7.4484,7.6876,8.6675,12.588,15.709,12.081,-0.21263,-16.237,-27.391
7.2951,4.0292,-1.2598,-6.99,-11.115,-10.988,-5.3599,3.2949,9.6406,9.4098,2.9303,-4.7035,-7.3545,-2.9343,5.0753,11.363,12.659,7.8602,-1.9606,-11.844,-15.161,-10.279,-2.2799,3.5429,7.0711,11.017,15.684,17.518,12.117,-1.3182,-17.82,-29.139
4.8756,3.9869,1.462,-3.282,-8.8277,-11.326,-7.4975,1.3295,8.9864,9.4374,2.4668,-5.8426,-8.6304,-4.2454,3.4518,9.8876,12.848,11.059,3.7493,-6.3657,-13.166,-12.895,-7.4873,-0.78279,5.7008,11.864,16.413,16.689,10.448,-1.9626,-16.326,-26.018
2.8421,3.5852,2.9509,-0.84139,-6.5023,-9.7229,-6.7859,1.2212,8.1777,8.2093,1.5285,-5.8787,-8.3849,-5.4563,-0.15047,5.3121,10.303,12.769,9.2793,-0.043688,-9.6098,-13.616,-11.047,-4.3599,3.734,10.746,14.281,13.035,7.1616,-2.0852,-12.024,-18.627
1.7248,3.1603,3.2748,0.055645,-4.9048,-7.4035,-4.4602,2.3839,7.5895,6.6527,0.73795,-4.9729,-7.0992,-6.4055,-4.4962,-0.60662,6.2935,13.095,13.636,5.7053,-5.5308,-12.738,-12.724,-6.8019,1.641,8.4831,10.659,8.2133,3.434,-1.8533,-6.7654,-9.9778
1.3368,2.9155,3.1343,0.12992,-4.1701,-5.785,-2.5492,3.4928,7.3138,5.6212,0.32876,-4.0928,-5.9667,-6.9256,-7.4714,-4.7653,3.3072,12.894,16.063,9.1972,-2.77,-11.693,-13.238,-8.0455,0.24924,6.7097,7.9453,4.8379,0.95842,-1.602,-3.1794,-4.1802
