-9.2452,-11.052,-13.762,-16.256,-17.962,-19.002,-19.525,-18.98,-16.433,-11.907,-7.0223,-3.7129,-2.2734,-1.1549,1.1863,4.5428,7.1579,7.4107,5.1301,1.4409,-2.3393,-5.5709,-8.3125,-10.634,-11.858,-10.648,-6.3034,-0.093002,5.1661,7.3081,6.5927,5.2306
-5.605,-6.5687,-8.1535,-9.9389,-11.684,-13.295,-14.508,-14.671,-13.126,-10.004,-6.4747,-3.8522,-2.3697,-1.0482,1.1285,4.0222,6.3701,6.9086,5.4118,2.7175,-0.099592,-2.5188,-4.6555,-6.6806,-8.2124,-8.3893,-6.7085,-3.7934,-1.1319,0.092878,-0.088779,-0.65736
-2.2876,-1.7459,-1.2266,-1.3815,-2.4066,-3.8861,-5.1306,-5.6621,-5.416,-4.6059,-3.5258,-2.449,-1.5327,-0.70633,0.26149,1.4387,2.4756,2.8122,2.2231,1.1079,0.16719,-0.20985,-0.20038,-0.25131,-0.67404,-1.5586,-2.882,-4.5005,-6.0982,-7.3342,-8.0685,-8.3784
-3.1344,-0.91237,2.164,4.5265,5.619,6.0013,6.3457,6.533,5.92,4.3699,2.6287,1.501,0.91278,0.10037,-1.365,-3.0597,-4.2413,-4.6149,-4.3989,-3.7733,-2.5321,-0.37065,2.6029,5.6953,7.8236,7.88,5.29,0.57332,-4.7407,-9.0564,-11.659,-12.753
-6.7596,-3.5745,1.257,5.9599,9.8039,13.074,15.904,17.487,16.752,13.744,9.8926,6.6663,4.1309,1.1774,-2.8646,-7.1748,-10.113,-10.721,-9.3671,-7.0246,-4.2135,-0.79043,3.4044,7.8963,11.495,12.771,10.868,6.1973,0.34854,-4.8624,-8.3746,-10.034
-6.9906,-4.4204,-0.14744,4.801,9.868,14.832,19.142,21.671,21.408,18.47,14.214,10.062,6.2214,1.8067,-3.6545,-9.0651,-12.364,-12.293,-9.4517,-5.6064,-2.1769,0.55432,3.0239,5.5298,7.7823,9.0755,8.8352,7.116,4.6368,2.3131,0.72592,-0.018012
0.14086,0.58761,1.7406,3.8983,7.0594,10.723,14.019,16.06,16.291,14.744,12.045,8.9151,5.4924,1.3205,-3.7201,-8.5297,-11.17,-10.374,-6.6956,-2.1539,1.2099,2.51,2.158,1.2214,0.67843,1.0278,2.3049,4.2818,6.629,8.9768,10.917,12.031
11.574,9.6093,6.8557,4.7266,3.8125,3.6892,3.6788,3.5592,3.4596,3.3819,3.1081,2.4169,1.1351,-0.91012,-3.654,-6.4047,-7.924,-7.2133,-4.3771,-0.73944,1.9205,2.4144,0.76727,-1.9145,-4.1196,-4.6285,-2.8907,0.89726,5.9191,11.042,15.166,17.455
20.326,17.017,11.948,6.9315,2.7235,-1.0187,-4.6302,-7.6467,-9.2604,-9.2749,-8.3116,-7.1609,-6.1759,-5.3166,-4.5603,-4.0471,-3.8164,-3.5802,-2.9274,-1.7885,-0.6584,-0.29094,-1.1057,-2.8344,-4.6548,-5.5893,-4.8926,-2.3608,1.5255,5.7795,9.3167,11.302
21.317,18.113,13.22,8.2707,3.7368,-0.89584,-5.9155,-10.663,-14.067,-15.642,-15.758,-14.966,-13.282,-10.35,-6.3173,-2.3167,0.16187,0.42206,-0.92485,-2.5142,-3.2446,-2.9012,-2.0595,-1.5481,-1.9064,-3.0826,-4.477,-5.3296,-5.2101,-4.2507,-3.0161,-2.1773
13.496,11.328,8.2423,5.4765,3.1972,0.72222,-2.4962,-6.3062,-10.087,-13.263,-15.503,-16.442,-15.419,-11.865,-6.232,-0.36597,3.4212,3.8918,1.6647,-1.3318,-3.1328,-2.8008,-0.76609,1.5564,2.5816,1.3905,-1.8185,-5.8996,-9.4377,-11.525,-12.186,-12.159
-0.90477,-1.6505,-2.4611,-2.6475,-2.0916,-1.2414,-0.79126,-1.3844,-3.2998,-6.177,-9.0509,-10.69,-10.031,-6.714,-1.5967,3.3437,6.0543,5.7026,3.1241,0.14499,-1.5119,-0.99115,1.4353,4.4952,6.4196,5.7944,2.397,-2.5697,-7.1482,-9.8466,-10.547,-10.339
-16.452,-15.661,-14.294,-12.481,-10.088,-6.9816,-3.5452,-0.75783,0.47806,0.16424,-0.7049,-0.84629,0.51933,3.2673,6.3793,8.3871,8.2275,5.9983,2.9056,0.40182,-0.63061,0.00039404,2.0382,4.7836,7.0277,7.5099,5.8243,2.9071,0.46505,-0.2876,0.47603,1.4588
-25.029,-23.098,-20.245,-17.434,-14.71,-11.465,-7.4107,-3.0574,0.79349,3.8227,6.3217,8.6618,10.816,12.369,12.792,11.713,9.182,5.8822,2.9195,1.1033,0.45105,0.54881,1.2193,2.5179,4.1988,5.639,6.4471,6.9228,7.7373,9.2053,10.93,12.101
-20.565,-18.697,-16.031,-13.74,-12.109,-10.462,-7.9248,-4.1473,0.6215,5.8236,10.743,14.5,16.252,15.677,13.291,10.171,7.3418,5.4114,4.5208,4.3115,4.0088,2.9834,1.4143,0.20823,0.20649,1.5846,3.9169,6.5299,8.7481,10.099,10.558,10.556
-5.5634,-5.0369,-4.3131,-3.9225,-4.1514,-4.5877,-4.2444,-2.2239,1.6747,6.7819,11.746,14.949,15.165,12.317,7.8002,3.8607,2.2636,3.2948,5.8228,8.1103,8.6691,6.8786,3.3054,-0.51149,-2.8815,-2.9499,-1.2032,0.84793,1.6186,0.46569,-1.8595,-3.6993
9.41,8.6175,7.4459,6.1169,4.4915,2.639,1.2477,1.2322,2.9702,5.9171,8.8068,10.182,9.0183,5.3369,0.54291,-3.0344,-3.4667,-0.52431,4.1856,8.3089,10.02,8.6328,4.6399,-0.47463,-4.8053,-7.0953,-7.6089,-7.8852,-9.4782,-12.757,-16.63,-19.259
14.974,14.377,13.418,12.154,10.344,7.9037,5.3267,3.4401,2.7106,2.8448,3.0605,2.6434,1.2453,-1.0725,-3.7425,-5.6532,-5.6124,-3.2187,0.66658,4.393,6.4495,6.0114,3.0474,-1.6265,-6.5435,-10.404,-12.938,-14.835,-16.877,-19.241,-21.473,-22.855
10.698,11.71,12.875,13.103,11.754,8.9578,5.5413,2.5354,0.451,-1.0213,-2.4484,-3.8511,-4.6755,-4.5402,-3.7412,-2.8899,-2.2132,-1.4248,-0.28434,0.92012,1.4993,0.80753,-1.4221,-4.9013,-8.8362,-12.31,-14.697,-15.729,-15.417,-14.116,-12.55,-11.521
3.4885,5.9281,8.9047,10.253,9.0661,5.9369,2.2801,-0.59729,-2.3124,-3.5263,-5.0072,-6.4966,-6.7517,-4.8358,-1.2372,2.3942,4.5594,4.8733,3.8258,1.9399,-0.56841,-3.4907,-6.4005,-8.8506,-10.619,-11.592,-11.447,-9.6578,-6.0458,-1.305,3.1262,5.7743
0.38632,2.89,5.865,7.0959,5.8362,2.9049,-0.23527,-2.4403,-3.4952,-4.0764,-4.8936,-5.709,-5.3517,-2.8234,1.6328,6.5328,10.11,11.251,9.6958,5.7722,0.34041,-5.1137,-8.9135,-10.142,-9.106,-6.6804,-3.3289,1.0236,6.2769,11.659,16.02,18.425
3.011,4.509,6.255,6.9501,6.2095,4.4274,2.1566,-0.17499,-2.232,-3.7513,-4.5295,-4.358,-3.0391,-0.52901,2.9355,6.7889,10.126,11.797,10.769,6.7745,0.90208,-4.5488,-7.2691,-6.3891,-2.7796,2.0471,7.1071,12.035,16.524,20.127,22.523,23.679
6.9051,7.164,7.6126,8.2316,8.9217,9.1545,8.0256,5.0267,0.83757,-2.8563,-4.5425,-3.9783,-2.1905,-0.44577,0.77233,1.8125,3.0034,3.914,3.5944,1.609,-1.1709,-2.9125,-2.1537,1.1194,5.7275,10.448,14.686,18.238,20.939,22.732,23.772,24.252
6.1218,5.1961,4.4648,5.1921,7.5856,10.305,11.202,8.9439,4.2779,-0.37998,-2.8843,-3.0481,-2.4698,-2.8407,-4.5335,-6.6765,-8.2389,-8.8198,-8.5007,-7.2543,-4.7661,-0.90567,3.7422,8.0443,11.167,13.163,14.623,15.96,17.232,18.422,19.485,20.174
-0.52781,-2.5505,-4.5712,-4.2729,-0.96772,3.8261,7.4763,8.15,6.1052,3.2261,1.1579,-0.10142,-1.7715,-4.7639,-8.8478,-13.076,-16.508,-18.335,-17.675,-13.819,-7.0464,0.87004,7.3542,10.591,10.619,8.9718,7.3274,6.5077,6.5205,7.0884,7.8779,8.4581
-8.5092,-11.107,-14.085,-14.809,-12.156,-7.0721,-1.6455,2.3584,4.4284,5.069,4.7808,3.465,0.854,-2.8421,-7.0209,-11.193,-14.983,-17.575,-17.522,-13.626,-6.3683,1.6551,7.1837,8.4918,6.2794,2.608,-0.80607,-3.4071,-5.449,-7.2421,-8.7387,-9.6226
-13.012,-15.16,-17.988,-19.658,-19.052,-16.07,-11.342,-5.8696,-0.75719,3.0273,4.9286,5.0677,4.1946,3.0876,1.85,-0.060191,-2.9725,-6.1827,-8.0444,-7.0848,-3.3573,1.2571,4.3527,4.7528,2.9743,0.17836,-3.037,-6.8788,-11.73,-17.368,-22.642,-25.891
-12.989,-13.855,-15.389,-17.257,-18.838,-19.092,-16.988,-12.408,-6.6162,-1.5238,1.7632,3.7787,5.9624,9.0051,11.994,13.23,11.772,8.1961,4.1404,1.2211,0.14603,0.54356,1.5451,2.4982,3.0838,2.8861,1.1153,-3.084,-9.9402,-18.475,-26.501,-31.405
-9.1033,-8.7167,-8.7064,-9.9455,-12.447,-14.901,-15.43,-13.139,-8.9714,-4.8505,-1.8322,0.8106,4.5476,9.7318,14.948,18.139,18.167,15.362,10.96,6.3117,2.5126,0.34913,0.18596,1.759,4.1135,5.8397,5.5222,2.2523,-3.9094,-11.705,-18.944,-23.303
-1.2695,-0.373,0.49434,0.20876,-1.6019,-4.1404,-5.9954,-6.2784,-5.2881,-4.0042,-2.9461,-1.6751,0.5469,3.794,7.2826,9.984,11.26,10.973,9.2442,6.3594,2.9782,0.19586,-0.95579,-0.23398,1.6028,3.2999,3.8348,2.8433,0.63286,-2.059,-4.3975,-5.7328
9.1217,9.8147,10.693,11.142,10.796,9.5807,7.6316,5.2273,2.7458,0.57402,-1.0763,-2.3542,-3.6444,-5.0417,-5.9687,-5.5283,-3.3651,-0.20258,2.459,3.2664,1.8919,-0.78824,-3.3684,-4.8824,-5.2474,-4.8739,-3.9216,-1.9964,1.3709,5.939,10.48,13.33
16.977,17.32,17.919,18.704,19.441,19.433,17.78,14.183,9.4369,4.9027,1.3139,-1.9295,-6.0372,-11.191,-15.742,-17.286,-14.666,-9.0223,-3.0942,0.50178,0.6507,-2.008,-5.8372,-9.2856,-11.537,-12.311,-11.14,-7.1137,0.32289,10.181,19.708,25.577
