-0.46197,-0.36649,0.033625,0.68395,0.11088,-0.46197
0.14234,0.1426,0.071285,-0.36329,0.0070718,0.14234
-0.19763,-0.090566,0.003601,0.23165,0.052941,-0.19763
-0.37257,-0.022193,-0.064515,0.28796,0.17132,-0.37257
0.14239,0.74891,-0.29721,-0.67742,0.083332,0.14239
-0.46197,-0.36649,0.033625,0.68395,0.11088,-0.46197
